|0|






|
f   0  25   0  22   1   0   0
P20    0 4.500000 16.000000 4.750000 16.049999 0
P19    0 4.500000 15.166667 4.733333 15.250000 0
P18    0 4.500000 14.333333 4.716667 14.416667 0
P17    0 4.500000 13.416667 4.700000 13.516669 0
P16    0 4.500000 12.500000 4.733333 12.533333 0
P15    0 4.500000 11.500000 4.666667 11.616667 0
P14    0 4.500000 10.583333 4.750000 10.666667 0
P13    0 4.500000 9.666667 4.700000 9.766669 0
P12    0 3.000000 8.750000 2.866667 9.083333 0
P11    0 4.500000 8.750000 4.733333 8.816667 0
P10    0 4.500000 7.916667 4.750000 8.016667 0
idleM5    1 5.833333 14.500000 5.683333 14.300000 0
idleM4    1 5.833333 11.916667 5.700000 11.683333 0
idleM3    1 6.166667 8.500000 6.200000 8.900000 0
idleM2    1 5.833333 5.500000 5.843333 5.313333 0
idleM1    1 5.666667 1.333333 5.616667 1.133333 0
P9    0 4.500000 6.916667 4.733333 6.983333 0
P8    0 4.500000 6.083333 4.126666 6.156667 0
P7    0 2.833333 5.333333 2.733333 5.716667 0
P6    0 4.500000 5.333333 4.120000 5.323333 0
P5    0 4.500000 4.333333 4.710000 4.396666 0
P4    0 4.500000 3.166667 4.750000 3.230000 0
P3    0 4.500000 2.166667 4.646666 2.140000 0
P2    0 4.480000 1.150000 4.733333 1.266667 0
P1  100 1.416667 5.333333 1.096666 5.366667 0
G1  0.000000 0.000000 1
activityM5  1.000000e+00   0   0   1 0 4.500000 14.750000 4.666667 14.783333 4.500000 14.750000 0
   1   3   0 0
   1
   1   2   0 0
   0
activityM4  5.000000e-01   0   0   1 0 4.500000 12.000000 4.700000 12.066667 4.500000 12.000000 0
   1   6   0 0
   1
   1   5   0 0
   0
activityM3  1.000000e+00   0   0   1 0 4.500000 8.333333 4.716667 8.383333 4.500000 8.333333 0
   1  11   0 0
   1
   1  10   0 0
   0
activityM2  1.000000e+00   0   0   1 0 4.500000 4.833333 4.706667 4.893333 4.500000 4.833333 0
   1  21   0 0
   1
   1  20   0 0
   0
activityM1  1.000000e+00   0   0   1 0 4.500000 1.666667 4.703334 1.690000 4.500000 1.666667 0
   1  24   0 0
   1
   1  23   0 0
   0
reinit  1.000000e+00   1   1   1 0 1.416667 8.083333 1.583333 8.116667 1.416667 8.083333 0
   1   1   1 0
1.400000 16.000000
   1
   1  25   0 0
   0
releaseKoM3  1.000000e+00   0   1   1 1 2.333333 8.750000 2.000000 8.533333 2.333334 8.750000 0
   1   9   0 0
   2
   1  25   0 0
   1  14   1 0
3.233333 9.300000
   0
releaseKoM2  1.000000e+00   0   1   1 1 2.166667 5.333333 1.883333 5.100000 2.166667 5.333333 0
   1  19   0 0
   2
   1  25   0 0
   1  15   1 0
2.900000 6.066667
   0
koM3  5.000000e-02   0   1   1 1 3.750000 8.750000 3.650000 9.050000 3.750000 8.750000 0
   1  10   0 0
   1
   1   9   0 0
   0
koM2  5.000000e-02   0   1   1 1 3.833333 5.333333 3.616667 5.616667 3.833334 5.333333 0
   1  20   0 0
   1
   1  19   0 0
   0
releaseOkM5  1.000000e+00   0   1   1 0 4.500000 15.583333 4.700000 15.616667 4.500000 15.583333 0
   1   2   0 0
   2
   1   1   0 0
   1  12   1 0
5.700000 15.066667
   0
releaseOkM3  1.000000e+00   0   1   1 0 4.500000 10.166667 4.700000 10.200000 4.500000 10.166666 0
   1   8   0 0
   2
   1   7   0 0
   1  14   1 0
5.733333 9.366667
   0
releaseOkM2  1.000000e+00   0   1   1 0 4.500000 6.500000 4.690000 6.550000 4.500000 6.500000 0
   1  18   0 0
   2
   1  17   0 0
   1  15   1 0
5.533333 6.000000
   0
okM3  9.500000e-01   0   1   1 0 4.500000 9.250000 4.683333 9.316667 4.500000 9.250000 0
   1  10   0 0
   1
   1   8   0 0
   0
releaseM4  1.000000e+00   0   1   1 0 4.500000 13.000000 4.733333 13.066667 4.500000 13.000000 0
   1   5   0 0
   2
   1  13   1 0
5.600000 12.366667
   1   4   0 0
   0
okM2  9.500000e-01   0   1   1 0 4.500000 5.750000 4.610000 5.703334 4.500000 5.750000 0
   1  20   0 0
   1
   1  18   0 0
   0
releaseM1  1.000000e+00   0   1   1 0 4.500000 2.666667 4.723333 2.696667 4.500000 2.666667 0
   1  23   0 0
   2
   1  22   0 0
   1  16   1 0
5.433333 2.033333
   0
acquireM5  1.000000e+00   0   1   2 0 4.500000 13.916667 4.700000 13.950000 4.500000 13.916667 0
   1   4   0 0
   1  12   1 0
5.633333 14.133333
   1
   1   3   0 0
   0
acquireM4  1.000000e+00   0   1   2 0 4.500000 11.083333 4.683333 11.116667 4.500000 11.083334 0
   1   7   0 0
   1  13   1 0
5.366667 11.233330
   1
   1   6   0 0
   0
acquireM3  1.000000e+00   0   1   2 0 4.500000 7.416667 4.700000 7.483333 4.500000 7.416667 0
   1  17   0 0
   1  14   1 0
5.633333 7.600000
   1
   1  11   0 0
   0
acquireM2  1.000000e+00   0   1   2 0 4.500000 3.666667 4.700000 3.650000 4.500000 3.666667 0
   1  22   0 0
   1  15   1 0
5.533333 4.366667
   1
   1  21   0 0
   0
acquireM1  1.000000e+00   0   1   2 0 4.470000 0.730000 4.733333 0.816667 4.470000 0.730000 0
   1  25   0 0
   1  16   1 0
5.400000 0.866667
   1
   1  24   0 0
   0
