|0|






|
f   0  37   0  34   1   0   0
start  500 4.916667 0.766667 5.116667 0.733333 0
P2    0 2.583333 1.833333 2.816667 1.983333 0
P3    0 2.583333 2.750000 2.483333 3.100000 0
P4    0 2.000000 3.666667 1.666667 3.883333 0
P5    0 2.000000 4.750000 1.700000 5.016667 0
P6    0 3.166667 3.666667 3.316667 3.866667 0
P7    0 3.166667 4.750000 2.800000 4.816667 0
P8    0 2.583333 5.750000 2.750000 5.916667 0
P9    0 2.583333 6.666667 2.733333 6.816667 0
P10    0 2.583333 7.583333 2.750000 7.716667 0
P11    0 4.916667 1.833333 5.116667 1.916667 0
P12    0 4.916667 2.833333 4.833333 3.150000 0
P13    0 4.333333 3.666667 3.916667 3.850000 0
P14    0 4.333333 4.666667 4.616667 4.700000 0
P15    0 5.583333 3.666667 5.783333 3.833333 0
P16    0 5.583333 4.666667 5.716667 4.900000 0
P17    0 4.916667 5.750000 4.800000 6.083333 0
P18    0 4.333333 6.500000 3.883333 6.583333 0
P19    0 4.333333 7.416667 4.566667 7.516667 0
P20    0 5.583333 6.500000 5.716667 6.700000 0
P21    0 5.583333 7.416667 5.216667 7.650000 0
P22    0 4.916667 8.333333 4.516667 8.533333 0
P23    0 7.083333 1.750000 7.300000 1.783333 0
P24    0 7.083333 4.000000 7.283333 4.150000 0
P25    0 7.083333 5.250000 7.266667 5.366667 0
P26    0 7.083333 6.333333 7.266667 6.366667 0
P27    0 7.083333 7.416667 7.283333 7.500000 0
P28    0 7.083333 8.333333 6.700000 8.583333 0
P37    0 4.916667 9.583333 4.883333 9.883333 0
M6    1 1.166667 4.750000 0.550000 4.733333 0
M4    1 3.666667 4.750000 3.866667 4.716667 0
M5    2 3.416667 7.333333 3.616667 7.450000 0
M1    1 6.333333 4.916667 6.466667 5.083333 0
M3    1 6.166667 7.416667 5.800000 7.700000 0
M2    1 6.583333 7.416667 6.716667 7.650000 0
palletsB   50 9.333333 5.000000 8.500000 5.433333 0
palletsA   50 8.250000 5.000000 8.450000 4.966667 0
G1  4.916667 1.666667 1
init  1.000000e+00   0   0   1 0 9.666667 6.583333 9.850000 6.716667 9.833333 6.666667 0
   1  29   1 0
9.666667 9.533333
   1
   1   1   4 0
9.650000 0.583333
9.633333 0.300000
4.900000 0.300000
4.916667 0.583333
   0
work2_M5  7.142800e-02   0   0   1 0 4.333333 8.000000 3.883333 8.100002 4.500000 8.083333 0
   1  19   0 0
   2
   1  22   0 0
   1  32   2 0
3.833333 8.350002
3.416667 7.966667
   0
work2_M3  3.846100e-02   0   0   1 0 5.583333 8.000000 5.816667 8.100002 5.750000 8.083333 0
   1  21   0 0
   2
   1  22   0 0
   1  34   1 0
6.183333 8.316667
   0
work1_M2  2.500000e-01   0   0   1 0 7.083333 7.916667 7.266667 7.983333 7.250000 8.000000 0
   1  27   0 0
   2
   1  28   0 0
   1  35   1 0
6.583333 8.116667
   0
work3_M5  7.142800e-02   0   0   1 0 2.583333 7.166667 2.183333 7.350000 2.750000 7.250000 0
   1   9   0 0
   2
   1  10   0 0
   1  32   1 0
2.850000 7.466667
   0
work2_M1  5.000000e-02   0   0   1 0 5.583333 5.250000 4.750000 5.100000 5.750000 5.333333 0
   1  16   0 0
   2
   1  17   0 0
   1  33   1 0
6.183333 5.483333
   0
work3_M4  8.333340e-02   0   0   1 0 3.166667 5.333333 3.350000 5.366667 3.333333 5.416667 0
   1   7   0 0
   2
   1   8   0 0
   1  31   1 0
3.583333 5.133333
   0
work2_M4  1.000000e-01   0   0   1 0 4.333333 5.250000 4.500000 5.333333 4.500000 5.333333 0
   1  14   0 0
   2
   1  17   0 0
   1  31   1 0
3.750000 5.116667
   0
work1_M1  2.000000e-01   0   0   1 0 7.083333 5.750000 7.250000 5.833333 7.250000 5.833333 0
   1  25   0 0
   2
   1  26   0 0
   1  33   1 0
6.483333 5.650000
   0
work3_M6  7.692300e-02   0   0   1 0 2.000000 5.333333 2.066667 5.233333 2.166667 5.416667 0
   1   5   0 0
   2
   1  30   1 0
1.283333 5.533333
   1   8   0 0
   0
acquire2_M5  1.000000e+00   1   1   2 0 4.333333 6.916667 4.533333 7.066667 4.500000 7.000000 0
   1  18   0 0
   1  32   2 0
4.150000 6.683333
3.683333 6.750000
   1
   1  19   0 0
   0
finish1  1.000000e+00   1   1   1 0 7.083333 8.833333 7.266667 8.883333 7.250000 8.916667 0
   1  28   0 0
   2
   1  29   0 0
   1  37   1 0
8.250000 8.216667
   0
finish2  1.000000e+00   1   1   1 0 4.916667 8.666667 5.100000 8.683333 5.083333 8.750000 0
   1  22   0 0
   2
   1  36   2 0
5.100000 9.000000
9.300000 9.000000
   1  29   0 0
   0
finish3  1.000000e+00   1   1   1 0 2.583333 8.666667 2.800000 8.733331 2.750000 8.750000 0
   1  10   0 0
   2
   1  36   3 0
2.783333 9.200000
9.500000 9.183333
9.500000 5.216667
   1  29   0 0
   0
acquire1_M2  1.000000e+00   1   1   2 0 7.083333 6.916667 7.233333 6.983333 7.250000 7.000000 0
   1  26   0 0
   1  35   1 0
6.700000 6.616667
   1
   1  27   0 0
   0
acquire2_M3  1.000000e+00   1   1   2 0 5.583333 6.916667 5.766667 6.983333 5.750000 7.000000 0
   1  20   0 0
   1  34   1 0
6.166667 6.600000
   1
   1  21   0 0
   0
use2_M3  4.285720e-01   1   1   1 0 5.583333 6.083333 5.800000 6.116667 5.750000 6.166667 0
   1  17   0 0
   1
   1  20   0 0
   0
use2_M5  5.714280e-01   1   1   1 0 4.333333 6.083333 3.850000 6.133333 4.500000 6.166667 0
   1  17   0 0
   1
   1  18   0 0
   0
acquire3_M5  1.000000e+00   1   1   2 0 2.583333 6.250000 2.766667 6.300000 2.750000 6.333333 0
   1   8   0 0
   1  32   1 0
3.416667 6.533333
   1
   1   9   0 0
   0
acquire1_M1  1.000000e+00   1   1   2 0 7.083333 4.666667 7.183333 4.583333 7.250000 4.750000 0
   1  24   0 0
   1  33   1 0
6.683333 4.533333
   1
   1  25   0 0
   0
acquire2_M1  1.000000e+00   1   1   2 0 5.583333 4.166667 5.783333 4.250000 5.750000 4.250000 0
   1  15   0 0
   1  33   1 0
6.316667 4.416667
   1
   1  16   0 0
   0
acquire2_M4  1.000000e+00   1   1   2 0 4.333333 4.166667 3.833333 4.266667 4.500000 4.250000 0
   1  13   0 0
   1  31   1 0
3.800000 4.366667
   1
   1  14   0 0
   0
acquire3_M4  1.000000e+00   1   1   2 0 3.166667 4.250000 2.316667 4.150000 3.333333 4.333333 0
   1   6   0 0
   1  31   1 0
3.633333 4.400000
   1
   1   7   0 0
   0
acquire3_M6  1.000000e+00   1   1   2 0 2.000000 4.250000 1.650000 4.466667 2.166667 4.333333 0
   1  30   1 0
1.383333 3.966667
   1   4   0 0
   1
   1   5   0 0
   0
use2_M1  4.000000e-01   1   1   1 0 5.583333 3.166667 5.766667 3.316667 5.750000 3.250000 0
   1  12   0 0
   1
   1  15   0 0
   0
use2_M4  6.000000e-01   1   1   1 0 4.333333 3.166667 3.916667 3.366667 4.500000 3.250000 0
   1  12   0 0
   1
   1  13   0 0
   0
use3_M4  5.000000e-01   1   1   1 0 3.166667 3.166667 3.350000 3.183333 3.333333 3.250000 0
   1   3   0 0
   1
   1   6   0 0
   0
use3_M6  5.000000e-01   1   1   1 0 2.000000 3.166667 1.366667 3.066667 2.166667 3.250000 0
   1   3   0 0
   1
   1   4   0 0
   0
start1  1.000000e+00   1   1   2 0 7.083333 2.416667 7.233333 2.500000 7.250000 2.500000 0
   1  37   1 0
8.250000 2.916667
   1  23   0 0
   1
   1  24   0 0
   0
start2  1.000000e+00   1   1   2 0 4.916667 2.333333 5.000000 2.483333 5.083333 2.416667 0
   1  36   2 0
5.233333 2.166667
9.350000 2.150000
   1  11   0 0
   1
   1  12   0 0
   0
start3  1.000000e+00   1   1   2 0 2.583333 2.416667 1.733333 2.450000 2.750000 2.500000 0
   1  36   3 0
3.033333 2.083333
9.483329 2.016667
9.483329 4.633333
   1   2   0 0
   1
   1   3   0 0
   0
type1  4.000000e-01   1   1   1 0 7.083333 1.350000 7.283333 1.400000 7.250000 1.433333 0
   1   1   0 0
   1
   1  23   0 0
   0
type2  2.000000e-01   1   1   1 0 4.916667 1.350000 5.116667 1.450000 5.083333 1.433333 0
   1   1   0 0
   1
   1  11   0 0
   0
type3  4.000000e-01   1   1   1 0 2.583333 1.416667 1.900000 1.600000 2.750000 1.500000 0
   1   1   0 0
   1
   1   2   0 0
   0
