|0|



|
f   0  29   0  26   3   0   0
start1  500 4.600000 0.750000 4.780000 0.720000 0
P27    0 4.600000 1.600000 4.800000 1.690000 0
P3    0 6.000000 2.625000 6.180000 2.595000 0
P4    0 3.375000 2.625000 3.555000 2.595000 0
P5_MachineM2    1 7.583333 4.250000 7.763333 4.220000 0
P6_MachineM1    1 1.750000 4.250000 1.930000 4.220000 0
P7_RobotR1    2 4.650000 2.925000 4.830000 2.895000 0
P8    0 6.000000 3.825000 6.180000 3.795000 0
P9    0 3.375000 3.825000 3.555000 3.795000 0
P10    0 6.000000 4.875000 6.180000 4.845000 0
P11    0 3.375000 4.875000 3.555000 4.845000 0
P12    0 3.375000 5.925000 3.555000 5.895000 0
P13    0 6.000000 5.925000 6.180000 5.895000 0
P14    0 4.650000 6.900000 4.815000 7.080000 0
P15    0 4.650000 7.800000 4.830000 7.770000 0
P16    0 4.650000 8.775000 4.830000 8.745000 0
P17    0 4.666667 11.250000 4.861666 11.355000 0
P18_MachineM3    1 2.833333 12.583333 2.900000 12.933333 0
P19_RobotR2    1 7.083333 13.250000 7.263333 13.220001 0
P20    0 4.666667 12.000000 4.846667 11.970000 0
P21    0 4.666667 12.750000 4.846667 12.720000 0
P22    0 4.666667 13.583333 4.846667 13.553336 0
P23    0 4.666667 14.750000 4.846667 14.720000 0
P24    0 4.666667 15.583333 4.846667 15.553335 0
P25    0 4.666667 9.583333 4.866667 9.550001 0
P26    0 4.666667 10.500000 4.866667 10.466667 0
start    1 11.000000 1.083333 11.200000 1.050000 0
P2    0 11.000000 2.333333 11.200000 2.300000 0
done    0 11.000000 3.583333 11.200000 3.550000 0
G1  0.000000 0.000000 1
G2  0.000000 0.000000 2
G3  0.000000 0.000000 3
compromising  1.000000e-06   0   0   1 0 11.000000 1.750000 11.266668 1.783333 11.166666 1.833333 0
   1  27   0 0
   1
   1  28   0 0
   0
checkMachine3Availability  1.000000e+01   0   0   1 0 4.666667 10.000000 4.933334 10.033333 4.833334 10.083333 0
   1  25   0 0
   1
   1  26   0 0
   0
checkMachineAvailability  1.000000e+01   0   0   1 0 4.600000 1.200000 2.050000 1.250000 4.802500 1.297500 0
   1   1   0 0
   1
   1   2   1 0
4.600000 1.380000
   0
movePieceToExit  3.333340e-01   0   0   1 0 4.666667 15.166667 4.876667 15.226667 4.816667 15.241666 0
   1  23   0 0
   1
   1  24   0 0
   0
workingM3  1.428570e-01   0   0   1 0 4.666667 13.166667 4.906667 13.196665 4.816667 13.241667 0
   1  21   0 0
   1
   1  22   0 0
   0
movePieceToM3  3.333340e-01   0   0   1 0 4.666667 11.583333 4.846667 11.658333 4.816667 11.658333 0
   1  17   0 0
   1
   1  20   0 0
   0
movePieceToBuffer  3.333340e-01   0   0   1 0 4.650000 8.325000 4.860000 8.399998 4.800000 8.399998 0
   1  15   0 0
   1
   1  16   0 0
   0
workingM2  6.666700e-02   0   0   1 0 6.000000 5.400000 6.180000 5.445000 6.150000 5.475000 0
   1  10   0 0
   1
   1  13   0 0
   0
workingM1  1.000000e-01   0   0   1 0 3.375000 5.400000 2.340000 5.445000 3.525000 5.475000 0
   1  11   0 0
   1
   1  12   0 0
   0
movePieceToM1  3.333340e-01   0   0   1 0 3.375000 3.150000 2.010000 3.195000 3.525000 3.225000 0
   1   4   0 0
   1
   1   9   0 0
   0
movePieceToM2  3.333340e-01   0   0   1 0 6.000000 3.150000 6.195000 3.195000 6.150000 3.225000 0
   1   3   0 0
   1
   1   8   0 0
   0
end  1.000000e+00   1   1   1 0 4.666667 16.000000 4.866667 16.049999 4.816667 16.075001 0
   1  24   0 0
   2
   1   1   2 0
1.033333 14.500000
1.033333 0.750000
   1  19   1 0
7.083333 14.966667
   0
t26  1.000000e+00   1   1   1 0 4.666667 12.416667 4.866667 12.433333 4.833333 12.500000 0
   1  20   0 0
   2
   1  21   0 0
   1  19   1 0
6.833333 12.733329
   0
M3notavailable  1.000000e+00   1   1   1 1 5.666667 10.500000 5.783333 10.583333 5.833333 10.583333 0
   1  26   0 0
   1
   1  25   0 0
   0
t15  1.000000e+00   1   1   1 0 4.650000 9.225000 4.830000 9.270000 4.800000 9.300000 0
   1  16   0 0
   2
   1  25   0 0
   1   7   2 0
4.200000 8.745000
4.200000 3.795000
   0
t21  1.000000e+00   1   1   2 0 4.666667 14.250000 4.876667 14.325000 4.816667 14.325000 0
   1  19   1 0
6.766667 13.700000
   1  22   0 0
   2
   1  18   1 0
2.833333 13.866667
   1  23   0 0
   0
t13  1.000000e+00   1   1   2 0 4.650000 7.350000 4.860000 7.395000 4.800000 7.425000 0
   1   7   2 0
5.055000 6.990000
5.040000 3.750000
   1  14   0 0
   1
   1  15   0 0
   0
t12  1.000000e+00   1   1   1 0 6.000000 6.450000 6.195000 6.495000 6.150000 6.525000 0
   1  13   0 0
   2
   1   5   1 0
7.583333 5.600000
   1  14   0 0
   0
t11  1.000000e+00   1   1   1 0 3.375000 6.450000 2.895000 6.495000 3.525000 6.525000 0
   1  12   0 0
   2
   1   6   1 0
1.750000 5.516667
   1  14   0 0
   0
t8  1.000000e+00   1   1   1 0 3.375000 4.350000 3.510000 4.395000 3.525000 4.425000 0
   1   9   0 0
   2
   1   7   0 0
   1  11   0 0
   0
t7  1.000000e+00   1   1   1 0 6.000000 4.350000 6.180000 4.380000 6.150000 4.425000 0
   1   8   0 0
   2
   1   7   0 0
   1  10   0 0
   0
noneAvailable  1.000000e+00   1   1   1 1 6.000000 1.200000 6.110000 1.300000 6.202500 1.297500 0
   1   2   1 0
5.700000 1.600000
   1
   1   1   1 0
5.750000 0.750000
   0
M3available  1.000000e+00   1   2   3 0 4.666667 10.916667 4.933333 10.883333 4.833333 11.000000 0
   1  18   1 0
2.833333 11.200000
   1  26   0 0
   1  19   1 0
7.083333 11.700000
   1
   1  17   0 0
   0
M1available  1.000000e+00   1   2   3 0 3.375000 2.025000 3.633333 1.983333 3.577500 2.122500 0
   1   6   1 0
1.750000 2.483333
   1   7   0 0
   1   2   1 0
3.316667 1.783333
   1
   1   4   0 0
   0
M2available  1.000000e+00   1   2   3 0 6.000000 2.025000 6.285000 1.920000 6.202500 2.122500 0
   1   5   1 0
7.583333 2.666667
   1   7   0 0
   1   2   1 0
5.983333 1.750000
   1
   1   3   0 0
   0
t2  1.000000e+00   1   3   2 0 11.000000 2.916667 11.266668 2.866667 11.166666 3.000000 0
   1  28   0 0
   1   7   2 0
10.671944 2.384685
5.060343 2.997317
   1
   1  29   0 0
   0
