|0|




|
f   0  89   0  88   1   0   0
P22    0 17.499123 8.843982 17.699123 8.810648 0
P21    0 17.499123 8.010649 17.699123 7.977315 0
P13    0 17.499123 6.343983 17.710234 6.443983 0
P15    0 17.499123 7.177316 17.699123 7.143983 0
P1    0 17.499123 5.510649 17.699123 5.477316 0
P34    0 17.499123 9.677315 17.699123 9.643982 0
P37    0 21.682450 9.593982 21.882456 9.560649 0
P23    0 20.632456 5.877316 20.832456 5.843982 0
P24    0 21.682450 6.843982 21.882456 6.810649 0
P26    0 21.682450 7.677316 21.882456 7.643982 0
P27    0 21.682450 8.510650 21.882456 8.477315 0
P28    0 20.765792 10.593982 20.665788 10.343982 0
P31    0 22.799123 11.543982 22.665790 11.377316 0
P44    0 24.632456 10.660653 24.532454 10.410650 0
P43    0 25.549123 8.577315 25.749123 8.543982 0
P42    0 25.549123 7.743982 25.749123 7.710649 0
P41    0 25.549123 6.910649 25.749123 6.877316 0
P40    0 24.465790 6.077316 24.665788 6.043982 0
P38    0 25.549123 9.660653 25.749123 9.627316 0
P46    0 22.549123 5.043982 22.749123 5.010649 0
P372    0 15.569446 14.905093 15.769448 14.871761 0
P232    0 14.486106 11.321761 14.686113 11.288429 0
P242    0 15.569446 12.155093 15.769448 12.121760 0
P262    0 15.569446 12.988428 15.769448 12.955094 0
P272    0 15.569446 13.821761 15.769448 13.788429 0
P282    0 14.652779 15.905093 14.552779 15.655094 0
P312    0 14.652779 16.738428 14.852779 16.705093 0
P222    0 11.416669 14.641205 11.616670 14.607870 0
P212    0 11.416669 13.807872 11.616670 13.774537 0
P132    0 11.416669 12.141206 11.627780 12.241206 0
P153    0 11.416669 12.974538 11.616670 12.941205 0
P115    0 11.416669 11.307872 11.616670 11.274539 0
P342    0 11.416669 15.474538 11.616670 15.441204 0
P49    0 7.733333 17.450000 7.933333 17.416671 0
P48    0 7.733333 16.700001 7.933333 16.666668 0
P47    0 8.566667 16.033333 8.766667 15.999999 0
P461    0 8.566667 14.366667 8.800000 14.416667 0
P45    0 6.816667 14.366667 6.349999 14.450000 0
P412    0 7.650000 10.283333 7.849999 10.249999 0
P114    0 7.650000 9.450000 7.850001 9.416667 0
P11    0 7.650000 13.716667 7.849999 13.683335 0
P10    0 7.650000 12.883333 7.849999 12.850000 0
P9    0 7.650000 11.966667 7.849999 11.933334 0
P2    0 7.650000 11.133333 7.849999 11.100000 0
P14    0 6.816667 16.033333 7.016665 15.999999 0
P432    0 6.816667 15.116667 7.016665 15.083334 0
P431    0 9.100000 6.700001 9.300000 6.666668 0
P421  300 7.850000 6.700001 7.416667 6.550000 0
P411    0 9.100000 2.366667 9.300000 2.333333 0
P401  100 7.933334 2.366667 7.400001 2.216667 0
P39  100 14.766671 3.033333 14.516668 2.816667 0
P110    0 9.100000 1.533333 9.300001 1.500000 0
P211    0 13.100002 1.283333 13.300001 1.249999 0
P221    0 13.100002 2.200001 13.300001 2.166666 0
P281    0 13.183334 8.283333 13.383333 8.250002 0
P311    0 13.183334 9.116668 13.383333 9.083334 0
P111    0 9.100000 5.800001 9.299999 5.766669 0
P101    0 9.100000 4.966667 9.299999 4.933334 0
P91    0 9.100000 4.050001 9.299999 4.016668 0
P25    0 9.100000 3.216667 9.299999 3.183334 0
P151    0 9.100000 8.816667 9.300000 8.783333 0
P141    0 9.100000 7.816667 9.300000 7.783334 0
P341    0 14.000000 6.533333 14.200001 6.500001 0
P35  100 12.833334 6.533333 12.433334 6.333334 0
P371    0 13.983329 7.400001 14.183334 7.366667 0
P261    0 13.983329 5.733333 14.183332 5.700000 0
P241    0 13.983329 4.733333 14.183332 4.700000 0
P231    0 13.100002 3.833333 13.300001 3.799999 0
P441    0 13.100002 3.083333 13.300001 3.050000 0
P131    0 4.650001 9.433333 4.250000 9.666667 0
P6    0 3.516667 4.450000 3.050001 4.466667 0
P5    0 5.316667 3.983333 5.516667 3.950000 0
P7    0 4.650001 5.066667 4.233334 5.133333 0
P8    0 6.066667 5.066667 6.266667 5.033333 0
P92    0 5.500000 5.916667 5.700000 5.883335 0
P102    0 5.500000 6.916667 5.666667 6.950001 0
P112    0 4.666667 7.083333 4.183332 7.150001 0
P12    0 5.500000 8.583333 5.000001 8.633333 0
P142    0 6.833333 5.916667 7.033333 5.883332 0
P152    0 6.816667 7.733333 7.016667 7.700001 0
P113  100 4.416667 0.833333 4.616667 0.800000 0
P271    0 4.416667 1.833333 4.616667 1.800000 0
P3    0 3.500000 2.583333 3.100000 2.616667 0
P4    0 5.333333 2.583333 5.533333 2.550000 0
P16    0 3.483333 3.433333 3.683333 3.400000 0
P17    0 5.350000 3.266667 5.550000 3.233333 0
P18    0 4.666667 6.083333 4.866667 6.050000 0
P19    0 6.833333 6.833333 7.033333 6.800000 0
P20    0 5.500000 7.750000 5.700000 7.716667 0
G2  0.000000 0.000000 1
Tr_ackClient  1.000000e-01   0   0   1 0 20.765792 11.010649 20.965788 11.077314 20.932454 11.093982 0
   1  12   0 0
   1
   1  13   0 0
   0
Tr_ack_decr  1.000000e-01   0   0   1 0 21.682450 10.093982 21.965790 10.177315 21.849123 10.177315 0
   1   7   0 0
   1
   1  12   0 0
   0
Tr_ack_c  1.000000e-01   0   0   1 0 24.632456 11.077315 24.832454 11.143982 24.799123 11.160650 0
   1  14   0 0
   1
   1  13   0 0
   0
Tr_ack_d  1.000000e-01   0   0   1 0 25.549123 10.160653 25.832456 10.243981 25.715790 10.243981 0
   1  19   0 0
   1
   1  14   0 0
   0
decryption  1.000000e-02   0   0   1 0 21.682450 9.093982 21.899125 9.093983 21.849123 9.177315 0
   1  11   0 0
   2
   1   7   0 0
  -1  64   2 0
22.274154 8.892684
13.174531 6.294177
   0
decr  1.000000e-02   0   0   1 0 25.549123 9.160653 25.765792 9.160650 25.715790 9.243981 0
   1  15   0 0
   2
   1  19   0 0
  -1  64   2 0
24.946352 8.995445
12.905652 6.122990
   0
Tr_SP2Receiver  1.000000e-02   0   0   1 0 21.682450 7.260649 21.915788 7.310650 21.849123 7.343982 0
   1   9   0 0
   1
   1  10   0 0
   0
Tr_SP2Rec  1.000000e-02   0   0   1 0 25.549123 7.327316 25.782454 7.377317 25.715790 7.410649 0
   1  17   0 0
   1
   1  16   0 0
   0
ack_decr1  1.000000e-01   0   0   1 0 13.983329 7.816667 14.216667 7.900000 14.150002 7.900000 0
   1  65   0 0
   1
   1  55   0 0
   0
Tr_SP2MR1  1.000000e-02   0   0   1 0 9.100000 3.633333 9.333333 3.700001 9.266669 3.716667 0
   1  60   0 0
   1
   1  59   0 0
   0
decideRM1  1.000000e-01   0   0   1 0 13.100002 3.416667 13.333334 3.500000 13.266668 3.500000 0
   1  69   0 0
   2
   1  51   0 0
   1  68   0 0
   0
encrypt1  5.000000e-03   0   0   1 0 9.100000 2.800001 9.299999 2.733335 9.299999 2.883335 0
   1  49   0 0
   2
   1  50   0 0
   1  60   0 0
   0
thinking  3.333000e-03   0   0   1 0 4.416667 1.333333 4.633333 1.383333 4.583333 1.416667 0
   1  81   0 0
   1
   1  82   0 0
   0
Tr_createP1  1.000000e-02   0   0   1 0 9.100000 5.383333 9.366667 5.416667 9.266669 5.466666 0
   1  58   0 0
   1
   1  57   0 0
   0
Tr_SP2Receiver1  1.000000e-02   0   0   1 0 13.983329 5.233333 14.216667 5.283334 14.150002 5.316666 0
   1  67   0 0
   1
   1  66   0 0
   0
Tr_SR2RM  1.000000e-01   0   0   1 0 17.499123 6.760649 17.704677 6.805092 17.724123 6.868981 0
   1   3   0 0
   1
   1   4   0 0
   0
Tr_destroy  1.000000e-01   0   0   1 0 17.499123 7.593982 17.665790 7.627315 17.665790 7.677316 0
   1   4   0 0
   1
   1   2   0 0
   0
decryption1  1.000000e-02   0   0   1 0 14.000000 6.950002 14.216667 6.950001 14.166666 7.033334 0
   1  63   0 0
   2
   1  64   0 0
   1  65   0 0
   0
ErrorDI  3.333000e-03   0   0   1 0 5.500000 6.416667 5.700000 6.450001 5.666667 6.500001 0
   1  75   0 0
   1
   1  76   0 0
   0
scan_decypher1  5.000000e-02   0   0   1 0 9.100000 7.316667 9.266669 7.350002 9.266669 7.400001 0
   1  47   0 0
   2
   1  48   0 0
   1  62   0 0
   0
Tr_SR2RM1  1.000000e-01   0   0   1 0 9.100000 8.316667 9.305555 8.361109 9.325001 8.424999 0
   1  62   0 0
   1
   1  61   0 0
   0
decideRM  1.000000e-01   0   0   1 0 17.499123 10.177315 17.732456 10.260649 17.665790 10.260649 0
   1   6   0 0
   2
   1  20   3 0
18.999123 9.310649
18.999123 6.643982
19.832456 5.077316
  -1  51   2 0
16.979091 9.830627
14.838988 2.622990
   0
Tr_ackClient1  1.000000e-01   0   0   1 0 13.183334 8.700000 13.383333 8.766669 13.350002 8.783333 0
   1  55   0 0
   1
   1  56   0 0
   0
Tr_destroy1  1.000000e-01   0   0   1 0 9.100000 9.400000 9.266669 9.433333 9.266669 9.483331 0
   1  61   0 0
   1
   1  53   2 0
11.383334 6.700001
11.383334 1.300000
   0
scan_decypher  5.000000e-03   0   0   1 0 6.816667 15.616667 6.983334 15.650002 6.983334 15.700001 0
   1  46   0 0
   2
   1  45   0 0
  -1  48   3 0
6.211251 15.461434
7.600000 7.800000
7.922317 6.289658
   0
Tr_createP  1.000000e-02   0   0   1 0 7.650000 13.300000 7.916667 13.333333 7.816666 13.383333 0
   1  42   0 0
   1
   1  41   0 0
   0
Tr_destroy2  1.000000e-01   0   0   1 0 11.416669 13.391205 11.583335 13.424538 11.583335 13.474539 0
   1  31   0 0
   1
   1  29   0 0
   0
decideRM2  1.000000e-01   0   0   1 0 11.416669 15.974538 11.650003 16.057870 11.583335 16.057870 0
   1  33   0 0
   2
  -1  51   2 0
10.896637 15.627846
14.838986 2.622990
   1  22   2 0
13.000002 15.191205
13.000002 11.324538
   0
Tr_ackClient2  1.000000e-01   0   0   1 0 14.652779 16.321760 14.852779 16.388428 14.819450 16.405094 0
   1  26   0 0
   1
   1  27   0 0
   0
ack_decr  1.000000e-01   0   0   1 0 15.569446 15.405093 15.852779 15.488428 15.736112 15.488428 0
   1  21   0 0
   1
   1  26   0 0
   0
decryption2  1.000000e-02   0   0   1 0 15.569446 14.405093 15.786110 14.405094 15.736112 14.488427 0
   1  25   0 0
   2
  -1  64   2 0
15.000466 14.146468
12.905652 6.122990
   1  21   0 0
   0
Tr_SP2Receiver2  1.000000e-02   0   0   1 0 15.569446 12.571761 15.802779 12.621762 15.736112 12.655094 0
   1  23   0 0
   1
   1  24   0 0
   0
Tr_SR2RM2  1.000000e-01   0   0   1 0 11.416669 12.557872 11.622224 12.602315 11.641671 12.666206 0
   1  30   0 0
   1
   1  31   0 0
   0
Tr_SP2MR  1.000000e-02   0   0   1 0 7.650000 11.550000 7.883332 11.616667 7.816666 11.633334 0
   1  44   0 0
   1
   1  43   0 0
   0
encrypt  5.000000e-03   0   0   1 0 7.650000 10.716667 7.849999 10.650001 7.849999 10.800001 0
   1  39   0 0
   2
   1  44   0 0
  -1  50   2 0
7.064109 10.499050
8.005651 1.956324
   0
reinit  1.000000e+00   1   1   1 0 4.650001 10.016671 4.833334 10.066667 4.816667 10.100000 0
   1  70   0 0
   1
   1  81   2 0
1.916667 9.500000
1.900000 0.833333
   0
Snofail  9.999990e-01   1   1   1 0 20.632456 5.543982 19.699123 5.577316 20.799123 5.627316 0
   1  20   0 0
   1
   1   8   0 0
   0
Sfail  1.000000e-06   1   1   1 0 24.465790 5.543982 24.699121 5.577316 24.632456 5.627316 0
   1  20   0 0
   1
   1  18   0 0
   0
decision_KO  2.000000e-01   1   1   1 0 19.599123 6.343982 19.665790 6.493982 19.765792 6.427316 0
   1   8   0 0
   1
   1  12   1 0
19.599123 10.243982
   0
decision_OK  8.000000e-01   1   1   1 0 21.682450 6.343982 21.765792 6.493982 21.849123 6.427316 0
   1   8   0 0
   1
   1   9   0 0
   0
decKO  2.000000e-01   1   1   1 0 23.465790 6.410649 23.532454 6.560649 23.632458 6.493983 0
   1  18   0 0
   1
   1  14   1 0
23.465790 10.310649
   0
decOK  8.000000e-01   1   1   1 0 25.549123 6.410649 25.632456 6.560649 25.715790 6.493983 0
   1  18   0 0
   1
   1  17   0 0
   0
decision_OK2  8.000000e-01   1   1   1 0 15.569446 11.655093 15.652779 11.805092 15.736112 11.738427 0
   1  22   0 0
   1
   1  23   0 0
   0
decision_KO2  2.000000e-01   1   1   1 0 13.486106 11.655093 13.552779 11.805092 13.652779 11.738427 0
   1  22   0 0
   1
   1  26   1 0
13.486106 15.555092
   0
decision_KO1  2.000000e-01   1   1   1 0 12.200001 4.166666 12.266670 4.316666 12.366669 4.250000 0
   1  68   0 0
   1
   1  55   1 0
12.200001 7.983333
   0
decision_OK1  8.000000e-01   1   1   1 0 13.983329 4.150001 14.066668 4.300000 14.150002 4.233335 0
   1  68   0 0
   1
   1  67   0 0
   0
Snodetection  1.000000e-01   1   1   1 0 6.833333 5.416667 7.000000 5.450000 7.000001 5.499999 0
   1  74   0 0
   1
   1  79   0 0
   0
Sdetection  9.000000e-01   1   1   1 0 5.500000 5.500000 4.916667 5.383333 5.666667 5.583332 0
   1  74   0 0
   1
   1  75   1 0
5.500000 5.650000
   0
Serror  1.000000e-01   1   1   1 0 6.066667 4.483333 6.300001 4.533333 6.233334 4.566667 0
   1  72   0 0
   1
   1  74   0 0
   0
Snoerror  9.000000e-01   1   1   1 0 4.650001 4.483333 3.766667 4.566667 4.816667 4.566667 0
   1  72   0 0
   1
   1  73   0 0
   0
Sfault  1.000000e-01   1   1   1 0 5.333333 2.166667 5.533333 2.183333 5.500000 2.250000 0
   1  82   0 0
   1
   1  84   0 0
   0
Snofault  9.000000e-01   1   1   1 0 3.500000 2.166667 2.516667 2.200000 3.666667 2.250000 0
   1  82   0 0
   1
   1  83   0 0
   0
S_decideRM  1.000000e+00   1   1   2 0 17.499123 9.260649 17.682454 9.310649 17.665790 9.343982 0
   1   1   0 0
  -1  51   2 0
16.952778 9.564170
15.177014 3.105650
   1
   1   6   0 0
   0
EparN  1.000000e+00   1   1   1 0 17.499123 8.427316 17.732456 8.493982 17.665790 8.510650 0
   3   2   0 0
   1
   1   1   0 0
   0
SparN  1.000000e+00   1   1   1 0 17.499123 5.927316 17.721346 6.010649 17.724123 6.035649 0
   1   5   0 0
   1
   3   3   0 0
   0
S_decrypt  1.000000e+00   1   1   2 0 21.682450 8.093982 21.849123 8.110648 21.849123 8.177316 0
   1  10   0 0
  -1  64   2 0
22.284566 8.261580
13.072487 6.874530
   1
   1  11   0 0
   0
S_decr  1.000000e+00   1   1   2 0 25.549123 8.160649 25.715790 8.177315 25.715790 8.243982 0
   1  16   0 0
  -1  64   2 0
24.933002 8.265618
13.243678 6.605650
   1
   1  15   0 0
   0
S_decrypt2  1.000000e+00   1   1   2 0 15.569446 13.405093 15.736112 13.421759 15.736112 13.488427 0
  -1  64   2 0
15.042157 13.740639
13.243678 6.605650
   1  24   0 0
   1
   1  25   0 0
   0
S_decideRM2  1.000000e+00   1   1   2 0 11.416669 15.057872 11.600002 15.107872 11.583335 15.141205 0
  -1  51   2 0
10.870323 15.361397
15.177012 3.105650
   1  28   0 0
   1
   1  33   0 0
   0
EparN3  1.000000e+00   1   1   1 0 11.416669 14.224538 11.650003 14.291206 11.583335 14.307869 0
   3  29   0 0
   1
   1  28   0 0
   0
SparN3  1.000000e+00   1   1   1 0 11.416669 11.724538 11.638892 11.807869 11.641671 11.832873 0
   1  32   0 0
   1
   3  30   0 0
   0
S_encrypt  1.000000e+00   1   1   2 0 7.650000 9.866667 7.849999 9.916667 7.816666 9.950000 0
   1  40   0 0
  -1  50   2 0
7.061412 10.076878
8.343677 2.438984
   1
   1  39   0 0
   0
SparN2  1.000000e+00   1   1   1 0 7.650000 12.383333 7.900000 12.449999 7.816666 12.466667 0
   1  43   0 0
   1
   3  42   0 0
   0
S_scan_decypher  1.000000e+00   1   1   2 0 6.816667 14.783333 6.883334 14.699999 6.983334 14.866666 0
   1  38   0 0
  -1  48   2 0
6.233325 15.007699
8.260341 6.772318
   1
   1  46   0 0
   0
Spar2  1.000000e+00   1   1   1 0 7.650000 14.116667 7.883334 14.149999 7.816666 14.200000 0
   1  41   0 0
   2
   1  38   0 0
   1  37   0 0
   0
fault_occurrence  1.000000e+00   1   1   1 0 8.566667 14.866667 8.750001 14.916667 8.733332 14.950000 0
   1  37   0 0
   1
   1  36   0 0
   0
Epar2  1.000000e+00   1   1   2 0 7.733333 16.366667 7.999999 16.433334 7.899998 16.450001 0
   1  45   0 0
   1  36   0 0
   1
   1  35   0 0
   0
EparN2  1.000000e+00   1   1   1 0 7.733333 17.116667 7.933333 17.150000 7.899998 17.200000 0
   3  35   0 0
   1
   1  34   0 0
   0
S_encrypt1  1.000000e+00   1   1   2 0 9.100000 1.950000 9.300000 2.000000 9.266669 2.033333 0
   1  50   0 0
   1  52   0 0
   1
   1  49   0 0
   0
S_scan_decypher1  1.000000e+00   1   1   2 0 9.100000 6.200001 9.333334 6.216667 9.266669 6.283334 0
   1  48   0 0
   1  57   0 0
   1
   1  47   0 0
   0
S_decrypt1  1.000000e+00   1   1   2 0 14.000000 6.200001 14.183332 6.233333 14.166666 6.283334 0
   1  64   0 0
   1  66   0 0
   1
   1  63   0 0
   0
S_decideRM1  1.000000e+00   1   1   2 0 13.100002 2.700001 13.300001 2.750000 13.266668 2.783334 0
   1  51   0 0
   1  54   0 0
   1
   1  69   0 0
   0
SparN1  1.000000e+00   1   1   1 0 9.100000 4.466667 9.350000 4.533333 9.266669 4.549999 0
   1  59   0 0
   1
   3  58   0 0
   0
EparN1  1.000000e+00   1   1   1 0 13.100002 1.783333 13.333334 1.849999 13.266668 1.866666 0
   3  53   0 0
   1
   1  54   0 0
   0
E_detection  1.000000e+00   1   1   1 0 5.500000 9.000000 5.666668 9.066667 5.666668 9.083333 0
   1  78   0 0
   1
   1  70   0 0
   0
E_nodetection  1.000000e+00   1   1   1 0 6.816667 8.399998 7.050002 8.500000 6.983335 8.483333 0
   1  80   0 0
   1
   1  70   1 0
6.816667 9.150000
   0
Enofault  1.000000e+00   1   1   1 0 3.516667 4.866667 2.516667 4.900000 3.683334 4.950000 0
   1  71   0 0
   1
   1  70   1 0
3.516667 8.566667
   0
t15  1.000000e+00   1   1   2 0 3.483334 3.933333 2.066667 3.916667 3.650001 4.016667 0
  -1  56   2 0
3.555651 3.522990
13.183334 9.741667
   1  85   0 0
   1
   1  71   0 0
   0
t21  1.000000e+00   1   1   2 0 6.816667 7.233333 7.050001 7.233333 6.983334 7.316667 0
  -1  13   2 0
7.466667 7.800000
20.933333 11.533333
   1  88   0 0
   1
   1  80   0 0
   0
t20  1.000000e+00   1   1   1 0 6.833333 6.416667 7.083334 6.416667 7.000001 6.500001 0
   1  79   0 0
   2
   1  88   0 0
  -1   5   3 0
7.243676 6.488984
17.523149 4.886111
17.511110 5.000000
   0
t19  1.000000e+00   1   1   2 0 5.500000 8.166667 5.666667 8.250000 5.666667 8.250000 0
  -1  27   2 0
5.572317 7.756324
14.652779 17.363428
   1  89   0 0
   1
   1  78   0 0
   0
t18  1.000000e+00   1   1   1 0 5.500000 7.416667 5.650000 7.433333 5.666667 7.500000 0
   1  76   0 0
   2
  -1  32   3 0
5.750000 7.466667
5.910343 7.488984
11.440690 10.683333
   1  89   0 0
   0
t17  1.000000e+00   1   1   2 0 4.666667 6.583333 2.816667 6.616666 4.833333 6.666666 0
  -1  27   2 0
4.738984 6.172990
14.652779 17.363428
   1  87   0 0
   1
   1  77   0 0
   0
t16  1.000000e+00   1   1   1 0 4.650001 5.483333 2.816667 5.516667 4.816667 5.566667 0
   1  73   0 0
   2
  -1  32   2 0
5.060344 5.555650
11.440690 10.683333
   1  87   0 0
   0
Enoerror  1.000000e+00   1   1   1 0 4.666667 7.733333 3.683331 7.816667 4.833333 7.816667 0
   1  77   0 0
   1
   1  70   0 0
   0
t23  1.000000e+00   1   1   2 0 5.316667 3.600000 5.550001 3.683333 5.483334 3.683333 0
   1  86   0 0
  -1  34   2 0
5.388984 3.189657
7.733333 18.075000
   1
   1  72   0 0
   0
t22  1.000000e+00   1   1   1 0 5.333333 2.916667 5.566667 2.900000 5.500000 3.000000 0
   1  84   0 0
   2
  -1  40   2 0
5.911111 3.155555
7.622222 8.800000
   1  86   0 0
   0
t14  1.000000e+00   1   1   1 0 3.500000 3.000000 2.033333 3.016667 3.666667 3.083333 0
   1  83   0 0
   2
  -1  52   3 0
3.901593 3.065606
12.157915 -0.048378
8.133333 1.533333
   1  85   0 0
   0
