|0|

|
f   0   9   0   9   1   0   0
Pi1    100 1.916667 3.666667 1.766667 3.433333 0
Pi2    100 1.916667 2.333333 1.783333 2.616667 0
P1    0 3.666667 3.583333 3.583333 3.916667 0
P4    0 3.666667 2.333333 3.600000 2.666667 0
P5    0 6.250000 2.333333 6.450000 2.300000 0
P6    0 7.500000 2.916667 7.500000 3.266667 0
P7    0 8.666667 2.916667 8.333333 3.133333 0
P2    0 4.916667 3.583333 5.116667 3.550000 0
P3    0 6.250000 3.583333 6.150000 3.366667 0
G1  0.000000 0.000000 1
t7  1.000000e+00   0   0   1 1 9.166667 2.916667 8.883333 2.616667 9.333333 3.000000 0
   1   7   0 0
   2
   1   1   2 0
7.000000 4.183333
2.700000 4.183333
   1   2   2 0
7.000000 1.666667
2.833333 1.666667
   0
t5  1.000000e+00   0   0   2 1 7.000000 2.916667 6.716667 2.616667 7.166667 3.000000 0
   1   9   0 0
   1   5   0 0
   1
   1   6   0 0
   0
t3  1.000000e+00   0   0   1 1 5.583333 3.583333 5.516667 3.333333 5.750000 3.666667 0
   1   8   0 0
   1
   1   9   0 0
   0
t2  1.000000e+00   0   0   1 1 4.333333 3.583333 4.233333 3.383333 4.500000 3.666667 0
   1   3   0 0
   1
   1   8   0 0
   0
t4  1.000000e+00   0   0   1 1 5.000000 2.333333 5.116667 2.616667 5.166667 2.416667 0
   1   4   0 0
   1
   1   5   0 0
   0
t1  1.000000e+00   0   0   2 1 3.000000 2.916667 2.716667 2.616667 3.166667 3.000000 0
   1   2   0 0
   1   1   0 0
   2
   1   4   0 0
   1   3   0 0
   0
t8  1.000000e+00   1   1   1 1 6.666667 3.916667 6.550000 3.700000 6.833333 4.000000 0
   1   6   0 0
   2
   1   3   1 0
4.416667 3.916667
   1   5   2 0
5.900000 3.766667
5.900000 2.800000
   0
t6  1.000000e+00   1   1   1 1 8.083333 2.916667 7.950000 2.700000 8.250000 3.000000 0
   1   6   0 0
   1
   1   7   0 0
   0
t9  1.000000e+00   1   1   1 1 6.666667 1.916667 6.383333 1.616667 6.833333 2.000000 0
   1   6   0 0
   2
   1   4   1 0
4.433333 1.916667
   1   3   2 0
5.900000 2.100000
4.466667 2.100000
   0
