|0|

|
f   0  21   0  14   1   0   0
P1    500 0.333333 5.333333 0.533333 5.300000 0
P2    0 1.666667 3.333333 1.550000 3.650000 0
P3    0 3.000000 3.333333 3.200000 3.300000 0
P4    0 4.333333 4.000000 4.533333 3.966667 0
P5    0 4.333333 2.666667 4.533333 2.633333 0
P6    0 3.666667 2.000000 3.866667 1.966667 0
P7    0 3.666667 4.666667 3.866667 4.633333 0
P8    0 5.666667 3.333333 5.866667 3.300000 0
P9    0 7.000000 3.333333 7.200000 3.300000 0
P10    0 8.333333 5.333333 8.200000 5.650000 0
P11    0 6.333333 5.333333 6.533333 5.300000 0
P12    2 4.333333 5.333333 4.133333 5.116667 0
P13    0 3.666667 6.000000 3.866667 5.966667 0
P14    0 4.333333 6.666667 4.533333 6.633333 0
P15    0 4.333333 8.000000 4.533333 7.966667 0
P16    0 3.666667 8.666667 3.866667 8.633333 0
P17    0 3.000000 7.333333 2.950000 7.733333 0
P18    0 1.666667 7.333333 1.516667 7.116667 0
P19    0 5.666667 7.333333 5.866667 7.300000 0
P20    0 7.000000 7.333333 7.200000 7.300000 0
P21    2 4.333333 9.333333 3.900000 9.633333 0
G1  1.000000 3.333333 1
t10  1.000000e+00   0   0   1 1 3.666667 7.333333 3.483333 7.100000 3.833333 7.416667 0
   1  17   0 0
   3
   1  19   0 0
   1  15   0 0
   1  14   0 0
   0
t3  1.000000e+00   0   0   1 1 3.666667 3.333333 3.383333 3.033333 3.833333 3.416667 0
   1   3   0 0
   3
   1   8   0 0
   1   4   0 0
   1   5   0 0
   0
T2  1.000000e+00   0   0   2 1 2.333333 3.333333 2.216667 3.050000 2.500000 3.416667 0
   2  12   2 0
2.000000 3.666667
2.200000 5.133333
   1   2   0 0
   3
   1   7   0 0
   1   6   0 0
   1   3   0 0
   0
T4  1.000000e+00   0   0   2 1 5.000000 2.000000 4.833333 1.883333 5.166667 2.083333 0
   1   6   0 0
   1   5   0 0
   2
   1  12   2 0
5.200000 2.466667
5.466667 5.333333
   1   9   0 0
   0
T5  1.000000e+00   0   0   2 1 5.000000 4.666667 4.916667 4.433333 5.166667 4.750000 0
   1   7   0 0
   1   4   0 0
   2
   1  20   0 0
   1  12   1 0
5.266667 5.133333
   0
T6  1.000000e+00   0   0   3 1 7.666667 5.333333 7.600000 5.050000 7.833333 5.416667 0
   1  20   0 0
   1  11   0 0
   1   9   0 0
   1
   1  10   0 0
   0
T7  1.000000e+00   0   0   1 1 9.000000 5.333333 8.833333 5.216667 9.166667 5.416667 0
   1  10   0 0
   1
   1   1   3 0
9.333333 5.333333
9.333333 9.733332
0.333333 9.733332
   0
T8  1.000000e+00   0   0   1 3 6.000000 4.333333 6.116667 4.166667 6.166667 4.416667 0
   1   8   0 0
   1
   1  11   0 0
   0
T9  1.000000e+00   0   0   2 1 5.000000 6.000000 4.833333 5.883333 5.166667 6.083333 0
   1  14   0 0
   1  13   0 0
   2
   1  21   2 0
5.266667 6.400000
5.600000 9.200000
   1   9   0 0
   0
T11  1.000000e+00   0   0   2 1 5.000000 8.666667 4.850000 8.450000 5.166667 8.750000 0
   1  15   0 0
   1  16   0 0
   2
   1  21   1 0
5.333333 9.000000
   1  20   0 0
   0
T12  1.000000e+00   0   0   2 1 2.333333 7.333333 2.166667 7.216667 2.500000 7.416667 0
   2  21   2 0
1.933333 7.666667
1.933333 8.866667
   1  18   0 0
   3
   1  16   0 0
   1  17   0 0
   1  13   0 0
   0
T14  1.000000e+00   0   0   1 2 6.000000 6.333333 6.033333 6.683333 6.166667 6.416667 0
   1  19   0 0
   1
   1  11   0 0
   0
t13  1.000000e+00   1   1   1 1 1.000000 7.333333 0.716667 7.033333 1.166667 7.416667 0
   1   1   0 0
   1
   1  18   0 0
   0
t1  1.000000e+00   1   1   1 1 1.000000 3.333333 0.716667 3.033333 1.166667 3.416667 0
   1   1   0 0
   1
   1   2   0 0
   0
