|0|





|
f   0  16   0  13   1   0   0
P1    0 6.650000 0.566667 6.233333 0.616667 0
P2    0 6.600000 1.533333 6.233333 1.583333 0
P3    0 6.600000 2.650000 6.533333 3.016667 0
P4    0 5.583333 3.883333 5.766667 4.033333 0
P5    0 7.450000 3.950000 7.083333 4.066667 0
P6    200 6.450000 5.016667 6.616667 5.283333 0
P7    0 4.550000 5.050000 4.450000 5.416667 0
P8    0 3.550000 4.533333 3.750000 4.500000 0
P9    100 3.583333 3.400000 3.383333 3.216667 0
P10    0 8.216667 5.116667 8.233333 5.516667 0
P11    0 9.100000 4.416667 9.300000 4.383333 0
P12    100 8.733329 3.250000 8.933333 3.216667 0
P13    0 5.283333 2.816667 4.750000 2.850000 0
P14    0 7.766667 2.850000 7.966667 2.816667 0
P15    1 5.083333 0.550000 4.533333 0.666667 0
P16    0 8.133333 0.516667 8.333333 0.483333 0
G1  6.600000 2.100000 1
T1  1.000000e+00   0   0   1 0 6.633333 1.083333 6.266667 1.200000 6.800000 1.166667 0
   1   2   0 0
   2
   1   3   1 0
7.150000 1.966667
   1   1   0 0
   0
T2  1.000000e+00   0   0   1 0 3.566667 4.000000 3.750000 4.083333 3.733333 4.083333 0
   1   8   0 0
   1
   1   9   0 0
   0
T3  1.000000e+00   0   0   1 3 4.033333 4.866667 4.166667 4.750000 4.200000 4.950000 0
   1   7   0 0
   1
   1   8   0 0
   0
T4  1.000000e+00   0   0   1 0 5.583333 4.500000 5.783333 4.616667 5.750000 4.583333 0
   1   4   0 0
   2
   1   7   0 0
   1   6   0 0
   0
T5  1.000000e+00   0   0   1 0 7.450000 4.550000 7.066667 4.616667 7.616667 4.633333 0
   1   5   0 0
   2
   1  10   0 0
   1   6   0 0
   0
T6  1.000000e+00   0   0   1 0 6.433333 5.733333 6.700000 5.750000 6.600000 5.816667 0
   1   6   0 0
   2
   1  14   1 0
7.850000 6.166667
   1  13   1 0
5.200000 6.083333
   0
T7  1.000000e+00   0   0   1 2 8.666667 4.800000 8.866667 5.066667 8.833333 4.883333 0
   1  10   0 0
   1
   1  11   0 0
   0
T8  1.000000e+00   0   0   1 0 8.983329 3.866667 9.200000 3.900000 9.150000 3.950000 0
   1  11   0 0
   1
   1  12   0 0
   0
T13  1.000000e+00   1   1   2 0 7.850000 1.983333 8.066667 2.050000 8.016667 2.066667 0
   1  16   0 0
   1   1   0 0
   2
   1  15   1 0
7.166667 0.266667
   1  14   0 0
   0
T12  1.000000e+00   1   1   2 0 5.416667 2.033333 4.900000 2.000000 3.200000 1.816667 0
   1  15   0 0
   1   1   0 0
   2
   1  16   1 0
5.983333 0.283333
   1  13   0 0
   0
t11  1.000000e+00   1   1   3 0 7.066667 3.316667 6.800000 3.583333 7.233333 3.400000 0
   1  12   1 0
7.550000 3.150000
   1  14   0 0
   1   3   0 0
   1
   1   5   0 0
   0
t10  1.000000e+00   1   1   3 0 6.200000 3.316667 6.150000 3.566667 6.366667 3.400000 0
   1   9   1 0
5.583333 3.216667
   1  13   0 0
   1   3   0 0
   1
   1   4   0 0
   0
t9  1.000000e+00   1   1   2 0 6.600000 2.100000 6.200000 2.166667 6.766667 2.183333 0
   1  14   0 0
   1  13   0 0
   1
   1   2   0 0
   0
