|0|


|
f   0  30   0  30   1   0   0
P1    0 1.000000 3.333333 1.200000 3.300000 0
P2    0 0.333333 4.666667 0.233333 5.016667 0
P3    0 2.333333 3.333333 2.533333 3.300000 0
P4    0 3.000000 4.666667 2.950000 5.033333 0
P5    0 1.666667 6.000000 1.866667 5.966667 0
P6    0 1.666667 2.000000 1.866667 1.966667 0
P7    0 3.666667 4.666667 3.616667 5.033333 0
P8    0 4.333333 3.333333 4.533333 3.300000 0
P9    0 5.000000 2.000000 5.200000 1.966667 0
P10    0 5.666667 3.333333 5.866667 3.300000 0
P11    0 6.333333 4.666667 6.183333 5.016667 0
P12    0 5.000000 6.000000 5.200000 5.966667 0
P13    0 3.333333 7.333333 3.533333 7.300000 0
P14    0 3.333333 8.666667 3.533333 8.633333 0
P15    0 2.666667 10.000000 2.866667 9.966667 0
P16    0 3.333333 10.000000 3.533333 9.966667 0
P17    0 4.000000 10.000000 4.200000 9.966667 0
P18    0 3.333333 11.333333 3.183333 11.650000 0
P19    100 6.666667 0.666667 6.866667 0.633333 0
P20    0 7.666667 2.000000 7.866667 1.966667 0
P21    0 9.000000 2.000000 9.200000 1.966667 0
P22    0 7.666667 3.333333 7.866667 3.300000 0
P23    0 9.000000 3.333333 9.200000 3.300000 0
P24    1 8.333333 4.666667 8.533333 4.633333 0
P25    0 7.666667 4.666667 7.866667 4.633333 0
P26    0 9.000000 4.666667 9.200000 4.633333 0
P27    0 7.666667 6.000000 7.866667 5.966667 0
P28    0 9.000000 6.000000 9.200000 5.966667 0
P29    0 7.666667 7.333333 7.866667 7.300000 0
P30    0 9.000000 7.333333 9.200000 7.300000 0
G1  0.000000 0.000000 1
T1  1.000000e+00   0   0   1 0 1.000000 4.000000 1.133333 3.916667 1.166667 4.083333 0
   1   1   0 0
   1
   1   4   0 0
   0
T4  1.000000e+00   0   0   1 0 2.333333 4.000000 2.466667 3.900000 2.500000 4.083333 0
   1   3   0 0
   1
   1   2   0 0
   0
T5  1.000000e+00   0   0   2 0 1.666667 5.333333 1.883333 5.400000 1.833333 5.416667 0
   1   2   0 0
   1   4   0 0
   1
   1   5   0 0
   0
T6  1.000000e+00   0   0   1 0 4.333333 4.000000 4.483333 3.950000 4.500000 4.083333 0
   1   8   0 0
   1
   1  11   0 0
   0
T9  1.000000e+00   0   0   1 0 5.666667 4.000000 5.816667 3.883333 5.833333 4.083333 0
   1  10   0 0
   1
   1   7   0 0
   0
T10  1.000000e+00   0   0   2 0 5.000000 5.333333 5.216667 5.450000 5.166667 5.416667 0
   1   7   0 0
   1  11   0 0
   1
   1  12   0 0
   0
T12  1.000000e+00   0   0   2 0 3.333333 6.666667 3.550000 6.733333 3.500000 6.750000 0
   1   5   0 0
   1  12   0 0
   1
   1  13   0 0
   0
T13  1.000000e+00   0   0   1 0 3.333333 8.000000 3.533333 8.016667 3.500000 8.083333 0
   1  13   0 0
   1
   1  14   0 0
   0
T17  1.000000e+00   0   0   1 0 2.666667 10.666667 2.316667 10.566667 2.833333 10.750000 0
   1  15   0 0
   1
   1  18   0 0
   0
T18  1.000000e+00   0   0   1 0 3.333333 10.666667 3.416667 10.550000 3.500000 10.750000 0
   1  16   0 0
   1
   1  18   0 0
   0
T19  1.000000e+00   0   0   1 0 4.000000 10.666667 4.133333 10.566667 4.166667 10.750000 0
   1  17   0 0
   1
   1  18   0 0
   0
T20  1.000000e+00   0   0   1 0 6.666667 6.000000 6.266667 5.866667 6.833333 6.083333 0
   1  18   1 0
6.666667 11.333333
   1
   1  19   0 0
   0
T22  1.000000e+00   0   0   1 0 7.666667 2.666667 7.850000 2.733333 7.833333 2.750000 0
   1  20   0 0
   1
   1  22   0 0
   0
T23  1.000000e+00   0   0   1 0 9.000000 2.666667 9.233333 2.683333 9.166667 2.750000 0
   1  21   0 0
   1
   1  23   0 0
   0
T26  1.000000e+00   0   0   1 0 7.666667 5.333333 7.233333 5.200000 7.833333 5.416667 0
   1  25   0 0
   2
   1  27   0 0
   1  24   1 0
8.066667 5.666667
   0
T27  1.000000e+00   0   0   1 0 9.000000 5.333333 9.200000 5.300000 9.166667 5.416667 0
   1  26   0 0
   2
   1  28   0 0
   1  24   1 0
8.666667 5.666667
   0
T28  1.000000e+00   0   0   2 0 8.333333 8.000000 8.516667 8.050000 8.500000 8.083333 0
   1  30   0 0
   1  29   0 0
   1
   1  19   2 0
8.333333 8.399998
7.333333 8.333333
   0
T29  1.000000e+00   0   0   1 0 7.666667 6.666667 7.833333 6.616667 7.833333 6.750000 0
   1  27   0 0
   1
   1  29   0 0
   0
T30  1.000000e+00   0   0   1 0 9.000000 6.666667 9.183333 6.583333 9.166667 6.750000 0
   1  28   0 0
   1
   1  30   0 0
   0
T21  1.000000e+00   1   1   1 0 8.333333 1.333333 8.550000 1.366667 8.500000 1.416667 0
   1  19   0 0
   2
   1  20   0 0
   1  21   0 0
   0
T11  1.000000e+00   1   1   1 0 3.333333 1.333333 3.166667 1.216667 3.500000 1.416667 0
   1  19   0 0
   2
   1   6   0 0
   1   9   0 0
   0
T25  1.000000e+00   1   1   2 0 9.000000 4.000000 9.183333 4.033333 9.166667 4.083333 0
   1  24   1 0
8.666667 3.600000
   1  23   0 0
   1
   1  26   0 0
   0
T24  1.000000e+00   1   1   2 0 7.666667 4.000000 7.250000 3.933333 7.833333 4.083333 0
   1  24   1 0
8.133333 3.600000
   1  22   0 0
   1
   1  25   0 0
   0
T15  1.000000e+00   1   1   1 0 4.000000 9.333333 4.150000 9.283333 4.166667 9.416667 0
   1  14   0 0
   1
   1  17   0 0
   0
T14  1.000000e+00   1   1   1 0 3.333333 9.333333 3.400000 9.250000 3.500000 9.416667 0
   1  14   0 0
   1
   1  16   0 0
   0
T16  1.000000e+00   1   1   1 0 2.666667 9.333333 2.366667 9.233333 2.833333 9.416667 0
   1  14   0 0
   1
   1  15   0 0
   0
T8  1.000000e+00   1   1   1 0 5.666667 2.666667 5.783333 2.566667 5.833333 2.750000 0
   1   9   0 0
   2
   1  10   0 0
   1  11   0 0
   0
T7  1.000000e+00   1   1   1 0 4.333333 2.666667 4.166667 2.550000 4.500000 2.750000 0
   1   9   0 0
   2
   1   8   0 0
   1   7   0 0
   0
T2  1.000000e+00   1   1   1 0 1.000000 2.666667 0.833333 2.550000 1.166667 2.750000 0
   1   6   0 0
   2
   1   1   0 0
   1   2   0 0
   0
T3  1.000000e+00   1   1   1 0 2.333333 2.666667 2.483333 2.583333 2.500000 2.750000 0
   1   6   0 0
   2
   1   3   0 0
   1   4   0 0
   0
