|0|



|
f   0  35   0  19   1   0   0
inA  800 1.500000 1.833333 1.700000 1.800000 0
inB  800 1.500000 3.333333 1.700000 3.300000 0
inC  800 1.500000 4.916667 1.700000 4.883333 0
m1A    0 3.000000 1.833333 3.200000 1.800000 0
m2B    0 3.000000 3.333333 3.200000 3.300000 0
m3C    0 3.000000 4.916667 2.833333 5.233333 0
B1A    0 4.416667 1.833333 4.616667 1.800000 0
B3B    0 4.416667 3.333333 4.483333 3.666667 0
B5C    0 4.416667 4.916667 4.233333 5.283333 0
B1  200 3.750000 1.083333 3.950000 1.050000 0
B3  200 3.750000 2.666667 3.683333 2.450000 0
B5  200 3.750000 4.333333 3.666667 4.166667 0
m3A    0 5.750000 1.833333 5.950000 1.800000 0
m1B    0 5.750000 3.333333 5.950000 3.300000 0
m1C    0 5.750000 4.916667 5.800000 5.233333 0
B2A    0 7.333333 1.833333 7.533333 1.800000 0
B4B    0 7.333333 3.333333 7.533333 3.300000 0
B6C    0 7.333333 4.916667 7.533333 4.883333 0
M3    1 5.833333 2.583333 6.033333 2.550000 0
M1    1 5.750000 4.083333 6.000000 4.300000 0
B2  200 7.000000 0.916667 7.200000 0.883334 0
B4  200 6.583333 4.083333 6.783333 4.050000 0
B6  200 5.750000 5.666667 5.950000 5.633333 0
m4AB    0 8.833333 2.500000 8.683333 2.800000 0
m4C    0 8.833333 4.916667 8.833333 5.233333 0
M4    1 8.916667 3.750000 9.116667 3.716667 0
B7AB    0 10.166667 2.500000 10.366667 2.466667 0
B8C    0 10.250000 4.916667 10.450000 4.883333 0
B7  200 9.916667 1.583333 10.116667 1.550000 0
B8  200 9.833333 5.833333 10.033333 5.800000 0
m5ABC    0 11.500000 3.583333 11.300000 3.900000 0
M5    1 11.583333 4.416667 11.500000 4.783333 0
wait  500 12.250000 2.750000 12.450000 2.716667 0
cust    0 12.250000 1.583333 12.033333 1.400000 0
M2    1 3.000000 4.000000 2.583333 4.133333 0
G1  2.333333 1.833333 1
Dem  1.000000e+00   0   0   1 0 12.250000 2.250000 11.766667 2.283333 12.416667 2.333333 0
   1  34   0 0
   4
   1   1   5 0
12.483329 2.000000
13.266671 2.000000
13.233329 6.183333
0.750000 6.183333
0.733333 2.100000
   1   2   5 0
12.500000 2.083333
13.150000 2.083333
13.150000 6.050000
1.033333 6.050000
1.033333 3.650000
   1   3   3 0
13.066667 2.250000
13.066667 5.950000
1.716667 5.866667
   1  33   0 0
   0
M5ABC  1.000000e+00   0   0   2 1 12.250000 3.583333 12.166667 3.933333 12.416667 3.666667 0
   1  31   0 0
   1  33   0 0
   2
   1  34   2 0
12.700000 3.583333
12.700000 1.533333
   1  32   0 0
   0
M4C  1.000000e+00   0   0   1 1 9.583333 4.916667 9.416667 4.800000 9.750000 5.000000 0
   1  25   0 0
   2
   1  26   0 0
   1  28   0 0
   0
M4AB  1.000000e+00   0   0   1 1 9.583333 2.500000 9.416667 2.383333 9.750000 2.583333 0
   1  24   0 0
   2
   1  26   0 0
   1  27   0 0
   0
M1C  1.000000e+00   0   0   1 1 6.583333 4.916667 6.416667 4.800000 6.750000 5.000000 0
   1  15   0 0
   2
   1  20   0 0
   1  18   0 0
   0
M1B  1.000000e+00   0   0   1 1 6.583333 3.333333 6.416667 3.216667 6.750000 3.416667 0
   1  14   0 0
   2
   1  20   0 0
   1  17   0 0
   0
M3A  1.000000e+00   0   0   1 1 6.666667 1.833333 6.500000 1.716667 6.833333 1.916667 0
   1  13   0 0
   2
   1  19   0 0
   1  16   0 0
   0
M3C  1.000000e+00   0   0   1 1 3.750000 4.916667 3.583333 4.800000 3.916667 5.000000 0
   1   6   0 0
   2
   1  19   1 0
5.300000 4.033333
   1   9   0 0
   0
M2B  1.000000e+00   0   0   1 1 3.750000 3.333333 3.633333 3.116667 3.916667 3.416667 0
   1   5   0 0
   2
   1   8   0 0
   1  35   0 0
   0
M1A  1.000000e+00   0   0   1 1 3.833333 1.833333 3.666667 1.716667 4.000000 1.916667 0
   1   4   0 0
   2
   1  20   1 0
4.150000 3.666667
   1   7   0 0
   0
joinABC  1.000000e+00   1   1   3 1 10.916667 3.583333 10.633333 3.283333 11.083333 3.666667 0
   1  32   0 0
   1  27   0 0
   1  28   0 0
   3
   1  31   0 0
   1  30   2 0
11.066667 3.766667
11.050000 5.833333
   1  29   2 0
11.066667 3.116667
11.066667 1.533333
   0
joinAB  1.000000e+00   1   1   4 1 8.166667 2.500000 7.883333 2.200000 8.333333 2.583333 0
   1  26   0 0
   1  16   0 0
   1  17   0 0
   1  29   1 0
9.383333 1.550000
   3
   1  24   0 0
   1  21   2 0
8.766671 1.633333
8.750000 0.933333
   1  22   2 0
8.700000 3.316667
8.666667 4.000000
   0
endB6C  1.000000e+00   1   1   3 1 8.166667 4.916667 7.883333 4.616667 8.333333 5.000000 0
   1  26   0 0
   1  18   0 0
   1  30   1 0
9.216667 5.833333
   2
   1  25   0 0
   1  23   1 0
7.750000 5.683333
   0
endB5C  1.000000e+00   1   1   3 1 5.083333 4.916667 4.800000 4.616667 5.250000 5.000000 0
   1  23   1 0
5.283333 5.650000
   1  20   0 0
   1   9   0 0
   2
   1  15   0 0
   1  12   1 0
4.450000 4.316667
   0
endB3B  1.000000e+00   1   1   3 1 5.166667 3.333333 4.883333 3.033333 5.333333 3.416667 0
   1  22   1 0
6.200000 4.100000
   1  20   0 0
   1   8   0 0
   2
   1  14   0 0
   1  11   1 0
4.416667 2.633333
   0
endB1A  1.000000e+00   1   1   3 1 5.166667 1.833333 4.883333 1.533333 5.333333 1.916667 0
   1  21   1 0
5.666667 0.983333
   1  19   0 0
   1   7   0 0
   2
   1  13   0 0
   1  10   1 0
4.366667 1.033333
   0
startC  1.000000e+00   1   1   3 1 2.333333 4.916667 2.050000 4.616667 2.500000 5.000000 0
   1  19   1 0
5.083333 3.966667
   1  12   1 0
3.016667 4.333333
   1   3   0 0
   1
   1   6   0 0
   0
startB  1.000000e+00   1   1   3 1 2.333333 3.333333 2.050000 3.033333 2.500000 3.416667 0
   1  11   1 0
3.150000 2.650000
   1   2   0 0
   1  35   0 0
   1
   1   5   0 0
   0
startA  1.000000e+00   1   1   3 1 2.333333 1.833333 2.050000 1.533333 2.500000 1.916667 0
   1  20   1 0
2.700000 3.716667
   1  10   1 0
3.083333 1.083333
   1   1   0 0
   1
   1   4   0 0
   0
