|0|


|
f   0  82   0  63   1   0   0
users  100 1.750000 1.250000 1.950000 1.216667 0
p2    0 1.750000 2.250000 1.816667 2.500000 0
p9    0 1.750000 4.166667 1.650000 4.450000 0
p3    0 2.333333 2.083333 2.216667 2.400000 0
p8    0 2.333333 3.416667 2.200000 3.183333 0
p4    0 3.416667 1.666667 3.533333 1.933333 0
p5    0 3.416667 2.583333 3.550000 2.850000 0
WSReq    1 3.000000 3.416667 3.283333 3.500000 0
p6    0 3.416667 4.250000 3.566667 4.483333 0
p7    0 3.416667 5.250000 3.566667 5.483333 0
p1    0 4.333333 3.166667 4.533333 3.133333 0
p10    0 4.333333 3.666667 4.533333 3.633333 0
p11    0 5.583333 0.750000 5.450000 1.033333 0
p64    0 8.000000 0.750000 8.200000 0.716667 0
p65    0 8.000000 1.833333 8.133333 2.100000 0
p63    0 8.000000 2.833333 8.216667 2.916667 0
p12    0 8.000000 3.750000 8.200000 3.833333 0
p14    0 7.166667 3.166667 7.050000 2.983333 0
p15    0 7.166667 4.333333 6.800000 4.600000 0
p16    0 7.583333 3.833333 7.483333 3.700000 0
SOAP    1 6.500000 4.000000 5.966667 4.050000 0
p17    0 8.000000 4.750000 8.200000 4.716667 0
p69    0 8.000000 5.833333 8.166667 5.900000 0
WSP    1 4.833333 6.333333 5.004167 6.300000 0
WSCoord    1 5.166667 7.166667 5.337500 7.133333 0
p18    0 9.222222 5.777778 9.393055 5.744444 0
p68    0 9.222222 7.222222 9.393055 7.188889 0
p70    0 8.000000 7.444444 8.170833 7.411111 0
p34    0 8.000000 8.555555 8.170833 8.522221 0
p66    0 8.000000 9.777778 8.170833 9.744445 0
p35    0 8.000000 10.888891 8.170833 10.855553 0
P32    0 8.000000 12.000000 8.200000 11.966667 0
p38    0 7.166667 9.666667 7.366667 9.633333 0
p39    0 7.166667 10.833333 7.366667 10.800000 0
p37    0 6.333333 11.500000 6.366667 11.800000 0
p71    0 5.500000 12.000000 5.366667 12.300000 0
p67    0 10.888891 0.666667 11.059722 0.633333 0
p19    0 12.222222 0.666667 12.393055 0.633333 0
p72    0 13.444445 0.666667 13.615278 0.633333 0
CDSS    1 10.333333 6.333333 10.504167 6.300000 0
AppCPU    1 11.777778 7.000000 11.948611 6.966667 0
p23    0 13.444445 1.555556 13.615278 1.522222 0
p53    0 14.222222 1.666667 14.022222 2.044444 0
p73    0 13.444445 2.444445 13.644447 2.577778 0
p24    0 13.444445 3.555555 13.615278 3.522222 0
p46    0 15.333333 3.555555 15.504167 3.522222 0
p49    0 20.333329 1.500000 20.504167 1.466667 0
p47    0 15.333333 4.777778 15.504167 4.744444 0
p25    0 13.444445 4.777778 13.615278 4.744444 0
p26    0 13.444445 5.888889 13.615278 5.855556 0
p27    0 13.444445 7.111111 13.615278 7.077778 0
p28    0 13.444445 8.222222 13.615278 8.188889 0
p43    0 15.333333 6.222222 15.504167 6.188889 0
p44    0 15.333333 7.333333 15.504167 7.300000 0
p45    0 14.333333 7.222222 14.504167 7.188889 0
p48    0 14.333333 5.000000 14.504167 4.966667 0
XML2    1 16.888890 5.555556 17.059723 5.522222 0
p29    0 13.444445 9.444445 13.688889 9.466667 0
p30    0 13.444445 10.555555 13.615278 10.522222 0
p31    0 13.444445 11.666667 13.615278 11.633333 0
p74    0 13.444445 12.888891 13.615278 12.855553 0
P62    0 12.666667 12.888891 12.488889 13.288889 0
p75    0 11.888891 12.888891 11.733331 13.288889 0
p33    0 10.888891 12.888891 10.777777 13.222222 0
p76    0 10.000000 12.888891 9.822222 13.311111 0
p54    0 20.333329 10.777778 20.504167 10.744445 0
p40    0 15.333333 9.666667 15.504167 9.633333 0
p41    0 15.333333 10.777778 15.511111 10.844445 0
p42    0 14.333333 10.777778 14.504167 10.744445 0
p50    0 20.333329 2.666667 20.475000 2.633333 0
p61    0 20.333329 3.777778 20.504167 3.744445 0
p55    0 22.333329 2.777778 22.504167 2.744445 0
p56    0 22.333329 3.888889 22.504167 3.855555 0
Disk    1 23.555556 5.000000 23.726394 4.966667 0
p57    0 21.333329 3.888889 21.504167 3.855555 0
EPR    1 19.555556 5.333333 19.726394 5.300000 0
p51    0 20.333329 5.777778 20.504167 5.744444 0
p52    0 20.333329 7.000000 20.504167 6.966667 0
x53    0 20.333329 8.333333 20.504167 8.300000 0
p58    0 22.222223 7.000000 22.393056 6.966667 0
p59    0 22.222223 8.222222 22.511110 8.288889 0
p60    0 21.333329 8.555555 21.504167 8.522221 0
G1  1.750000 1.750000 1
write  1.000000e+00   0   0   1 0 22.222223 7.666667 22.511110 7.733333 22.359723 7.733333 0
   1  80   0 0
   1
   1  81   0 0
   0
update  1.000000e+00   0   0   1 0 20.333329 6.444444 20.577777 6.488889 20.470833 6.511111 0
   1  77   0 0
   1
   1  78   0 0
   0
read  1.000000e+00   0   0   1 0 22.333329 3.333333 22.555556 3.400000 22.470833 3.400000 0
   1  72   0 0
   1
   1  73   0 0
   0
retrieve  1.000000e+00   0   0   1 0 20.333329 2.000000 20.577777 2.044444 20.441667 2.058333 0
   1  47   0 0
   1
   1  70   0 0
   0
parse  1.000000e+00   0   0   1 0 15.333333 10.222222 15.533333 10.333333 15.470833 10.288889 0
   1  67   0 0
   1
   1  68   0 0
   0
transform  1.000000e+00   0   0   1 0 15.333333 6.777778 15.533333 6.822222 15.470833 6.844444 0
   1  53   0 0
   1
   1  54   0 0
   0
validate  1.000000e+00   0   0   1 0 15.333333 4.222222 15.488889 4.244445 15.470833 4.288889 0
   1  46   0 0
   1
   1  48   0 0
   0
processing  1.000000e+00   0   0   1 0 13.444445 8.888891 13.711111 8.933333 13.581947 8.955555 0
   1  52   0 0
   1
   1  58   0 0
   0
pack  1.000000e+00   0   0   1 0 7.166667 10.333333 7.333333 10.383333 7.333333 10.416667 0
   1  33   0 0
   1
   1  34   0 0
   0
detOutput  1.000000e+00   0   0   1 0 8.000000 10.333333 8.222222 10.377778 8.137500 10.400000 0
   1  30   0 0
   1
   1  31   0 0
   0
Result  1.000000e+00   0   0   1 0 8.000000 9.222222 8.222222 9.266669 8.137500 9.288889 0
   1  29   0 0
   1
   1  30   0 0
   0
deserialize  1.000000e+00   0   0   1 0 7.166667 3.750000 5.916667 3.816667 7.333333 3.833333 0
   1  18   0 0
   1
   1  19   0 0
   0
WSCoord  1.000000e+00   0   0   1 0 8.000000 2.416667 8.183333 2.500000 8.166667 2.500000 0
   1  15   0 0
   1
   1  16   0 0
   0
transRequest  1.000000e+00   0   0   1 0 8.000000 1.333333 8.216667 1.400000 8.166667 1.416667 0
   1  14   0 0
   1
   1  15   0 0
   0
transmRes  1.000000e+00   0   0   1 0 3.416667 4.750000 3.616667 4.866667 3.583333 4.833333 0
   1   9   0 0
   1
   1  10   0 0
   0
protProc  1.000000e+00   0   0   1 0 3.416667 2.166667 3.616667 2.233333 3.583333 2.250000 0
   1   6   0 0
   1
   1   7   0 0
   0
tciclo  1.000000e+00   1   1   1 0 1.083333 2.916667 0.450000 2.850000 1.250000 3.000000 0
   1   3   1 0
1.083333 4.150000
   1
   1   1   1 0
1.083333 1.250000
   0
t42  1.000000e+00   1   1   1 0 22.222223 9.000000 21.968056 8.700000 22.359723 9.066667 0
   1  81   0 0
   2
   1  82   0 0
   1  74   1 0
23.533333 7.911111
   0
t45  1.000000e+00   1   1   2 0 20.333329 9.000000 19.644446 9.111109 20.470833 9.066667 0
   1  79   0 0
   1  82   0 0
   2
   1  66   0 0
   1  76   1 0
19.533333 7.400000
   0
t39  1.000000e+00   1   1   2 0 20.333329 7.666667 19.733333 7.777778 20.470833 7.733333 0
   1  78   0 0
   1  74   2 0
22.377777 6.400000
22.377777 5.266667
   2
   1  79   0 0
   1  80   0 0
   0
t40  1.000000e+00   1   1   1 0 22.333329 4.444444 22.555556 4.422222 22.470833 4.511111 0
   1  73   0 0
   2
   1  75   0 0
   1  74   1 0
22.355556 5.000000
   0
t43  1.000000e+00   1   1   2 0 20.333329 4.333333 19.644444 4.444444 20.470833 4.400000 0
   1  75   0 0
   1  71   0 0
   2
   1  76   0 0
   1  43   2 0
18.150000 3.866667
16.549999 1.683333
   0
t35  1.000000e+00   1   1   2 0 20.333329 3.222222 19.622223 3.333333 20.470833 3.288889 0
   1  70   0 0
   1  74   2 0
21.600000 2.266667
23.577777 2.200000
   2
   1  72   1 0
21.422223 2.777778
   1  71   0 0
   0
t34  1.000000e+00   1   1   1 0 15.333333 11.333333 15.555555 11.400000 15.470833 11.400000 0
   1  68   0 0
   2
   1  69   0 0
   1  57   2 0
17.800000 10.288889
17.800000 5.577778
   0
r_AppCPU  1.000000e+00   1   1   1 1 13.000000 12.888891 12.444445 12.622222 13.137500 12.955555 0
   1  61   0 0
   2
   1  62   0 0
   1  41   2 0
12.755555 10.066667
12.733331 7.022222
   0
t15  1.000000e+00   1   1   2 1 12.333333 12.888891 11.711111 12.622222 12.470833 12.955555 0
   1  66   2 0
13.800000 13.266669
20.333329 13.244445
   1  62   0 0
   1
   1  63   0 0
   0
r_CDSS  1.000000e+00   1   1   1 1 9.444445 12.888891 9.000000 12.666667 9.581947 12.955555 0
   1  65   0 0
   2
   1  27   1 0
9.444445 7.800000
   1  41   2 0
10.688889 10.133333
10.688889 7.000000
   0
t32  1.000000e+00   1   1   1 1 10.444445 12.888891 10.190278 12.588890 10.581947 12.955555 0
   1  64   0 0
   2
   1  65   0 0
   1  40   0 0
   0
t27  1.000000e+00   1   1   2 1 11.333333 12.888891 11.079169 12.588890 11.470833 12.955555 0
   1  63   0 0
   1  41   0 0
   1
   1  64   0 0
   0
t25  1.000000e+00   1   1   2 0 13.444445 12.333333 13.622222 12.377778 13.581947 12.400000 0
   1  60   0 0
   1  76   4 0
13.977778 11.888891
14.333333 11.888891
18.244444 10.933333
18.400000 5.355556
   2
   1  61   0 0
   1  77   3 0
15.911110 12.355553
18.622223 11.333333
18.755556 5.777778
   0
t24  1.000000e+00   1   1   2 0 13.444445 11.111109 13.622222 11.133333 13.581947 11.177778 0
   1  59   0 0
   1  69   0 0
   1
   1  60   0 0
   0
t23  1.000000e+00   1   1   2 0 13.444445 10.000000 13.644447 10.044445 13.581947 10.066667 0
   1  58   0 0
   1  57   3 0
14.422222 9.266669
17.288894 8.577778
17.311110 6.044444
   2
   1  59   0 0
   1  67   0 0
   0
t36  1.000000e+00   1   1   1 0 15.333333 7.888889 15.511111 7.977778 15.470833 7.955556 0
   1  54   0 0
   2
   1  57   1 0
16.888890 6.933333
   1  55   0 0
   0
t38  1.000000e+00   1   1   1 0 15.333333 5.333333 15.533333 5.377778 15.470833 5.400000 0
   1  48   0 0
   2
   1  57   0 0
   1  56   0 0
   0
t22  1.000000e+00   1   1   2 0 13.444445 7.666667 13.644447 7.688889 13.581947 7.733333 0
   1  51   0 0
   1  55   0 0
   1
   1  52   0 0
   0
t21  1.000000e+00   1   1   2 0 13.444445 6.555556 13.644447 6.555556 13.581947 6.622222 0
   1  57   0 0
   1  50   0 0
   2
   1  51   0 0
   1  53   0 0
   0
t20  1.000000e+00   1   1   2 0 13.444445 5.333333 13.644447 5.422222 13.581947 5.400000 0
   1  49   0 0
   1  56   0 0
   1
   1  50   0 0
   0
t19  1.000000e+00   1   1   2 0 13.444445 4.111111 13.622222 4.244445 13.581947 4.177778 0
   1  57   2 0
14.888891 2.800000
16.866667 2.800000
   1  45   0 0
   2
   1  46   0 0
   1  49   0 0
   0
t12  1.000000e+00   1   1   2 0 13.444445 3.000000 13.555555 3.066667 13.581947 3.066667 0
   1  44   0 0
   1  41   0 0
   1
   1  45   0 0
   0
t18  1.000000e+00   1   1   2 0 13.444445 2.000000 12.866667 2.088889 13.581947 2.066667 0
   1  42   0 0
   1  43   0 0
   1
   1  44   0 0
   0
t10  1.000000e+00   1   1   1 0 13.444445 1.111111 13.644447 1.177778 13.581947 1.177778 0
   1  39   0 0
   1
   1  42   0 0
   0
t17  1.000000e+00   1   1   2 2 12.888891 0.666667 12.634722 0.366667 13.026390 0.733333 0
   1  38   0 0
   1  76   2 0
13.244445 0.244444
19.555556 0.311111
   3
   1  47   1 0
14.533333 1.400000
   1  39   0 0
   1  41   0 0
   0
t30  1.000000e+00   1   1   2 2 11.666667 0.666667 11.412500 0.366667 11.804167 0.733333 0
   1  37   0 0
   1  41   0 0
   1
   1  38   0 0
   0
t16  1.000000e+00   1   1   2 2 10.333333 0.666667 10.079169 0.366667 10.470833 0.733333 0
   1  26   0 0
   1  40   0 0
   1
   1  37   0 0
   0
t9  1.000000e+00   1   1   1 2 4.833333 12.000000 4.566667 12.233331 5.000000 12.083333 0
   1  36   0 0
   2
   1  24   0 0
   1  12   0 0
   0
t28  1.000000e+00   1   1   2 2 6.000000 12.000000 5.966667 12.316667 6.166667 12.083333 0
   1  35   0 0
   1  32   0 0
   2
   1  25   0 0
   1  36   0 0
   0
t31  1.000000e+00   1   1   1 2 6.833333 11.500000 6.733333 11.333333 7.000000 11.583333 0
   1  34   0 0
   2
   1  35   0 0
   1  21   0 0
   0
t29  1.000000e+00   1   1   2 0 8.000000 11.444445 8.166667 11.500000 8.137500 11.511111 0
   1  21   0 0
   1  31   0 0
   2
   1  33   0 0
   1  32   0 0
   0
t8  1.000000e+00   1   1   2 0 8.000000 8.111110 8.155556 8.066667 8.137500 8.177778 0
   1  25   0 0
   1  28   0 0
   1
   1  29   0 0
   0
t26  1.000000e+00   1   1   2 0 8.000000 6.833333 8.200000 6.850000 8.166667 6.916667 0
   1  24   0 0
   1  27   0 0
   1
   1  28   0 0
   0
t5  1.000000e+00   1   1   1 0 8.000000 6.333333 8.200000 6.416667 8.166667 6.416667 0
   1  23   0 0
   2
   1  24   0 0
   1  26   0 0
   0
t13  1.000000e+00   1   1   1 0 8.000000 5.333333 8.216667 5.416667 8.166667 5.416667 0
   1  22   0 0
   2
   1  25   0 0
   1  23   0 0
   0
t11  1.000000e+00   1   1   1 0 7.166667 4.833333 7.400000 4.916667 7.333333 4.916667 0
   1  19   0 0
   2
   1  20   0 0
   1  21   2 0
7.183333 5.116667
6.483333 5.116667
   0
t33  1.000000e+00   1   1   2 0 8.000000 4.166667 8.200000 4.233333 8.166667 4.250000 0
   1  17   0 0
   1  20   0 0
   1
   1  22   0 0
   0
t_SOAP  1.000000e+00   1   1   2 0 8.000000 3.333333 8.216667 3.400000 8.166667 3.416667 0
   1  16   0 0
   1  21   2 0
7.666667 2.666667
6.483333 2.666667
   2
   1  17   0 0
   1  18   0 0
   0
t_WSCoord  1.000000e+00   1   1   2 1 6.166667 0.750000 6.050000 0.550000 6.333333 0.833333 0
   1  25   0 0
   1  13   0 0
   1
   1  14   0 0
   0
t_WSP  1.000000e+00   1   1   2 1 5.166667 0.750000 5.000000 0.566667 5.333333 0.833333 0
   1  24   0 0
   1  11   0 0
   1
   1  13   0 0
   0
t6  1.000000e+00   1   1   1 0 3.416667 5.750000 3.566667 5.833333 3.583333 5.833333 0
   1  10   0 0
   2
   1   8   1 0
3.022222 5.000000
   1   5   2 0
3.183333 6.033333
2.333333 6.016667
   0
t4  1.000000e+00   1   1   2 0 3.416667 3.833333 3.633333 3.866667 3.583333 3.916667 0
   1   8   0 0
   1  12   0 0
   1
   1   9   0 0
   0
t3  1.000000e+00   1   1   1 0 3.416667 3.083333 3.583333 3.166667 3.583333 3.166667 0
   1   7   0 0
   2
   1   8   0 0
   1  11   0 0
   0
t2  1.000000e+00   1   1   2 0 3.416667 1.166667 3.600000 1.200000 3.583333 1.250000 0
   1   4   2 0
3.083333 0.933333
2.350000 0.933333
   1   8   1 0
2.983333 1.300000
   1
   1   6   0 0
   0
t7  1.000000e+00   1   1   2 0 1.750000 3.666667 1.950000 3.716667 1.916667 3.750000 0
   1   2   0 0
   1   5   0 0
   1
   1   3   0 0
   0
t1  1.000000e+00   1   1   1 0 1.750000 1.750000 1.933333 1.800000 1.916667 1.833333 0
   1   1   0 0
   2
   1   4   0 0
   1   2   0 0
   0
