|0|




|
f   0  12   0  11   1   0   0
p1   10 1.833333 1.166667 1.666667 1.016667 0
p2    0 3.416667 1.166667 3.316667 0.983333 0
p4    0 5.433333 1.166667 5.449999 1.000000 0
p5    1 6.750000 1.166667 6.950000 1.133333 0
p6    0 6.083333 2.500000 5.733333 2.550000 0
p7    0 5.333333 3.750000 5.283333 4.066667 0
p8    0 3.916667 3.750000 3.833333 4.066667 0
p9    0 4.500000 1.950000 4.700000 1.916666 0
p11    0 3.083333 2.500000 2.816667 2.850000 0
p3    0 4.400000 1.183333 4.300000 0.950000 0
p12    0 3.783333 1.950000 3.700000 2.266667 0
p10    0 3.066667 1.833333 3.266667 1.800000 0
G1  0.000000 0.000000 1
detect  1.305000e+00   0   0   1 1 4.116667 1.950000 4.066667 1.733333 4.283334 2.033333 0
   1  11   0 0
   1
   1   8   0 0
   0
resend  2.500000e+00   0   0   1 0 3.083333 1.450000 2.333333 1.516667 3.250000 1.533333 0
   1  12   0 0
   2
   1   2   0 0
   1   9   1 0
2.366667 1.883333
   0
receive  1.500000e+00   0   0   2 0 6.083333 1.833333 6.250000 2.066667 6.250000 1.916667 0
   1   3   1 0
6.050000 1.166667
   1   4   2 0
6.383333 1.566667
6.383333 1.166667
   1
   1   5   0 0
   0
transmitAck  5.000000e-01   0   0   1 1 4.666667 3.750000 4.316667 3.533333 4.833333 3.833333 0
   1   6   0 0
   1
   1   7   0 0
   0
sendAck  1.000000e+00   0   0   1 0 6.083333 3.166667 6.316667 3.183333 6.250000 3.250000 0
   1   5   0 0
   2
   1   4   2 0
6.100000 3.583333
6.750000 3.583333
   1   6   0 0
   0
transmit  1.305000e+00   0   0   1 1 4.883333 1.166667 4.666667 1.500000 5.050000 1.250000 0
   1  10   0 0
   1
   1   3   0 0
   0
send  2.500000e+00   0   0   1 1 2.500000 1.166667 2.333333 1.000000 2.666667 1.250000 0
   1   1   0 0
   2
   1   9   2 0
1.983333 1.616667
2.083333 2.500000
   1   2   0 0
   0
receiveAck  1.000000e+00   1   1   2 1 2.666667 3.750000 2.566667 4.050000 2.833333 3.833333 0
   1   9   1 0
3.083333 3.433333
   1   7   0 0
   1
   1   1   1 0
1.833333 3.733333
   0
retry  1.000000e+00   1   1   2 3 3.300000 2.233333 3.300000 2.516667 3.466666 2.316666 0
   1   8   2 0
3.733333 2.400000
4.500000 2.400000
   1   9   2 0
3.066667 2.016667
2.900000 2.116667
   1
   1  12   0 0
   0
ok  9.000000e-01   1   1   1 1 3.866667 1.166667 3.750000 0.983333 4.033333 1.250000 0
   1   2   0 0
   1
   1  10   0 0
   0
loss  1.000000e-01   1   1   1 3 3.666667 1.550000 3.800000 1.533333 3.833334 1.633333 0
   1   2   0 0
   1
   1  11   0 0
   0
