|0|

|
f   0   6   0   6   1   0   0
P1    0 3.250000 1.083333 3.183333 0.816667 0
P2    0 2.416667 2.666667 2.616667 2.633333 0
P3    0 4.250000 2.750000 4.450000 2.716667 0
P4    0 2.250000 4.333333 1.850000 4.383333 0
P5    0 4.416667 4.250000 4.616667 4.216667 0
P6    20 3.333333 5.250000 3.533333 5.216667 0
G1  2.416667 1.916667 1
t6  1.666670e-01   0   0   1 0 5.750000 3.416667 6.116667 3.433333 5.916667 3.500000 0
   1   6   1 0
5.750000 5.216667
   1
   1   1   1 0
5.750000 1.066667
   0
t4  2.500000e-01   0   0   1 0 3.833333 3.500000 3.566667 3.333333 4.000000 3.583333 0
   1   3   0 0
   1
   1   4   0 0
   0
t3  3.333330e-01   0   0   1 0 2.916667 3.500000 2.950000 3.366667 3.083333 3.583333 0
   1   2   0 0
   1
   1   5   0 0
   0
t2  1.000000e+00   1   1   1 0 4.250000 1.916667 3.833333 2.016667 4.416667 2.000000 0
   1   1   0 0
   2
   1   3   1 0
4.250000 2.500000
   1   5   1 0
5.083333 2.683333
   0
t1  2.000000e+00   1   1   1 0 2.416667 1.916667 2.716667 2.016667 2.583333 2.000000 0
   1   1   0 0
   2
   1   2   0 0
   1   4   1 0
1.433333 2.666667
   0
t5  1.000000e+00   1   1   2 0 3.333333 4.750000 3.600000 4.866667 3.500000 4.833333 0
   1   5   0 0
   1   4   0 0
   1
   1   6   0 0
   0
