|0|


|
f   0  11   0  10   1   0   0
P1    30 4.333333 0.666667 4.533333 0.633333 0
P2    0 4.333333 2.000000 4.533333 1.966667 0
P3    0 2.666667 3.333333 2.866667 3.300000 0
P4    0 4.333333 3.333333 4.533333 3.300000 0
P5    0 6.000000 3.333333 6.200000 3.300000 0
P6    0 2.666667 4.666667 2.933333 4.800000 0
P7    0 4.333333 4.666667 3.833333 4.716667 0
P8    0 6.000000 4.666667 5.600000 4.733333 0
P10    1 2.333333 4.666667 1.850000 4.716667 0
P11    1 4.666667 4.666667 4.866667 4.633333 0
P12    1 6.333333 4.666667 6.516667 4.766667 0
G1  4.333333 2.666667 1
T8  1.000000e+00   0   0   1 0 2.666667 5.333333 2.850000 5.400000 2.833333 5.416667 0
   1   6   0 0
   2
   1   9   0 0
   1   1   3 0
2.666667 5.666667
1.600000 5.666667
1.600000 0.666667
   0
T9  5.000000e-01   0   0   1 0 4.333333 5.333333 4.566667 5.400000 4.500000 5.416667 0
   1   7   0 0
   2
   1  10   0 0
   1   1   3 0
4.333333 5.666667
1.600000 5.666667
1.600000 0.666667
   0
T10  2.000000e-01   0   0   1 0 6.000000 5.333333 6.283333 5.383333 6.166667 5.416667 0
   1   8   0 0
   2
   1  11   0 0
   1   1   3 0
6.000000 5.666667
1.600000 5.666667
1.600000 0.666667
   0
T1  1.000000e+00   0   0   1 0 4.333333 1.333333 4.566667 1.400000 4.500000 1.416667 0
   1   1   0 0
   1
   1   2   0 0
   0
t7  1.000000e+00   1   1   2 0 6.000000 4.000000 6.200000 4.033333 6.166667 4.083333 0
   1  11   0 0
   1   5   0 0
   1
   1   8   0 0
   0
t6  1.000000e+00   1   1   2 0 4.333333 4.000000 4.550000 4.066667 4.500000 4.083333 0
   1  10   0 0
   1   4   0 0
   1
   1   7   0 0
   0
t5  1.000000e+00   1   1   2 0 2.666667 4.000000 3.016667 4.083333 2.833333 4.083333 0
   1   9   0 0
   1   3   0 0
   1
   1   6   0 0
   0
t4  1.000000e+00   1   1   1 0 6.000000 2.666667 6.200000 2.666667 6.166667 2.750000 0
   1   2   0 0
   1
   1   5   0 0
   0
t3  6.000000e+00   1   1   1 0 2.666667 2.666667 2.933333 2.733333 2.833333 2.750000 0
   1   2   0 0
   1
   1   3   0 0
   0
t2  3.000000e+00   1   1   1 0 4.333333 2.666667 4.550000 2.733333 4.500000 2.750000 0
   1   2   0 0
   1
   1   4   0 0
   0
