|0|




|
f   0  21   0  24   2   0   0
dwnWAN    0 6.866667 2.022222 7.037499 1.988888 0
P21    0 6.869443 3.169445 6.719443 3.452778 0
p3    0 8.619444 3.169445 8.419444 3.452778 0
MaxCap  100 7.500000 4.200000 7.700000 4.166667 0
MRp23    0 10.269448 4.519445 9.716667 4.788889 0
p1    0 2.936111 6.352778 2.988889 6.627778 0
p2    0 6.936111 5.436111 6.469444 5.252778 0
p2    0 12.019448 7.102778 12.055554 6.850001 0
p1    0 4.366667 6.338889 4.380555 6.658333 0
ClientThinking   10 4.936111 2.936110 5.036111 3.169445 0
ClientWait4ack    0 4.936111 4.269445 5.102778 4.336111 0
ClientDwn    0 3.016667 4.222223 3.150000 4.083333 0
dwnPDA    0 3.636112 8.502778 3.336111 8.786110 0
upPDA   10 3.636112 7.586111 3.436111 7.419445 0
MRwait4msg    1 10.269448 3.019445 9.552778 2.852778 0
dwnAppHost    0 12.852775 8.769448 12.369446 9.052777 0
upAppHost    1 12.852775 7.852778 12.436108 7.686111 0
p4    0 13.769448 7.102778 13.877778 6.894445 0
MRDwn    0 12.186111 4.019445 12.400000 3.972223 0
P25    0 9.099997 5.449999 9.216667 5.666667 0
dwn1WAN    0 9.099997 6.783334 9.270833 6.750001 0
G9  21.833329 5.083333 1
G4  0.000000 0.000000 2
repPDA  1.000000e-02   0   0   1 0 2.936111 8.019446 2.119445 8.102779 3.102778 8.102779 0
   1  13   0 0
   2
   1   6   0 0
   1  14   0 0
   0
ftPDA  1.000000e-05   0   0   1 0 4.369444 8.019446 4.536111 8.086111 4.536111 8.102779 0
   1  14   0 0
   2
   1   9   0 0
   1  13   0 0
   0
ftAppHost  1.000000e-05   0   0   1 0 12.019448 8.269446 11.236110 8.519445 12.186117 8.352779 0
   1  17   0 0
   2
   1   8   0 0
   1  16   0 0
   0
repAppHost  1.000000e-02   0   0   1 0 13.769448 8.269446 13.636111 8.486110 13.936118 8.352779 0
   1  16   0 0
   2
   1  17   0 0
   1  18   0 0
   0
t1  1.000000e-01   0   0   1 1 8.211110 6.783334 7.700000 7.161110 8.348612 6.850001 0
   1  21   0 0
   1
   1   7   0 0
   0
T43  1.000000e-01   0   0   1 1 7.933332 2.022222 7.399999 1.816667 8.070831 2.088888 0
   1   1   0 0
   1
   1   3   0 0
   0
think  1.000000e+01   0   0   2 0 4.936111 3.552779 5.102778 3.602779 5.102778 3.636112 0
   1   4   0 0
   1  10   0 0
   2
   1   2   0 0
   1  11   0 0
   0
ack  1.000000e+00   1   1   2 0 10.269448 5.269446 10.452779 5.319444 10.436108 5.352778 0
   1   5   0 0
   1   4   0 0
   2
   1  15   2 0
10.686111 4.819445
10.686111 3.252778
   1  20   0 0
   0
trasko2  1.000000e-06   1   1   1 0 9.099997 6.116665 9.233331 6.150001 9.266668 6.200000 0
   1  20   0 0
   1
   1  21   0 0
   0
trasko  1.000000e-06   1   1   1 0 6.869443 2.586110 7.002777 2.619445 7.036109 2.669445 0
   1   2   0 0
   1
   1   1   0 0
   0
trasok  1.000000e+00   1   1   1 1 7.702777 3.169445 7.369443 2.986111 7.869443 3.252778 0
   1   2   0 0
   1
   1   3   0 0
   0
loss_repAH  1.000000e+00   1   1   1 1 14.877778 7.116665 14.988891 7.116666 15.015279 7.183334 0
   1  18   0 0
   0
   0
loss_failAH  1.000000e+00   1   1   1 1 11.033333 7.100000 10.566666 6.922222 11.170831 7.166667 0
   1   8   0 0
   0
   0
loss_repPDA  1.000000e+00   1   1   1 1 1.916667 6.350000 1.516667 6.594445 2.054167 6.416666 0
   1   6   0 0
   0
   0
loss_failPDA  1.000000e+00   1   1   1 1 5.433333 6.338889 5.566668 6.405555 5.570833 6.405555 0
   1   9   0 0
   0
   0
trasok2  1.000000e+00   1   1   1 1 8.102779 5.436111 7.769444 5.252778 8.269444 5.519445 0
   1  20   0 0
   1
   1   7   0 0
   0
ev_ack  1.000000e+00   1   1   2 0 4.936111 4.969445 5.102778 4.902778 5.102778 5.052778 0
   1   7   0 0
   1  11   0 0
   2
   1  10   2 0
4.502778 4.702778
4.502778 3.136112
   1   4   0 0
   0
t30  1.000000e+00   1   2   2 0 11.216667 6.150000 10.933333 5.850000 11.383334 6.233333 0
   1   5   0 0
   1   8   0 0
   1
   1  19   0 0
   0
ev_repPDA  1.000000e+00   1   2   2 1 2.016667 4.222223 1.919445 4.047223 2.183334 4.305555 0
   1   6   0 0
   1  12   0 0
   1
   1  10   3 0
1.400000 4.216667
1.400000 2.350000
4.933334 2.350000
   0
ev_failPDA  1.000000e+00   1   2   2 1 3.352778 2.936110 2.936111 2.786110 3.519445 3.019445 0
   1   9   0 0
   1  10   0 0
   1
   1  12   0 0
   0
ev_failAH  1.000000e+00   1   2   2 1 11.352775 5.019446 11.469445 5.086111 11.519446 5.102778 0
   1   8   0 0
   1  15   2 0
10.936111 5.019446
10.936111 3.219445
   1
   1  19   0 0
   0
ev_repAH  1.000000e+00   1   2   2 1 11.602775 3.019445 11.502778 2.819445 11.769446 3.102779 0
   1  18   1 0
13.769448 3.019445
   1  19   0 0
   1
   1  15   0 0
   0
ev_msg  1.000000e+00   1   2   2 0 10.269448 3.769445 9.502778 3.752778 10.436108 3.852778 0
   1   3   0 0
   1  15   0 0
   2
   1   4   0 0
   1   5   0 0
   0
t29  1.000000e+00   1   2   2 0 3.616667 4.983333 3.333334 4.683333 3.783334 5.066667 0
   1   9   0 0
   1  11   0 0
   1
   1  12   0 0
   0
