|0|

|
f   0  36   0  29   1   0   0
a2    0 1.997222 3.108333 2.180555 3.208333 0
a3    0 1.997222 4.208333 2.197222 4.175001 0
a4    0 1.997222 5.275001 2.197222 5.241666 0
a5    0 1.997222 6.241666 2.197222 6.208333 0
a13    0 4.730556 6.297222 4.930556 6.263890 0
a12    0 4.730556 5.341668 4.930556 5.308332 0
a11    0 4.730556 4.275001 4.930556 4.241667 0
a10    0 4.730556 3.175000 4.930556 3.141667 0
d10    0 13.841667 3.375000 14.041671 3.341668 0
d11    0 13.841667 4.475000 14.041671 4.441668 0
d12    0 13.841667 5.541666 14.041671 5.508332 0
d13    0 13.841667 6.508331 14.108329 6.574997 0
d2    0 11.130555 3.286111 11.347215 3.369445 0
d3    0 11.130555 4.386111 11.347215 4.419445 0
d4    0 11.130555 5.452779 11.330552 5.419444 0
d5    0 11.130555 6.419445 11.297219 6.402778 0
d9    0 12.463884 6.458332 12.663884 6.424999 0
d8    0 12.463884 5.491667 12.663884 5.458333 0
d7    0 12.463884 4.424999 12.663884 4.391666 0
d6    0 12.463884 3.324999 12.663884 3.291666 0
d1    3 12.463884 1.508333 12.663884 1.474999 0
a9    0 3.386111 6.297222 3.586111 6.263889 0
a8    0 3.386111 5.330557 3.586111 5.297222 0
a7    0 3.386111 4.263888 3.586111 4.230556 0
a6    0 3.386111 3.163888 3.586111 3.130555 0
a1    3 3.386111 1.347223 3.586111 1.313889 0
c5    0 7.016667 4.100000 7.200001 4.116667 0
c4    0 7.016667 2.900000 7.183334 3.016667 0
c6    0 8.033333 5.600000 8.183333 5.716667 0
c3    0 9.150000 1.616667 9.333333 1.616667 0
c1    10 8.033333 0.366667 7.933333 0.666667 0
c2    0 7.016667 1.550000 7.183333 1.683333 0
b2    0 10.433333 2.750000 10.316667 2.566667 0
b1    0 5.700000 2.750000 5.566666 2.550000 0
b3    0 5.700000 7.083333 5.900000 7.050001 0
b4    0 10.433333 7.083333 10.699999 7.116666 0
G1  0.000000 0.000000 1
T61  1.000000e+00   0   0   1 0 3.386111 5.830557 3.550000 5.883333 3.552778 5.913889 0
   1  23   0 0
   1
   1  22   0 0
   0
T71  1.000000e+00   0   0   1 0 1.997222 4.741666 2.150000 4.766667 2.163889 4.825000 0
   1   2   0 0
   1
   1   3   0 0
   0
T81  1.000000e+00   0   0   1 0 1.997222 5.775001 2.200000 5.816667 2.163889 5.858333 0
   1   3   0 0
   1
   1   4   0 0
   0
T6  1.000000e+00   0   0   1 0 1.997222 3.708333 2.200000 3.733333 2.163889 3.791666 0
   1   1   0 0
   1
   1   2   0 0
   0
T9  1.000000e+00   0   0   1 0 4.730556 5.841668 4.933333 5.850000 4.897223 5.925001 0
   1   6   0 0
   1
   1   5   0 0
   0
T10  1.000000e+00   0   0   1 0 4.730556 4.808332 4.950000 4.800000 4.897223 4.891666 0
   1   7   0 0
   1
   1   6   0 0
   0
T11  1.000000e+00   0   0   1 0 4.730556 3.775001 4.933333 3.750000 4.897223 3.858333 0
   1   8   0 0
   1
   1   7   0 0
   0
T31  1.000000e+00   0   0   1 0 13.841667 3.975000 14.066667 3.983333 14.008329 4.058333 0
   1   9   0 0
   1
   1  10   0 0
   0
T32  1.000000e+00   0   0   1 0 13.841667 5.008331 14.050000 5.033333 14.008329 5.091664 0
   1  10   0 0
   1
   1  11   0 0
   0
T33  1.000000e+00   0   0   1 0 13.841667 6.041666 14.100000 6.133333 14.008329 6.124999 0
   1  11   0 0
   1
   1  12   0 0
   0
T25  1.000000e+00   0   0   1 0 11.130555 3.886111 11.333333 3.900000 11.297219 3.969444 0
   1  13   0 0
   1
   1  14   0 0
   0
T26  1.000000e+00   0   0   1 0 11.130555 4.919444 11.350000 4.983333 11.297219 5.002778 0
   1  14   0 0
   1
   1  15   0 0
   0
T27  1.000000e+00   0   0   1 0 11.130555 5.952779 11.283333 5.966667 11.297219 6.036112 0
   1  15   0 0
   1
   1  16   0 0
   0
T30  1.000000e+00   0   0   1 0 12.463884 5.991667 12.700000 6.033333 12.630552 6.075000 0
   1  18   0 0
   1
   1  17   0 0
   0
T29  1.000000e+00   0   0   1 0 12.463884 4.958332 12.650000 4.966667 12.630552 5.041666 0
   1  19   0 0
   1
   1  18   0 0
   0
T28  1.000000e+00   0   0   1 0 12.463884 3.924999 12.700000 3.916667 12.630552 4.008331 0
   1  20   0 0
   1
   1  19   0 0
   0
TI5  1.000000e+00   0   0   2 0 12.463884 2.324999 12.797219 2.341666 12.630552 2.408333 0
   1  33   1 0
11.813881 1.991666
   1  21   0 0
   3
   1   9   0 0
   1  13   0 0
   1  20   0 0
   0
TI6  1.000000e+00   0   0   3 0 12.463884 7.191667 12.713884 7.308334 12.630552 7.274999 0
   1  12   0 0
   1  16   0 0
   1  17   0 0
   2
   1  36   1 0
11.150000 7.616667
   1  21   3 0
13.244445 7.533333
14.644448 7.533333
14.633333 1.500000
   0
T7  1.000000e+00   0   0   1 0 3.386111 4.797222 3.566667 4.833333 3.552778 4.880556 0
   1  24   0 0
   1
   1  23   0 0
   0
T8  1.000000e+00   0   0   1 0 3.386111 3.763889 3.600000 3.766667 3.552778 3.847222 0
   1  25   0 0
   1
   1  24   0 0
   0
TI3  1.000000e+00   0   0   2 0 3.386111 2.163888 3.719444 2.180555 3.552778 2.247222 0
   1  34   1 0
3.902778 1.847223
   1  26   0 0
   3
   1   1   0 0
   1   8   0 0
   1  25   0 0
   0
TI4  1.000000e+00   0   0   3 0 3.386111 7.030556 3.636111 7.147223 3.552778 7.113889 0
   1   4   0 0
   1  22   0 0
   1   5   0 0
   2
   1  35   1 0
4.569444 7.597222
   1  26   3 0
3.386111 7.613889
1.533333 7.600000
1.516667 1.333333
   0
TI2  1.000000e+00   0   0   3 0 7.033333 4.733333 7.233333 4.816667 7.200000 4.816667 0
   1  36   2 0
7.616667 4.366667
7.616667 7.066667
   1  27   0 0
   1  35   2 0
6.350000 4.400000
6.350000 7.066667
   1
   1  29   0 0
   0
TI1  1.000000e+00   0   0   1 0 7.016667 2.266667 7.200000 2.316667 7.183333 2.350000 0
   1  32   0 0
   3
   1  33   1 0
8.066667 2.750000
   1  28   0 0
   1  34   1 0
6.116667 2.750000
   0
T40  1.000000e+00   0   0   1 0 7.016667 3.483333 6.500000 3.533333 7.183334 3.566667 0
   1  28   0 0
   1
   1  27   0 0
   0
T38  1.000000e+00   0   0   1 0 8.033333 6.150000 8.233333 6.233333 8.200000 6.233333 0
   1  29   0 0
   1
   1  31   4 0
8.149998 6.466667
9.933333 6.466667
9.933333 0.100000
8.016667 0.100000
   0
T39  1.000000e+00   0   0   1 0 9.166667 4.716667 9.283333 4.533333 9.333333 4.800000 0
   1  30   0 0
   1
   1  29   0 0
   0
T34  1.000000e+00   1   1   1 0 9.150000 0.966667 9.133333 0.816667 9.316673 1.050001 0
   1  31   0 0
   1
   1  30   0 0
   0
T35  1.000000e+00   1   1   1 0 7.016667 1.000000 6.700000 0.850000 7.183333 1.083333 0
   1  31   0 0
   1
   1  32   0 0
   0
