|0|



|
f   0  14   0  16   1   0   0
P1    10 8.399998 0.433333 8.600000 0.400000 0
P2    0 8.083333 1.316667 7.666667 1.316667 0
P3    0 8.766671 1.350000 8.450000 1.633333 0
P4    0 7.483333 2.400000 7.100000 2.350000 0
P5    0 8.466667 2.366667 8.383333 2.133333 0
P6    0 7.366667 3.400000 6.983333 3.483333 0
P7    0 8.600000 3.433333 8.800000 3.400000 0
P8    10 11.900000 0.916667 12.100000 0.883333 0
P9    0 11.950000 2.016667 12.150000 1.983333 0
P10    0 11.466667 3.300000 11.666667 3.266667 0
P11    0 12.583333 3.300000 12.783333 3.266667 0
P12    0 10.233329 1.133333 10.066667 0.883333 0
P13    0 10.083333 2.283333 9.966667 1.983333 0
P14    0 10.016671 3.766667 9.950000 3.516667 0
G1  0.000000 0.000000 1
T5  3.000000e+00   0   0   1 0 8.916667 1.850000 9.000000 1.716667 9.016668 1.583333 0
   1   3   0 0
   2
   1   5   0 0
   1  13   0 0
   0
T12  1.000000e+00   0   0   2 0 11.933333 1.433333 12.150000 1.533333 12.100000 1.516667 0
   1   8   0 0
   1  12   0 0
   1
   1   9   0 0
   0
T15  1.000000e+00   0   0   1 0 11.483329 3.916667 11.683333 4.016667 11.650000 4.000000 0
   1  10   0 0
   2
   1   8   3 0
11.516671 4.316667
10.933333 4.300000
11.066667 0.900000
   1  14   0 0
   0
T16  1.000000e+00   0   0   1 0 12.633333 3.883333 12.816667 3.900000 12.800000 3.966667 0
   1  11   0 0
   2
   1   8   3 0
12.700000 4.266667
13.233329 4.233333
13.033333 0.883333
   1  14   1 0
12.033333 3.600000
   0
T10  5.000000e-01   1   1   2 0 7.316667 3.900000 7.450000 4.016667 7.483333 3.983333 0
   1   6   0 0
   1  14   1 0
7.766667 3.616667
   1
   1   1   3 0
7.300000 4.200000
6.566667 4.200000
6.733333 0.333333
   0
T11  5.000000e-01   1   1   2 0 8.616667 3.850000 8.833333 3.950000 8.783333 3.933333 0
   1   7   0 0
   1  14   0 0
   1
   1   1   3 0
8.616667 4.216667
9.400000 4.200000
9.333333 0.433333
   0
T14  5.000000e-01   1   1   2 0 12.533333 2.716667 12.700000 2.733333 12.700000 2.800000 0
   1   9   0 0
   1  13   0 0
   1
   1  11   0 0
   0
T13  5.000000e-01   1   1   2 0 11.500000 2.716667 11.750000 2.733333 11.666667 2.800000 0
   1   9   0 0
   1  13   0 0
   1
   1  10   0 0
   0
t9  5.000000e-01   1   1   1 0 8.933333 2.966667 9.050000 2.866667 9.066667 2.716667 0
   1   5   0 0
   1
   1   7   0 0
   0
t8  5.000000e-01   1   1   1 0 8.350002 2.950000 8.116667 2.866667 8.416667 3.033333 0
   1   5   0 0
   1
   1   6   0 0
   0
t7  5.000000e-01   1   1   1 0 7.750000 2.950000 7.350000 2.966667 7.466667 3.000000 0
   1   4   0 0
   1
   1   7   0 0
   0
t6  5.000000e-01   1   1   1 0 7.016667 2.983333 6.716667 2.883333 6.733333 2.650000 0
   1   4   0 0
   1
   1   6   0 0
   0
T4  7.500000e-01   1   1   1 0 8.116667 1.850000 8.183333 1.750000 7.933333 1.983333 0
   1   2   0 0
   2
   1   5   0 0
   1  13   0 0
   0
T3  2.500000e-01   1   1   1 0 7.550000 1.850000 7.383333 1.733333 6.916667 1.650000 0
   1   2   0 0
   2
   1   4   0 0
   1  13   0 0
   0
T1  6.000000e-01   1   1   1 0 8.100002 0.816667 7.933333 0.700000 7.150000 0.766667 0
   1   1   0 0
   2
   1   2   0 0
   1  12   0 0
   0
T2  2.000000e+00   1   1   1 0 8.716667 0.816667 8.833333 0.733333 8.933333 0.600000 0
   1   1   0 0
   2
   1   3   0 0
   1  12   0 0
   0
