|0|





|
f   0  12   0   9   1   0   0
P1   10 5.066667 1.066667 4.683333 1.016667 0
P2   10 7.433333 1.133333 7.633333 1.100000 0
P3    0 5.066667 2.366667 5.266667 2.333333 0
P4    0 7.450000 2.350000 7.650000 2.316667 0
P5    0 5.083333 3.750000 4.666667 3.816667 0
P6    0 7.450000 3.733333 7.650000 3.700000 0
P7    0 5.083333 5.283333 5.283333 5.250000 0
P8    0 7.450000 5.133333 7.650000 5.100000 0
P9    0 7.450000 6.283333 7.650000 6.250001 0
P10    1 6.183333 3.733333 6.383333 3.700000 0
P11    1 4.450000 1.350000 4.650000 1.316667 0
P13    0 4.483333 2.116667 4.316667 2.500000 0
G1  6.350000 0.433333 1
T10  5.000000e-01   0   0   1 0 3.966667 1.733333 3.800000 1.616667 4.133333 1.816667 0
   1  12   0 0
   1
   1  11   0 0
   0
T2  1.000000e+01   0   0   2 0 5.083333 1.750000 5.300000 1.800000 5.250000 1.833333 0
   1  11   0 0
   1   1   0 0
   2
   1  12   0 0
   1   3   0 0
   0
T3  5.000000e-01   0   0   1 0 7.433333 1.750000 7.633333 1.883333 7.600000 1.833333 0
   1   2   0 0
   1
   1   4   0 0
   0
T6  1.428570e-01   0   0   1 0 5.083333 4.500000 4.600000 4.516667 5.250000 4.583333 0
   1   5   0 0
   2
   1  10   1 0
5.750000 4.916667
   1   7   0 0
   0
T7  1.000000e+00   0   0   1 0 7.450000 4.566667 7.633333 4.616667 7.616667 4.650000 0
   1   6   0 0
   2
   1  10   1 0
6.483333 5.050000
   1   8   0 0
   0
T8  1.428570e-01   0   0   1 0 7.450000 5.783333 7.650000 5.750000 7.616666 5.866666 0
   1   8   0 0
   1
   1   9   0 0
   0
T1  1.000000e+00   1   1   2 0 6.350000 0.433333 6.550000 0.466667 6.516667 0.516667 0
   1   7   3 0
4.666667 0.516667
3.500000 1.483333
3.500000 3.833333
   1   9   3 0
7.800000 0.450000
9.016670 1.383333
9.000000 4.866667
   2
   1   2   0 0
   1   1   0 0
   0
t5  1.000000e+00   1   1   2 0 7.450000 3.016667 7.700000 3.066667 7.616667 3.100000 0
   1   4   0 0
   1  10   1 0
6.633333 2.483333
   1
   1   6   0 0
   0
t4  1.000000e+00   1   1   2 0 5.050000 3.033333 4.700000 2.900000 5.216667 3.116667 0
   1  10   1 0
6.133333 2.450000
   1   3   0 0
   1
   1   5   0 0
   0
