|0|



|
f   0  11   0   8   1   0   0
cons    0 3.299999 4.183333 3.450001 4.158332 0
pick    0 3.299999 3.183332 3.450001 3.158333 0
wait_p    10 4.300000 1.183333 4.449999 1.158332 0
parts    40 3.299999 1.183333 3.450001 1.158332 0
w2    0 3.800001 2.183333 3.950001 2.158333 0
prod    0 2.300001 4.183333 1.750000 4.150000 0
place    0 2.300001 3.183332 1.650000 3.166667 0
s_r    10 2.800000 2.183333 2.650000 1.966667 0
w1    0 1.800001 2.183333 1.950001 2.158333 0
holes    0 2.300001 1.183333 2.450001 1.158332 0
wait_h    10 1.300000 1.183333 1.450000 1.158332 0
G1  2.000000 1.333333 1
t_h  1.000000e+00   0   0   2 0 1.800001 1.683332 1.950000 1.733333 1.925001 1.745832 0
   1  11   0 0
   1  10   0 0
   1
   1   9   0 0
   0
t_p  1.000000e+00   0   0   2 0 3.800001 1.683332 3.333333 1.716667 4.381250 1.677083 0
   1   4   0 0
   1   3   0 0
   1
   1   5   0 0
   0
E_prod  2.500000e-01   0   0   1 0 2.300001 4.683332 1.516667 4.750000 2.425000 4.745833 0
   1   6   0 0
   1
   1  11   2 0
2.150001 4.933333
1.650001 4.933333
   0
E_cons  5.000000e-01   0   0   1 0 3.299999 4.683332 3.437499 4.620833 3.425001 4.745833 0
   1   1   0 0
   1
   1   3   2 0
3.450001 4.933333
4.050001 4.933333
   0
E_pick  3.333330e-01   0   0   1 0 3.299999 3.683333 3.450001 3.633332 3.425001 3.745832 0
   1   2   0 0
   3
   1  10   2 0
3.112499 4.008332
2.874999 4.008332
   1   8   1 0
3.000001 3.933332
   1   1   0 0
   0
E_place  5.000000e-01   0   0   1 0 2.300001 3.683333 1.400000 3.716667 2.425000 3.745832 0
   1   7   0 0
   3
   1   8   1 0
2.550001 3.883332
   1   6   0 0
   1   4   2 0
2.487501 3.995833
2.625001 3.995833
   0
B_place  1.000000e+00   1   1   2 0 2.300001 2.683333 1.433333 2.716667 2.425000 2.745833 0
   1   9   0 0
   1   8   0 0
   1
   1   7   0 0
   0
B_pick  1.000000e+00   1   1   2 0 3.299999 2.683333 3.462501 2.720833 3.425001 2.745833 0
   1   8   0 0
   1   5   0 0
   1
   1   2   0 0
   0
