|0|
|
f   0  21   0  16   1   0   0
users    10 2.222222 1.111111 2.422222 1.077778 0
p1    0 3.777778 1.111111 3.977778 1.077778 0
p2    0 5.666667 1.111111 5.866667 1.077778 0
p3    0 5.666667 2.166667 5.866667 2.133333 0
p4    0 5.666667 3.166667 5.866667 3.133333 0
p5    0 5.666667 4.250000 5.866667 4.216667 0
p6    0 5.666667 5.250000 5.866667 5.216667 0
p7    0 5.666667 6.333333 5.866667 6.300000 0
p8    0 5.666667 7.333333 5.837500 7.300000 0
p9    0 5.666667 8.444444 5.837500 8.411111 0
ptarget    10 4.888889 7.333333 4.422222 7.155556 0
p10    0 4.777778 8.444444 4.577778 8.311111 0
p11    0 4.000000 8.444444 3.800000 8.288889 0
p12    0 3.111111 8.444444 3.022222 8.222222 0
p13    0 2.222222 8.444444 1.600000 8.555555 0
p14    0 2.222222 5.555556 2.466667 5.666667 0
pfin    0 2.222222 3.222222 2.422222 3.311111 0
pui    10 3.222222 2.666667 3.393055 2.633333 0
puipm    10 4.000000 3.000000 4.170833 2.966667 0
puch    10 4.555556 3.888889 4.726389 3.855555 0
pta    10 4.888889 4.777778 5.059722 4.744444 0
G1  2.666667 1.166667 1
tciclo  1.000000e+00   0   0   1 0 2.222222 2.333333 2.466667 2.400000 2.359722 2.400000 0
   1  17   0 0
   1
   1   1   0 0
   0
cmd  1.000000e-01   0   0   1 0 5.666667 7.888889 5.933333 7.888889 5.804167 7.955556 0
   1   9   0 0
   1
   1  10   0 0
   0
setvaTA  1.000000e-01   0   0   1 0 5.666667 5.750000 5.900000 5.833333 5.833333 5.833333 0
   1   7   0 0
   1
   1   8   0 0
   0
setvalUCH  5.000000e-01   0   0   1 0 5.666667 3.750000 5.866667 3.800000 5.833333 3.833333 0
   1   5   0 0
   1
   1   6   0 0
   0
invCmd  1.000000e-01   0   0   1 0 5.666667 1.750000 5.916667 1.800000 5.833333 1.833333 0
   1   3   0 0
   1
   1   4   0 0
   0
rel_ui  1.000000e+00   1   1   1 0 2.222222 6.777778 2.355555 6.844444 2.359722 6.844444 0
   1  15   0 0
   2
   1  16   0 0
   1  18   0 0
   0
end  1.000000e+00   1   1   1 0 2.222222 4.444444 2.422222 4.488889 2.359722 4.511111 0
   1  16   0 0
   1
   1  17   0 0
   0
rel_uipm  1.000000e+00   1   1   1 1 2.666667 8.444444 2.044444 8.777778 2.804167 8.511111 0
   1  14   0 0
   2
   1  15   0 0
   1  19   0 0
   0
rel_UCH  1.000000e+00   1   1   1 1 3.555555 8.444444 3.244445 8.777778 3.693055 8.511111 0
   1  13   0 0
   2
   1  14   0 0
   1  20   0 0
   0
rel_ta  1.000000e+00   1   1   1 1 4.444444 8.444444 4.311111 8.711111 4.581944 8.511111 0
   1  12   0 0
   2
   1  13   0 0
   1  21   0 0
   0
rel_target  1.000000e+00   1   1   1 1 5.222222 8.444444 5.222222 8.733333 5.359722 8.511111 0
   1  10   0 0
   2
   1  12   0 0
   1  11   0 0
   0
acq_target  1.000000e+00   1   1   2 0 5.666667 6.888889 5.866667 6.911111 5.804167 6.955556 0
   1   8   0 0
   1  11   0 0
   1
   1   9   0 0
   0
acq_ta  1.000000e+00   1   1   2 0 5.666667 4.833333 5.966667 4.866667 5.833333 4.916667 0
   1   6   0 0
   1  21   0 0
   1
   1   7   0 0
   0
acq_uch  1.000000e+00   1   1   2 0 5.666667 2.666667 5.933333 2.766667 5.833333 2.750000 0
   1   4   0 0
   1  20   0 0
   1
   1   5   0 0
   0
acq_uipm  1.000000e+00   1   1   2 1 4.555556 1.111111 4.272222 0.811111 4.722222 1.194444 0
   1   2   0 0
   1  19   0 0
   1
   1   3   0 0
   0
acq_u  1.000000e+00   1   1   2 1 3.111111 1.111111 2.827778 0.811111 3.277778 1.194444 0
   1   1   0 0
   1  18   0 0
   1
   1   2   0 0
   0
