|0|








|
f   0 150   0 117   1   0   0
sources   10 0.666667 8.222222 0.216667 8.055557 0
ToJanbu    0 2.166667 1.250000 1.316667 1.283333 0
ToJuaymah    0 2.250000 5.333333 1.183333 5.383333 0
ToRasTanura    0 2.222222 10.000000 0.938889 10.066667 0
P5    0 3.222222 0.555556 3.055555 0.800000 0
P6    0 3.222222 1.722222 3.011111 1.966667 0
p1    1 4.250000 1.083333 3.783333 1.150000 0
p3    1 4.250000 2.333333 4.483333 2.366667 0
P9    0 4.222222 0.555556 4.000000 0.800000 0
P10    0 4.222222 1.722222 4.155555 1.966667 0
P11    0 5.222222 0.555556 5.100000 0.822222 0
P12    0 5.277778 1.722222 5.155556 2.000000 0
P13    0 6.222222 0.555556 6.111111 0.822222 0
P14    0 6.277778 1.722222 6.177778 1.977778 0
j2    1 6.333333 2.250000 5.977778 2.350000 0
j1    1 6.222222 0.111111 5.844444 0.177778 0
P17    0 7.166667 0.555556 7.088889 0.822222 0
P18    0 7.166667 1.722222 7.044444 1.988889 0
P19    0 7.944444 0.555556 7.855556 0.822222 0
P20    0 8.000000 1.722222 8.088889 1.877778 0
Janbu    0 17.666671 1.000000 17.566667 1.311111 0
p2    1 7.888889 0.166667 7.566667 0.211111 0
p4    1 7.944444 2.277778 7.600000 2.355555 0
P24    0 3.444445 7.000000 3.333334 7.277777 0
P25    0 4.555556 7.000000 4.433334 7.266666 0
p9    8 4.555556 8.000000 4.166667 8.155555 0
P27    0 5.444444 7.000000 5.311111 7.288889 0
P28    0 6.333333 7.000000 6.222222 7.244444 0
j4    8 6.333333 7.888889 5.944444 7.966667 0
P30    0 7.444444 7.000000 7.355555 7.288889 0
P31    0 8.444444 7.000000 8.366667 7.255555 0
p10    8 8.444444 7.888889 8.644447 7.938889 0
P33    0 9.333333 7.000000 9.233330 7.277777 0
P34    0 10.333333 7.000000 10.411110 7.211111 0
j5_Qadif    1 10.333333 7.888889 10.533333 7.955555 0
P36    0 11.222222 7.000000 11.100000 7.266666 0
P37    0 12.111106 7.000000 12.188895 7.222222 0
p11    1 12.083333 7.666667 11.772225 7.788889 0
P39    0 13.111106 7.000000 13.000001 7.300000 0
P40    0 13.888894 7.000000 13.777777 7.222222 0
j6    1 13.916667 7.666667 13.583333 7.777779 0
P42    0 14.888894 7.000000 14.744444 7.255555 0
P43    0 15.888894 7.000000 15.933332 7.222222 0
p12    1 15.916667 7.583333 15.572222 7.694446 0
P45    0 3.388889 5.333333 3.266667 5.611111 0
P46    0 5.555556 5.888889 5.500001 6.188889 0
p13    1 12.444445 8.222222 11.988890 8.333332 0
P48    0 3.388889 3.333333 3.255555 3.644445 0
P49    0 5.222222 2.888889 5.166667 3.188889 0
p5    1 5.277778 3.388889 4.877778 3.444444 0
AlJuaymah    0 18.000000 5.333333 16.999996 5.733334 0
P52    0 4.388889 3.777778 4.288889 4.033333 0
P53    0 5.333333 3.777778 5.233333 4.055555 0
p6    2 5.333333 4.388889 4.977778 4.433334 0
P55    0 6.166667 3.777778 6.077778 4.055555 0
P56    0 7.166667 3.777778 7.166667 4.055555 0
j3    2 7.166667 4.388889 6.733333 4.433333 0
P58    0 8.111110 3.777778 7.955556 4.033333 0
P59    0 9.000000 3.777778 8.977778 4.055555 0
p7    2 9.000000 4.277778 8.655555 4.333333 0
P61    0 9.944445 3.777778 9.822222 4.077778 0
P62    0 4.388889 2.888889 4.277778 3.133333 0
P63    0 10.833333 3.777778 10.788889 4.044445 0
p8    1 10.833333 4.277778 10.433333 4.366667 0
P65    0 12.666667 3.333333 12.566667 3.622222 0
P66    0 4.444444 5.000000 4.333333 5.255556 0
P67    0 4.388889 5.888889 4.277778 6.166667 0
P68    0 5.444444 5.000000 5.333333 5.266667 0
P69    0 6.277778 5.000000 6.166667 5.300000 0
P70    0 7.222222 5.000000 7.055556 5.244444 0
P71    0 8.166667 5.000000 8.011111 5.244444 0
P72    0 9.055555 5.000000 8.955555 5.255556 0
P73    0 10.055555 5.000000 9.944445 5.266667 0
P74    0 10.833333 5.000000 10.722222 5.244444 0
P75    0 12.777778 5.333333 12.677778 5.633333 0
P76    0 3.444445 8.777778 3.422223 9.044446 0
P77    0 4.555556 8.777778 4.455556 9.066666 0
P78    0 5.555556 8.777778 5.444445 9.066666 0
P79    0 6.666667 8.777778 6.566667 9.055555 0
P80    0 7.555556 8.777778 7.488889 9.044446 0
P81    0 8.444444 8.777778 8.366665 9.044446 0
P82    0 9.333333 8.777778 9.233329 9.044446 0
P83    0 10.333333 8.777778 10.222221 9.077779 0
P84    0 11.333333 8.777778 11.255555 9.088890 0
P85    0 12.444445 8.777778 12.266670 9.144447 0
RasTanura    0 17.777777 10.000000 18.036106 9.966667 0
P87    0 3.666667 10.000000 3.544445 10.288889 0
P88    0 5.555556 10.000000 5.477778 10.255557 0
P89    0 6.888889 10.000000 6.766667 10.266670 0
P90    0 7.888889 10.000000 7.811112 10.277778 0
P91    0 11.111106 10.000000 11.000000 10.277778 0
P92    0 12.444445 10.000000 12.344444 10.255557 0
p14    2 5.555556 9.444445 5.813890 9.411111 0
j7    2 7.888889 9.444445 8.147223 9.411110 0
p15    2 12.444445 9.555555 12.702780 9.522222 0
P96    0 3.666667 11.111106 3.611111 11.400000 0
P97    0 5.555556 11.111106 5.466667 11.388891 0
P98    0 7.555556 11.111106 7.477778 11.388891 0
P99    0 9.555555 11.111106 9.455555 11.377779 0
P100    0 11.111106 11.111106 10.966667 11.377779 0
P101    0 12.666667 11.111106 12.533333 11.388891 0
p16    1 5.555556 10.666667 5.813889 10.633334 0
j8    1 9.444445 10.444445 9.702778 10.411110 0
p17    1 12.555555 10.666667 12.813888 10.633333 0
ToRasAlKahfji    0 2.222222 12.222222 0.805556 12.305555 0
ToJubali    0 2.111111 13.111106 1.777778 13.444444 0
P107    0 3.444445 12.222222 3.244445 12.572222 0
P108    0 4.444444 12.222222 4.211111 12.555555 0
P109    0 5.555556 12.222222 5.305556 12.538888 0
P110    0 6.555556 12.222222 6.322223 12.555555 0
P111    0 7.666667 12.222222 7.466667 12.555555 0
P112    0 8.555555 12.222222 8.355555 12.505555 0
P113    0 9.555555 12.222222 9.322222 12.538888 0
P114    0 10.666667 12.222222 10.449999 12.538888 0
P115    0 11.666667 12.222222 11.516670 12.538888 0
P116    0 12.555555 12.222222 12.388892 12.522222 0
P117    0 13.444445 12.222222 13.261111 12.522222 0
P118    0 14.666667 12.222222 14.466667 12.522222 0
P119    0 15.666667 12.222222 15.500000 12.538888 0
P120    0 16.555555 12.222222 16.338890 12.505555 0
RasAlKhafji    0 17.888890 12.222222 18.088890 12.288888 0
P122    0 3.444445 13.111106 3.227778 13.427779 0
P123    0 5.000000 13.111106 4.766667 13.444444 0
P124    0 6.222222 13.111106 5.988888 13.444444 0
P125    0 7.222222 13.111106 6.988889 13.444444 0
P126    0 8.111110 13.111106 7.894444 13.427779 0
P127    0 9.000000 13.111106 8.783333 13.394447 0
P128    0 10.000000 13.111106 9.800001 13.427779 0
P129    0 11.000000 13.111106 10.800000 13.411110 0
P130    0 12.222222 13.111106 11.988889 13.444444 0
P131    0 13.777778 13.111106 13.611108 13.427779 0
Jubali    0 18.333329 13.111106 18.583329 13.161110 0
p18    1 12.555555 11.666667 12.755555 11.633334 0
j9    1 14.666667 11.555555 14.866666 11.522222 0
p19    1 16.555555 11.555555 16.755556 11.522222 0
p20    1 5.000000 13.777778 5.200000 13.744445 0
j10    1 7.222222 13.777778 7.422222 13.744445 0
p21    1 9.000000 13.888894 9.200000 13.855553 0
j11    1 11.000000 13.777778 11.199999 13.744445 0
p22    1 13.777778 13.888894 13.977778 13.855553 0
P141    0 2.166667 15.333333 1.933333 15.666667 0
P142    0 3.916667 14.583333 3.811111 14.911110 0
P143    0 4.000000 15.333333 3.827778 15.666667 0
P144    0 3.833333 16.250000 3.644445 16.555555 0
P145    0 6.416667 14.583333 6.227778 14.938889 0
P146    0 11.333333 15.333333 11.094444 15.700000 0
P147    0 16.416668 16.250000 16.216667 16.611110 0
P148    0 17.916671 14.583333 17.633333 14.938889 0
P149    0 18.416671 15.333333 18.200000 15.644448 0
P150    0 18.666671 16.250000 18.433333 16.611110 0
G1  1.583333 1.083333 1
Rp3  1.000000e+00   0   0   1 1 17.333329 16.250000 17.195833 16.133333 17.470833 16.316668 0
   1 147   0 0
   2
   1 150   0 0
  -1   8   2 0
16.600000 15.844445
3.000000 2.644445
   0
Rp1  1.000000e+00   0   0   1 1 12.500000 15.333333 12.362500 15.216667 12.637500 15.400000 0
   1 146   0 0
   2
   1 149   0 0
  -1   7   2 0
11.488889 14.866667
4.822222 0.866667
   0
Rj5  6.666670e-01   0   0   1 1 7.666667 14.583333 7.529167 14.466667 7.804167 14.650000 0
   1 145   0 0
   2
   1 148   0 0
  -1  35   2 0
6.933333 14.044445
9.822222 7.911111
   0
D10p22  2.000000e+02   0   0   1 1 14.444445 13.111106 14.161110 12.927778 14.611108 13.194444 0
   1 131   0 0
   2
   1 140   0 0
   1 132   0 0
   0
D10j11  1.666667e+02   0   0   1 1 11.666667 13.111106 11.300000 12.911110 11.833333 13.194444 0
   1 129   0 0
   2
   1 130   0 0
   1 139   0 0
   0
D10p21  2.000000e+02   0   0   1 1 9.555555 13.111106 9.255555 12.927778 9.722222 13.194444 0
   1 127   0 0
   2
   1 128   0 0
   1 138   0 0
   0
D10j10  1.666667e+02   0   0   1 1 7.666667 13.111106 7.416666 12.911110 7.833333 13.194444 0
   1 125   0 0
   2
   1 137   0 0
   1 126   0 0
   0
D10p20  2.000000e+02   0   0   1 1 5.666667 13.111106 5.383333 12.894447 5.833333 13.194444 0
   1 123   0 0
   2
   1 124   0 0
   1 136   0 0
   0
D9j5Qadif  5.000000e+01   0   0   1 1 11.111106 12.222222 10.661110 11.988889 11.277778 12.305555 0
   1 114   0 0
   2
   1  35   0 0
   1 115   0 0
   0
D9p19  1.000000e+02   0   0   1 1 17.222223 12.222222 16.938891 12.055555 17.388892 12.305555 0
   1 120   0 0
   2
   1 135   0 0
   1 121   0 0
   0
D9j9  5.000000e+01   0   0   1 1 15.222222 12.222222 14.988889 12.022222 15.388892 12.305555 0
   1 118   0 0
   2
   1 134   0 0
   1 119   0 0
   0
D9p18  2.500000e+01   0   0   1 1 13.000000 12.222222 12.666667 12.005555 13.166667 12.305555 0
   1 116   0 0
   2
   1 117   0 0
   1 133   0 0
   0
D9p10  1.250000e+01   0   0   1 1 9.000000 12.222222 8.716667 12.055555 9.166667 12.305555 0
   1 112   0 0
   2
   1  32   0 0
   1 113   0 0
   0
D9j4  6.250000e+00   0   0   1 1 7.111111 12.222222 6.844445 12.022222 7.277778 12.305555 0
   1 110   0 0
   2
   1  29   0 0
   1 111   0 0
   0
D9p9  4.166667e+00   0   0   1 1 5.000000 12.250000 4.800000 12.033333 5.166667 12.333333 0
   1 108   0 0
   2
   1 109   0 0
   1  26   0 0
   0
D8p17  2.000000e+02   0   0   1 1 13.555555 11.111106 13.377778 10.911110 13.780555 11.219444 0
   1 101   0 0
   2
   1  86   0 0
   1 104   0 0
   0
D8j8  1.666667e+02   0   0   1 1 10.000000 11.111106 9.855552 10.933333 10.225001 11.219444 0
   1  99   0 0
   2
   1 100   0 0
   1 103   0 0
   0
D8p16  2.000000e+02   0   0   1 1 6.111111 11.111106 5.944443 10.966667 6.336110 11.219444 0
   1  97   0 0
   2
   1  98   0 0
   1 102   0 0
   0
D7p15  2.000000e+02   0   0   1 1 13.444445 10.000000 13.366667 9.833333 13.669445 10.108330 0
   1  92   0 0
   2
   1  95   0 0
   1  86   0 0
   0
D7j7  2.000000e+02   0   0   1 1 8.222222 10.000000 8.077779 9.833333 8.447222 10.108330 0
   1  90   0 0
   2
   1  94   0 0
   1  91   0 0
   0
D7p14  2.000000e+02   0   0   1 1 6.111111 10.000000 5.922222 9.833333 6.336111 10.108330 0
   1  88   0 0
   2
   1  93   0 0
   1  89   0 0
   0
D6p13  1.000000e+02   0   0   1 1 13.222222 8.777778 12.997222 8.661110 13.447223 8.886111 0
   1  85   0 0
   2
   1  47   0 0
   1  86   0 0
   0
D6j5Qadif  5.000000e+01   0   0   1 1 10.888894 8.777778 10.372222 8.594444 11.113889 8.886111 0
   1  83   0 0
   2
   1  35   0 0
   1  84   0 0
   0
D6p10  1.250000e+01   0   0   1 1 8.888894 8.777778 8.866664 8.588891 9.113887 8.886111 0
   1  81   0 0
   2
   1  32   0 0
   1  82   0 0
   0
D6j4  6.250000e+00   0   0   1 1 7.111111 8.777778 7.066667 8.588891 7.336111 8.886111 0
   1  79   0 0
   2
   1  29   0 0
   1  80   0 0
   0
D6p9  4.166667e+00   0   0   1 1 5.000000 8.777778 4.966666 8.611108 5.225000 8.886111 0
   1  77   0 0
   2
   1  26   0 0
   1  78   0 0
   0
D5p12  1.000000e+02   0   0   1 1 16.444445 7.000000 16.033333 6.800000 16.669443 7.108333 0
   1  43   0 0
   2
   1  51   0 0
   1  44   0 0
   0
D5j6  5.000000e+01   0   0   1 1 14.444445 7.000000 14.366667 6.811111 14.669445 7.108333 0
   1  40   0 0
   2
   1  42   0 0
   1  41   0 0
   0
D5p11  2.500000e+01   0   0   1 1 12.666667 7.000000 12.544445 6.822222 12.891670 7.108333 0
   1  37   0 0
   2
   1  39   0 0
   1  38   0 0
   0
D5j5Qadif  5.000000e+01   0   0   1 1 10.777778 7.000000 10.333333 6.800000 11.002778 7.108333 0
   1  34   0 0
   2
   1  36   0 0
   1  35   0 0
   0
D5p10  1.250000e+01   0   0   1 1 8.777778 7.000000 8.655556 6.811111 9.002778 7.108333 0
   1  31   0 0
   2
   1  33   0 0
   1  32   0 0
   0
D5j4  6.250000e+00   0   0   1 1 6.888889 7.000000 6.766667 6.833333 7.113889 7.108333 0
   1  28   0 0
   2
   1  30   0 0
   1  29   0 0
   0
D5p9  4.166667e+00   0   0   1 1 5.000000 7.000000 4.977778 6.800000 5.166667 7.083333 0
   1  25   0 0
   2
   1  27   0 0
   1  26   0 0
   0
D4p8  2.000000e+02   0   0   1 1 6.055556 5.888889 5.944445 5.677778 6.280556 5.997222 0
   1  46   0 0
   2
   1  75   1 0
11.300000 5.888889
  -1  64   3 0
5.677778 6.388889
10.600000 4.500000
10.600000 4.500000
   0
D4p5  2.000000e+02   0   0   1 1 11.277778 5.000000 11.122223 4.811111 11.502778 5.108333 0
   1  74   0 0
   2
   1  75   0 0
  -1  50   2 0
10.988889 5.311111
5.988889 3.133333
   0
D4p6  2.000000e+02   0   0   1 1 9.555555 5.000000 9.466667 4.844444 9.780555 5.108333 0
   1  72   0 0
   2
  -1  54   2 0
9.122222 5.466667
5.700000 4.666667
   1  73   0 0
   0
D4j3  1.666667e+02   0   0   1 1 7.777778 5.000000 7.711111 4.833333 8.002778 5.108333 0
   1  70   0 0
   2
   1  71   0 0
   1  57   0 0
   0
D4p7  2.000000e+02   0   0   1 1 5.833333 5.000000 5.608333 4.883333 6.058333 5.108333 0
   1  68   0 0
   2
   1  69   0 0
  -1  60   2 0
5.511111 5.411111
9.355552 4.544444
   0
D3p8  2.000000e+02   0   0   1 1 11.500000 3.777778 11.275000 3.661111 11.725000 3.886111 0
   1  63   0 0
   2
   1  65   0 0
   1  64   0 0
   0
D3p7  2.000000e+02   0   0   1 1 9.555555 3.777778 9.522222 3.622222 9.780555 3.886111 0
   1  59   0 0
   2
   1  61   0 0
   1  60   0 0
   0
D3j3  1.666667e+02   0   0   1 1 7.722222 3.777778 7.644444 3.622222 7.947222 3.886111 0
   1  56   0 0
   2
   1  57   0 0
   1  58   0 0
   0
D3p6  2.000000e+02   0   0   1 1 5.777778 3.777778 5.611111 3.611111 6.002778 3.886111 0
   1  53   0 0
   2
   1  54   0 0
   1  55   0 0
   0
D3p5  2.000000e+02   0   0   1 1 5.722222 2.888889 5.588889 2.722222 5.947222 2.997222 0
   1  49   0 0
   2
   1  65   1 0
11.488889 2.888889
   1  50   0 0
   0
D2p4  3.333334e+01   0   0   1 1 8.555555 1.722222 8.422222 1.544444 8.780555 1.830556 0
   1  20   0 0
   2
   1  21   1 0
16.466667 1.700000
   1  23   0 0
   0
D2j2  2.500000e+01   0   0   1 1 6.777778 1.722222 6.766667 1.544444 7.002778 1.830556 0
   1  14   0 0
   2
   1  15   0 0
   1  18   0 0
   0
D2p3  1.428571e+01   0   0   1 1 4.777778 1.722222 4.766667 1.544444 5.002778 1.830556 0
   1  10   0 0
   2
   1  12   0 0
   1   8   0 0
   0
D1p2  3.333334e+01   0   0   1 1 8.555555 0.555556 8.466667 0.377778 8.780555 0.663889 0
   1  19   0 0
   2
   1  21   1 0
16.566668 0.533333
   1  22   0 0
   0
D1j1  2.500000e+01   0   0   1 1 6.777778 0.555556 6.700000 0.388889 7.002778 0.663889 0
   1  13   0 0
   2
   1  17   0 0
   1  16   0 0
   0
D1p1  1.428571e+01   0   0   1 1 4.777778 0.555556 4.744444 0.366667 5.002778 0.663889 0
   1   9   0 0
   2
   1   7   0 0
   1  11   0 0
   0
end  1.000000e+00   1   1   8 1 19.166671 8.166667 19.233337 7.866667 19.275006 8.225002 0
   1 132   0 0
   3 121   0 0
  34  86   0 0
  26  21   1 0
19.200000 5.200000
  16  51   0 0
   1 150   0 0
   1 149   0 0
   1 148   0 0
   1
   1   1   2 0
17.633333 6.450000
0.650000 6.483333
   0
attp3  1.000000e+00   1   1   2 1 15.500000 16.250000 15.245833 15.950000 15.637500 16.316668 0
   1 144   0 0
  -1   8   2 0
16.311111 15.755555
2.955555 2.000000
   1
   1 147   0 0
   0
attp1  1.000000e+00   1   1   2 1 10.166667 15.333333 9.912500 15.033333 10.304167 15.400000 0
   1 143   0 0
  -1   7   2 0
10.844445 14.822222
4.733333 1.155556
   1
   1 146   0 0
   0
attj5  1.000000e+00   1   1   2 1 5.250000 14.583333 4.995833 14.283333 5.387500 14.650000 0
   1 142   0 0
  -1  35   2 0
6.288889 14.066667
9.711111 7.555556
   1
   1 145   0 0
   0
coord_attack  1.000000e+00   1   1   1 1 3.083333 15.333333 2.050000 15.116667 3.220833 15.400000 0
   1 141   0 0
   3
   1 143   0 0
   1 142   0 0
   1 144   0 0
   0
a10p22  1.000000e+00   1   1   2 1 13.000000 13.111106 12.716667 12.811111 13.166666 13.194444 0
   1 130   0 0
   1 140   0 0
   1
   1 131   0 0
   0
a10j11  1.000000e+00   1   1   2 1 10.555555 13.111106 10.272222 12.811111 10.722222 13.194444 0
   1 128   0 0
   1 139   0 0
   1
   1 129   0 0
   0
a10p21  1.000000e+00   1   1   2 1 8.555555 13.111106 8.272223 12.811111 8.722222 13.194444 0
   1 126   0 0
   1 138   0 0
   1
   1 127   0 0
   0
a10j10  1.000000e+00   1   1   2 1 6.777778 13.111106 6.494444 12.811111 6.944443 13.194444 0
   1 124   0 0
   1 137   0 0
   1
   1 125   0 0
   0
a10p20  1.000000e+00   1   1   2 1 4.333333 13.111106 4.049999 12.811111 4.499999 13.194444 0
   1 122   0 0
   1 136   0 0
   1
   1 123   0 0
   0
a9p19  1.000000e+00   1   1   2 1 16.000000 12.222222 15.716667 11.922222 16.166665 12.305555 0
   1 119   0 0
   1 135   0 0
   1
   1 120   0 0
   0
a9j9  1.000000e+00   1   1   2 1 14.111106 12.222222 13.827778 11.922222 14.277778 12.305555 0
   1 117   0 0
   1 134   0 0
   1
   1 118   0 0
   0
a9p18  1.000000e+00   1   1   2 1 12.111106 12.222222 11.827779 11.922222 12.277778 12.305555 0
   1 133   0 0
   1 115   0 0
   1
   1 116   0 0
   0
a9j5  1.000000e+00   1   1   2 1 10.222222 12.222222 9.938889 11.922222 10.388892 12.305555 0
   1 113   0 0
   1  35   0 0
   1
   1 114   0 0
   0
a9p10  1.000000e+00   1   1   2 1 8.111110 12.222222 7.827778 11.922222 8.277778 12.305555 0
   1  32   0 0
   1 111   0 0
   1
   1 112   0 0
   0
a9j4  1.000000e+00   1   1   2 1 6.111111 12.222222 5.827777 11.922222 6.277777 12.305555 0
   1  29   0 0
   1 109   0 0
   1
   1 110   0 0
   0
a9p9  1.000000e+00   1   1   2 1 4.000000 12.222222 3.716667 11.922222 4.166667 12.305555 0
   1  26   0 0
   1 107   0 0
   1
   1 108   0 0
   0
a8j17  1.000000e+00   1   1   2 1 11.777778 11.111106 11.600000 10.955557 12.002779 11.219444 0
   1 100   0 0
   1 104   0 0
   1
   1 101   0 0
   0
a8j8  1.000000e+00   1   1   2 1 9.000000 11.111106 8.766671 10.944444 9.225001 11.219444 0
   1  98   0 0
   1 103   0 0
   1
   1  99   0 0
   0
a8p16  1.000000e+00   1   1   2 1 5.000000 11.111106 4.822223 10.944444 5.225000 11.219444 0
   1 102   0 0
   1  96   0 0
   1
   1  97   0 0
   0
a7p15  1.000000e+00   1   1   2 1 11.777778 10.000000 11.633332 9.833333 12.002778 10.108330 0
   1  95   0 0
   1  91   0 0
   1
   1  92   0 0
   0
a7j7  1.000000e+00   1   1   2 1 7.444444 10.000000 7.300001 9.800000 7.669445 10.108330 0
   1  89   0 0
   1  94   0 0
   1
   1  90   0 0
   0
a7p14  1.000000e+00   1   1   2 1 5.000000 10.000000 4.844444 9.788889 5.225000 10.108330 0
   1  93   0 0
   1  87   0 0
   1
   1  88   0 0
   0
a6p13  1.000000e+00   1   1   2 1 11.777778 8.777778 11.436111 8.477777 12.002778 8.886111 0
   1  84   0 0
   1  47   0 0
   1
   1  85   0 0
   0
a6j5  1.000000e+00   1   1   2 1 9.777778 8.777778 9.555555 8.577779 10.002775 8.886111 0
   1  35   0 0
   1  82   0 0
   1
   1  83   0 0
   0
a6p10  1.000000e+00   1   1   2 1 8.000000 8.777778 7.811111 8.611108 8.224999 8.886111 0
   1  32   0 0
   1  80   0 0
   1
   1  81   0 0
   0
a6j4  1.000000e+00   1   1   2 1 6.000000 8.777778 5.766667 8.644447 6.225000 8.886111 0
   1  78   0 0
   1  29   0 0
   1
   1  79   0 0
   0
a6p9  1.000000e+00   1   1   2 1 4.000000 8.777778 3.658333 8.477777 4.225000 8.886111 0
   1  26   0 0
   1  76   0 0
   1
   1  77   0 0
   0
a5p12  1.000000e+00   1   1   2 1 15.333333 7.000000 15.155555 6.833333 15.558333 7.108333 0
   1  42   0 0
   1  44   0 0
   1
   1  43   0 0
   0
a5j6  1.000000e+00   1   1   2 1 13.444445 7.000000 13.311112 6.833333 13.669445 7.108333 0
   1  39   0 0
   1  41   0 0
   1
   1  40   0 0
   0
a5p11  1.000000e+00   1   1   2 1 11.666667 7.000000 11.533333 6.822222 11.891670 7.108333 0
   1  36   0 0
   1  38   0 0
   1
   1  37   0 0
   0
a5j5  1.000000e+00   1   1   2 1 9.777778 7.000000 9.555555 6.855555 10.002778 7.108333 0
   1  33   0 0
   1  35   0 0
   1
   1  34   0 0
   0
a5j10  1.000000e+00   1   1   2 1 8.000000 7.000000 7.788889 6.866666 8.225002 7.108333 0
   1  30   0 0
   1  32   0 0
   1
   1  31   0 0
   0
a5j4  1.000000e+00   1   1   2 1 5.777778 7.000000 5.588889 6.822222 6.002778 7.108333 0
   1  27   0 0
   1  29   0 0
   1
   1  28   0 0
   0
a5p9  1.000000e+00   1   1   2 1 4.000000 7.000000 3.766666 6.833333 4.166666 7.083333 0
   1  24   0 0
   1  26   0 0
   1
   1  25   0 0
   0
a4p8  1.000000e+00   1   1   2 1 5.000000 5.888889 4.744445 5.755556 5.225000 5.997222 0
   1  67   0 0
  -1  64   2 0
5.477778 6.377778
11.255555 4.477778
   1
   1  46   0 0
   0
a4p5  1.000000e+00   1   1   2 1 10.444445 5.000000 10.266670 4.800000 10.669445 5.108333 0
  -1  50   4 0
10.644448 5.322222
8.844445 4.600000
8.522221 4.411111
5.988889 3.400000
   1  73   0 0
   1
   1  74   0 0
   0
a4p6  1.000000e+00   1   1   2 1 8.611106 5.000000 8.455556 4.822222 8.836111 5.108333 0
   1  71   0 0
  -1  54   2 0
8.866667 5.544444
6.033333 4.222222
   1
   1  72   0 0
   0
a4j3  1.000000e+00   1   1   2 1 6.777778 5.000000 6.577778 4.866667 7.002778 5.108333 0
   1  69   0 0
   1  57   0 0
   1
   1  70   0 0
   0
a4p7  1.000000e+00   1   1   2 1 4.944444 5.000000 4.777778 4.844444 5.169444 5.108333 0
   1  66   0 0
  -1  60   3 0
5.244444 5.333333
5.233333 5.322222
8.611106 4.488889
   1
   1  68   0 0
   0
a3p8  1.000000e+00   1   1   2 1 10.388894 3.777778 10.200000 3.611111 10.613889 3.886111 0
   1  61   0 0
   1  64   0 0
   1
   1  63   0 0
   0
a3p7  1.000000e+00   1   1   2 1 8.555555 3.777778 8.455556 3.566667 8.780555 3.886111 0
   1  58   0 0
   1  60   0 0
   1
   1  59   0 0
   0
a3j3  1.000000e+00   1   1   2 1 6.722222 3.777778 6.622222 3.611111 6.947222 3.886111 0
   1  55   0 0
   1  57   0 0
   1
   1  56   0 0
   0
a3p6  1.000000e+00   1   1   2 1 4.833333 3.777778 4.622222 3.633333 5.058333 3.886111 0
   1  54   0 0
   1  52   0 0
   1
   1  53   0 0
   0
a3p5  1.000000e+00   1   1   2 1 4.833333 2.888889 4.666667 2.711111 5.058333 2.997222 0
   1  50   0 0
   1  62   0 0
   1
   1  49   0 0
   0
a2p3  1.000000e+00   1   1   2 1 3.666667 1.722222 3.511111 1.555556 3.891667 1.830556 0
   1   8   0 0
   1   6   0 0
   1
   1  10   0 0
   0
a2j9  1.000000e+00   1   1   2 1 5.777778 1.722222 5.622222 1.544444 6.002778 1.830556 0
   1  15   0 0
   1  12   0 0
   1
   1  14   0 0
   0
a2p4  1.000000e+00   1   1   2 1 7.555556 1.722222 7.213889 1.422222 7.780556 1.830556 0
   1  18   0 0
   1  23   0 0
   1
   1  20   0 0
   0
a1p2  1.000000e+00   1   1   2 1 7.555556 0.555556 7.377778 0.377778 7.780556 0.663889 0
   1  17   0 0
   1  22   0 0
   1
   1  19   0 0
   0
a1j1  1.000000e+00   1   1   2 1 5.777778 0.555556 5.577778 0.400000 6.002778 0.663889 0
   1  11   0 0
   1  16   0 0
   1
   1  13   0 0
   0
a1p1  1.000000e+00   1   1   2 1 3.666667 0.555556 3.511111 0.366667 3.891667 0.663889 0
   1   7   0 0
   1   5   0 0
   1
   1   9   0 0
   0
path10  1.000000e+00   1   1   1 1 2.888889 13.111106 2.605556 12.944444 3.055556 13.194444 0
   1 106   0 0
   1
   1 122   0 0
   0
path9  1.000000e+00   1   1   1 1 2.888889 12.222222 2.572222 12.072222 3.055556 12.305555 0
   1 105   0 0
   1
   1 107   0 0
   0
path8  4.000000e-01   1   1   1 1 2.888889 11.111106 2.634722 10.811111 3.026389 11.177778 0
   1   4   0 0
   1
   1  96   0 0
   0
path7  3.333340e-01   1   1   1 1 2.888889 10.000000 2.634722 9.700000 3.026388 10.066667 0
   1   4   0 0
   1
   1  87   0 0
   0
path6  2.666660e-01   1   1   1 1 2.888889 8.777778 2.634722 8.477777 3.026388 8.844444 0
   1   4   0 0
   1
   1  76   0 0
   0
path5  2.500000e-01   1   1   1 1 2.888889 7.000000 2.405555 7.316666 3.055555 7.083333 0
   1   3   0 0
   1
   1  24   0 0
   0
path4  3.750000e-01   1   1   1 1 2.916667 5.333333 2.466667 5.183333 3.083333 5.416667 0
   1   3   0 0
   1
   1  45   0 0
   0
path3  3.750000e-01   1   1   1 1 2.916667 3.333333 2.416667 3.166667 3.083333 3.416667 0
   1   3   0 0
   1
   1  48   0 0
   0
path2  5.000000e-01   1   1   1 1 2.777778 1.722222 2.455555 2.011111 2.944445 1.805556 0
   1   2   0 0
   1
   1   6   0 0
   0
path1  5.000000e-01   1   1   1 1 2.777778 0.555556 2.466667 0.344444 2.944445 0.638889 0
   1   2   0 0
   1
   1   5   0 0
   0
dir_p4  6.666670e-01   1   1   1 1 3.888889 5.888889 3.383333 6.183333 4.113889 5.997222 0
   1  45   0 0
   1
   1  67   0 0
   0
indir_p4  3.333340e-01   1   1   1 1 3.888889 5.000000 3.150000 4.833333 4.113889 5.108333 0
   1  45   0 0
   1
   1  66   0 0
   0
indir_p3  3.333340e-01   1   1   1 1 3.888889 3.777778 3.522222 4.055555 4.113889 3.886111 0
   1  48   0 0
   1
   1  52   0 0
   0
dir_p3  6.666670e-01   1   1   1 1 3.888889 2.888889 3.577778 2.788889 4.113889 2.997222 0
   1  48   0 0
   1
   1  62   0 0
   0
t58  1.000000e+00   1   1   1 1 16.444445 5.333333 16.266667 5.177778 16.581946 5.400000 0
   1  75   0 0
   1
   1  51   0 0
   0
t57  1.000000e+00   1   1   1 1 16.666668 3.333333 16.466667 3.133333 16.804167 3.400000 0
   1  65   0 0
   1
   1  51   0 0
   0
start  1.000000e+00   1   1   1 1 1.444444 8.222222 1.011111 8.555557 1.611111 8.305557 0
   1   1   0 0
   6
  26   2   0 0
  16   3   0 0
  34   4   0 0
   3 105   0 0
   1 106   0 0
   1 141   0 0
   0
