|0|










|
f   0  42   0  35   1   0   0
C3    0 8.700000 4.516667 8.900000 4.483333 0
C10    0 8.650000 9.883333 8.850000 9.850000 0
C9    0 8.650000 8.966668 8.850000 8.933334 0
C8    0 8.650000 8.300000 8.850000 8.266667 0
C7    0 8.650000 7.550000 8.850000 7.516667 0
C6    0 8.650000 6.716668 8.850000 6.683334 0
C5    0 8.650000 5.966668 8.850000 5.933334 0
C4    0 8.650000 5.216667 8.850000 5.183333 0
C12    0 8.716667 12.983329 8.916667 12.950001 0
C02    0 8.683333 11.966667 8.883333 11.933334 0
s1    1 2.166667 1.083333 2.366667 1.050000 0
s2    0 2.166667 1.916667 2.366667 1.883333 0
s3    0 2.166667 2.666667 2.366667 2.633333 0
s4    0 2.166667 3.416667 2.366667 3.383333 0
s5    0 2.166667 4.250000 2.366667 4.216667 0
s6    0 2.166667 5.000000 2.366667 4.966667 0
s7    0 2.166667 5.750000 2.366667 5.716667 0
goal    1 4.000000 1.250000 3.911111 1.000000 0
cc4    0 2.833333 2.250000 3.033333 2.216667 0
CT1    1 7.000000 1.250000 6.755556 1.044444 0
CT2    0 8.250000 1.583333 8.450000 1.550000 0
C1    1 9.250000 1.333333 9.450000 1.300000 0
C2    0 8.666667 2.666667 8.866667 2.633333 0
State    1 13.416667 4.333333 13.616667 4.300000 0
Scans    1 13.416667 5.166667 13.616667 5.133333 0
L1    1 18.222223 1.333333 18.393056 1.300000 0
L2    0 18.350000 3.750000 18.520837 3.716667 0
L3    0 18.350000 4.583333 18.520837 4.549999 0
L4    0 18.316667 5.350000 18.487504 5.316666 0
L5    0 18.316667 6.116667 18.487504 6.083333 0
L6    0 18.316667 6.983333 18.487504 6.949999 0
L01    0 18.300000 2.016667 18.500002 1.983334 0
L02    0 19.166671 7.666667 19.366667 7.633333 0
LT1    1 15.833333 0.416667 15.666667 0.233333 0
LT2    0 17.333329 1.100000 17.533333 1.066667 0
CT1_1    0 7.666667 1.766667 7.866667 1.733333 0
LT1_1    0 16.466667 1.666667 16.183332 1.966667 0
P49    0 8.716667 3.700000 8.916667 3.666667 0
P50    0 8.700000 10.933333 8.900000 10.900000 0
P52    0 18.383333 2.916667 18.583329 2.883333 0
CA    0 6.250000 7.416667 6.450000 7.383333 0
LA    0 15.816667 5.133333 16.016667 5.100000 0
G1  2.166667 1.500000 1
Send_SetPointTO  8.771929e+00   0   0   1 0 8.700000 10.533333 8.416667 10.233331 8.866667 10.616667 0
   1   2   0 0
   1
   1  39   0 0
   0
Read_LocationTO  1.754386e+01   0   0   1 0 8.716667 3.233333 8.433333 2.933333 8.883333 3.316667 0
   1  23   0 0
   1
   1  38   0 0
   0
Read_Location  3.333333e+02   0   0   1 0 8.716667 4.066667 8.933333 4.100001 8.883333 4.150001 0
   1  38   0 0
   1
   1   1   0 0
   0
Store_State  4.761905e+04   0   0   1 0 8.650000 5.633333 8.850000 5.683334 8.816666 5.716667 0
   1   8   0 0
   3
   1   7   0 0
   1  24   2 0
10.338885 6.027778
13.022222 4.666667
  -1  19   2 0
8.133333 4.844444
3.177778 1.911111
   0
Read_Scans  7.142857e+03   0   0   1 0 8.650000 7.216668 8.866667 7.266668 8.816666 7.300001 0
   1   6   0 0
   2
   1   5   0 0
   1  25   2 0
9.783333 7.561111
13.155555 5.711111
   0
Scans_Integration  8.695652e+01   0   0   1 0 8.650000 7.883333 8.900000 7.950001 8.816666 7.966667 0
   1   5   0 0
   1
   1   4   0 0
   0
Read_Goal  3.558719e+04   0   0   1 0 8.650000 9.383333 8.883333 9.416667 8.816666 9.466667 0
   1   3   0 0
   2
   1   2   0 0
  -1  18   2 0
8.200000 8.550000
4.416667 1.533333
   0
Compute_SetPoint  8.771930e+02   0   0   1 0 8.700000 11.400000 8.900000 11.400000 8.866666 11.483331 0
   1  39   0 0
   1
   1  10   0 0
   0
Send_SetPoint  1.666667e+02   0   0   1 0 8.716667 12.566667 8.950000 12.616667 8.883333 12.650000 0
   1  10   0 0
   1
   1   9   0 0
   0
LaserPeriod  1.000000e+01   0   0   1 0 16.833332 0.500000 17.066667 0.566667 17.000000 0.583333 0
   1  34   1 0
16.466667 0.116667
   2
   1  35   0 0
   1  37   0 0
   0
StoreScans  1.000000e+04   0   0   1 0 18.316667 7.416667 18.561115 7.483334 18.454171 7.483334 0
   1  31   0 0
   2
   1  25   2 0
17.700000 7.666667
14.566667 6.600000
   1  33   1 0
18.333329 7.683333
   0
CorrectScan  1.000000e+04   0   0   1 0 18.316667 5.716667 18.516671 5.761112 18.454171 5.783334 0
   1  29   0 0
   1
   1  30   0 0
   0
LaserReadState  1.000000e+05   0   0   1 0 18.316667 4.950000 18.516671 4.972223 18.454171 5.016667 0
   1  28   0 0
   2
   1  29   0 0
   1  24   3 0
17.822223 4.622222
13.822222 4.866667
13.400000 4.866667
   0
ScanRead  1.000000e+05   0   0   1 0 18.350000 3.350000 18.550004 3.372223 18.487504 3.416667 0
   1  40   0 0
   1
   1  27   0 0
   0
goal_test  1.000000e+06   0   0   1 0 2.166667 5.416667 1.100000 5.483333 2.333333 5.500000 0
   1  16   0 0
   1
   1  17   0 0
   0
trace_location  1.000000e+04   0   0   1 0 2.166667 4.666667 0.533333 4.683333 2.333333 4.750000 0
   1  15   0 0
   1
   1  16   0 0
   0
sup_read_state  1.000000e+05   0   0   1 0 2.166667 3.833333 0.583333 3.900000 2.333333 3.916667 0
   1  14   0 0
   2
  -1  24   2 0
2.550000 3.633333
13.133333 4.016667
   1  15   0 0
   0
store_goal  1.000000e+05   0   0   1 0 2.166667 2.333333 0.950000 2.366667 2.333333 2.416667 0
   1  12   0 0
   2
   1  13   0 0
   1  18   0 0
   0
Control_Periodic_Act  5.000000e+00   0   0   1 0 7.666667 1.166667 7.500000 1.050000 7.833333 1.250000 0
   1  20   1 0
7.233333 0.816667
   2
   1  21   0 0
   1  36   0 0
   0
Control_Start_Period  1.000000e+00   1   1   2 0 8.666667 2.166667 7.916667 2.366667 8.833333 2.250000 0
   1  22   1 0
8.766671 1.766667
   1  21   1 0
8.500000 1.750000
   2
   1  41   0 0
   1  23   0 0
   0
supervisor_goal_AC  1.000000e+00   1   1   2 0 2.166667 1.500000 0.333333 1.666667 2.333333 1.583333 0
   1  11   0 0
   1  18   1 0
3.216667 1.200000
   1
   1  12   0 0
   0
SR  1.000000e+00   1   1   1 0 18.383333 2.550000 18.100000 2.250000 18.550000 2.633333 0
   1  32   0 0
   1
   1  40   0 0
   0
reset2  1.000000e+00   1   1   1 0 15.866667 1.200000 16.083332 1.233333 16.033333 1.283333 0
   1  37   0 0
   1
   1  34   0 0
   0
reset1  1.000000e+00   1   1   1 0 7.666667 2.300000 7.366667 2.533333 7.833333 2.383333 0
   1  36   0 0
   1
   1  20   0 0
   0
Control_State_AC  1.000000e+00   1   1   2 0 8.650000 4.883333 8.816666 4.916667 8.816666 4.966667 0
   1  24   2 0
10.183333 5.516668
12.844445 4.488889
   1   1   0 0
   1
   1   8   0 0
   0
Control_Scans_AC  1.000000e+00   1   1   2 0 8.650000 6.383333 8.866667 6.383334 8.816666 6.466667 0
   1   7   0 0
   1  25   2 0
9.694445 6.694444
12.955555 5.444444
   1
   1   6   0 0
   0
Control_Goal_AC  1.000000e+00   1   1   2 0 8.650000 8.633333 8.850000 8.683334 8.816666 8.716667 0
   1   4   0 0
  -1  18   2 0
8.250000 7.316667
4.600000 1.383333
   1
   1   3   0 0
   0
Control_End_Period  1.000000e+00   1   1   2 0 8.716667 13.316667 8.900000 13.350000 8.883333 13.400000 0
   1  41   1 0
5.533333 9.750000
   1   9   0 0
   1
   1  22   4 0
8.716667 13.661110
9.550000 13.600000
9.538889 12.227778
9.577778 1.933333
   0
Laser_End_Period  1.000000e+00   1   1   2 0 20.833329 6.833333 20.883333 7.100000 21.000000 6.916667 0
   1  42   0 0
   1  33   1 0
20.783333 7.650000
   1
   1  26   3 0
21.316667 6.416667
21.316667 0.150000
19.216667 0.183333
   0
Laser_Start_Period  1.000000e+00   1   1   2 0 18.250000 1.666667 18.500000 1.650000 18.416671 1.750000 0
   1  35   0 0
   1  26   0 0
   2
   1  42   0 0
   1  32   0 0
   0
LaserScansAC  1.000000e+00   1   1   2 0 18.316667 6.583333 18.494448 6.627778 18.454171 6.650000 0
   1  25   2 0
17.911110 5.866667
13.866667 5.466667
   1  30   0 0
   1
   1  31   0 0
   0
LaserStateAC  1.000000e+00   1   1   2 0 18.350000 4.183333 18.550004 4.183333 18.487504 4.250000 0
   1  24   2 0
17.888890 3.733333
13.688889 4.711111
   1  27   0 0
   1
   1  28   0 0
   0
Interm_goal  1.000000e+00   1   1   1 0 2.250000 6.333333 1.783333 6.516667 2.416667 6.416667 0
   1  17   0 0
   1
   1  11   3 0
2.233333 6.833333
0.416667 6.833333
0.433333 1.083333
   0
no_goal  1.000000e+00   1   1   1 0 1.666667 6.333333 0.833333 6.466667 1.833333 6.416667 0
   1  17   0 0
   1
   1  13   3 0
1.666667 6.550000
0.816667 6.550000
0.816667 2.666667
   0
supervisor_state_AC  1.000000e+00   1   1   3 0 2.166667 3.000000 0.550000 3.150000 2.333333 3.083333 0
  -1  24   3 0
2.583333 3.366667
5.933333 3.777778
13.400000 3.866667
   1  13   0 0
   1  19   2 0
2.500000 2.766667
2.500000 2.250000
   1
   1  14   0 0
   0
