|0|







|
f   0 167   0 109   1   0   0
busy2    0 19.351361 15.570296 19.531360 15.540295 0
idle2    1 19.351361 14.820296 19.531360 14.790294 0
busy3    0 20.881360 15.570296 21.061359 15.540295 0
idle3    1 20.881360 14.820296 21.061359 14.790294 0
idle1    1 17.551361 14.775297 17.731362 14.745298 0
busy1    0 17.551361 15.525297 17.731362 15.495297 0
D31    0 26.758270 7.194402 26.938271 7.164402 0
D29    0 23.014937 11.542500 23.194938 11.512500 0
D30    0 24.364937 7.567499 24.544938 7.537500 0
D28    0 23.014937 10.717500 23.194938 10.687500 0
D17    0 20.464935 9.592500 20.644940 9.562500 0
D19    0 22.039933 7.642500 22.219940 7.612500 0
D8    0 20.464935 4.717500 20.644940 4.687500 0
D9    0 22.039933 2.092500 22.219940 2.062500 0
D18    0 20.464935 10.192500 20.659939 10.222499 0
D16    0 20.464935 8.992501 20.644940 8.962500 0
D12    0 20.464935 6.517500 20.644940 6.487500 0
D13    0 20.464935 7.117499 20.644940 7.087501 0
D14    0 20.464935 7.717500 20.614939 7.762500 0
D10    0 20.464935 5.317499 20.644940 5.287501 0
D11    0 20.464935 5.917499 20.644940 5.962500 0
D15    0 20.464935 8.392500 20.644940 8.362500 0
D24    0 23.014937 8.242500 23.194938 8.212501 0
D23    0 23.014937 7.642500 23.194938 7.612500 0
D22    0 23.014937 7.042499 23.194938 7.012500 0
D21    0 23.014937 6.442499 23.179940 6.517499 0
D20    0 23.014937 5.842500 23.179940 5.887500 0
D25    0 23.014937 8.917500 23.209945 8.947502 0
D26    0 23.014937 9.517500 23.179940 9.562499 0
D27    0 23.014937 10.117501 23.179940 10.192500 0
D3    0 20.479938 1.717501 20.659937 1.687500 0
D2    1 20.479938 1.117500 20.083329 1.233333 0
D1    0 20.479938 0.577500 20.659937 0.547501 0
D4    0 20.479938 2.317501 20.659937 2.287501 0
D5    0 20.464935 2.917500 20.644940 2.887501 0
D7    0 20.464935 4.117499 20.614939 4.162501 0
D6    0 20.464935 3.517500 20.644940 3.487500 0
B44a    0 8.734501 14.200045 8.896500 14.173048 0
B49    0 11.501999 12.715048 11.663998 12.688048 0
B17    0 5.899501 7.585047 6.074999 7.612048 0
B16    0 5.899501 7.045048 6.061499 7.018048 0
B14    0 5.899501 5.965049 6.034500 6.005548 0
B15    0 5.899501 6.505048 6.061499 6.478048 0
B6    0 5.899501 3.197548 6.034500 3.238048 0
B5    0 5.899501 2.657548 6.061499 2.630548 0
B4    0 5.899501 2.117548 6.061499 2.090549 0
B13    0 5.899501 5.425048 6.061499 5.398048 0
B1    0 5.899501 0.497548 6.061499 0.470549 0
B2    1 5.899501 1.037548 6.416667 1.133333 0
B3    0 5.899501 1.577548 6.061499 1.550548 0
m2b    0 7.654500 4.277548 7.816500 4.250549 0
B11    0 6.844500 4.277548 7.006500 4.318048 0
B10    0 6.844500 3.737549 7.006500 3.710549 0
B12    0 6.844500 4.817548 7.006500 4.790548 0
m3b    0 7.654500 4.817548 7.816500 4.790548 0
m3a    0 5.494501 4.817548 5.656499 4.790548 0
B9    0 4.887002 4.817548 5.049000 4.790548 0
B7    0 4.887002 3.737549 5.049000 3.710549 0
B8    0 4.887002 4.277548 5.049000 4.318048 0
m2a    0 5.562000 4.277548 5.724000 4.250549 0
B20    0 5.906249 9.333298 6.068250 9.306298 0
B21    0 5.906249 9.940798 6.068250 9.913798 0
B33    0 11.501999 9.880048 11.663998 9.853050 0
B32    0 8.734501 9.745048 8.896500 9.718048 0
B31    0 8.770501 9.209549 8.932501 9.263549 0
B30    0 8.770501 8.669549 8.932501 8.642549 0
B19    0 5.915249 8.667298 6.063749 8.734798 0
B18    0 5.915249 8.127293 6.063749 8.167798 0
B29    0 5.913000 12.980546 6.075000 13.048048 0
B23    0 5.305500 11.225547 5.481001 11.252547 0
B24    0 5.305500 11.833046 5.453999 11.873546 0
B25    0 5.305500 12.373048 5.453999 12.440549 0
m6a    0 6.048000 11.698048 6.209999 11.671047 0
m7a    0 6.048000 12.373048 6.209999 12.346047 0
B26    0 6.858000 11.239048 7.033500 11.266048 0
B27    0 6.858000 11.846549 7.006500 11.887047 0
B28    0 6.858000 12.386549 7.006500 12.454050 0
m6b    0 7.600500 11.711549 7.762500 11.684549 0
m7b    0 7.600500 12.386549 7.762500 12.359549 0
B22    0 5.904000 10.609047 6.066001 10.582050 0
B38    0 8.734501 12.553048 8.909999 12.580047 0
B39    0 8.734501 13.160547 8.883001 13.201048 0
B40    0 8.734501 13.700548 8.883001 13.768049 0
m10aa    0 9.477001 13.025548 9.638999 12.998549 0
m11aa    0 9.477001 13.700548 9.638999 13.673547 0
B41    0 10.287001 12.566551 10.462500 12.593547 0
B42    0 10.287001 13.174050 10.435500 13.214548 0
B43    0 10.287001 13.714048 10.435500 13.781547 0
m10ab    0 11.029500 13.039048 11.191500 13.012046 0
m11ab    0 11.029500 13.714048 11.191500 13.687048 0
B48    0 11.501999 12.067048 11.663998 12.040047 0
B47    0 11.501999 11.527048 11.663998 11.500048 0
B46    0 11.501999 10.987049 11.663998 10.960045 0
B45    0 11.501999 10.447048 11.640376 10.420048 0
B34    0 8.734501 10.285042 8.872875 10.258049 0
B35    0 8.734501 10.825051 8.896500 10.798049 0
B36    0 8.734501 11.365048 8.896500 11.338048 0
B37    0 8.734501 11.905052 8.896500 11.878048 0
B44    0 8.734501 14.794048 8.896500 14.861546 0
B50    0 8.734501 15.469047 8.896500 15.442047 0
C5a    0 13.000496 3.433798 13.162499 3.406798 0
C6    0 13.000496 3.973798 13.135500 4.014299 0
C5    0 13.000496 2.893798 13.162499 2.866798 0
C4    0 13.013999 2.353799 13.175999 2.326799 0
C1    0 13.013999 0.787798 13.175999 0.760798 0
C2    1 13.013999 1.273798 12.550000 1.350000 0
C3    0 13.013999 1.813798 13.175999 1.786798 0
C22    0 15.295501 9.373802 15.444001 9.441295 0
C21    0 15.295501 8.833798 15.444001 8.874297 0
C20    0 15.295501 8.293798 15.471000 8.320798 0
C15    0 15.295501 5.526298 15.444001 5.566798 0
C16    0 15.295501 6.066297 15.444001 6.133797 0
C17    0 15.295501 6.606298 15.457501 6.579298 0
C18    0 15.295501 7.146298 15.457501 7.119297 0
C19    0 15.295501 7.686298 15.457501 7.659299 0
C12    0 13.000496 7.821298 13.162499 7.794297 0
C8    0 13.000496 5.593798 13.162499 5.634298 0
C7    0 13.000496 5.053797 13.162499 5.026798 0
C11    0 13.000496 7.213798 13.135500 7.254298 0
C10    0 13.000496 6.673797 13.162499 6.646798 0
C9    0 13.000496 6.133798 13.162499 6.106797 0
C13    0 13.000496 8.361298 13.162499 8.334299 0
C14    0 13.000496 9.441292 13.175999 9.468299 0
C3b    0 14.418000 2.151298 14.580001 2.124298 0
P31    0 13.000496 4.513798 13.162499 4.486797 0
C9b    0 14.418000 7.146298 14.580001 7.119297 0
C13a    0 13.000496 8.901298 13.162499 8.874298 0
C34    0 15.295501 9.913798 15.457501 9.886798 0
C35    0 16.510502 7.078797 16.672501 7.051798 0
C36    0 18.198002 6.201298 18.360002 6.174298 0
C37    0 15.295501 10.656298 15.457501 10.629298 0
A20    0 2.308500 9.071999 2.484000 9.098999 0
A21    0 2.308500 9.747000 2.457000 9.787500 0
A22    0 2.308500 10.354500 2.457000 10.422000 0
A28    0 1.350000 14.390998 1.498500 14.458500 0
A27    0 1.350000 13.783497 1.498500 13.823999 0
A26    0 1.350000 13.108496 1.525501 13.135500 0
A24    0 2.308500 11.704500 2.470500 11.677499 0
m10b    0 3.118500 11.637002 3.280500 11.609999 0
A23    0 2.308500 11.029500 2.470500 11.002499 0
m9b    0 3.118500 10.894500 3.280500 10.867501 0
A19    0 2.322000 8.505000 2.484000 8.478000 0
A14    0 0.540000 9.045000 0.715500 9.071999 0
A15    0 0.540000 9.720000 0.688500 9.760500 0
A16    0 0.540000 10.327500 0.688500 10.395001 0
m9a    0 1.350000 10.867501 1.512000 10.840500 0
A17    0 0.540000 11.002494 0.702000 10.975500 0
m12a    0 1.350000 11.610000 1.512000 11.583000 0
A18    0 0.540000 11.677498 0.702000 11.650500 0
A13    0 0.540000 8.505000 0.702000 8.478000 0
A6    0 1.147500 3.914999 1.282500 3.955500 0
A5    0 1.147500 3.307500 1.309500 3.280500 0
A4    0 1.147500 2.632500 1.309500 2.605500 0
A9    0 1.147500 5.832000 1.309500 5.805000 0
A10    0 1.147500 6.507000 1.309500 6.480000 0
A11    0 1.147500 7.114500 1.282500 7.155000 0
A1    0 1.147500 0.675000 1.309500 0.648000 0
A2    1 1.147500 1.282500 1.516667 1.366667 0
A3    0 1.147500 1.957500 1.309500 1.930500 0
A7    0 1.147500 4.522499 1.309500 4.495500 0
A8    0 1.147500 5.197501 1.309500 5.238001 0
m1    0 2.227500 1.957500 2.389500 1.930500 0
m4    0 2.227500 3.914999 2.389500 3.888000 0
m5    0 2.227500 5.197501 2.389500 5.170500 0
A12    0 1.147500 7.762500 1.309500 7.735500 0
m8    0 2.227500 7.087500 2.389500 7.060500 0
A25    0 1.350000 12.487500 1.512000 12.460501 0
G1  0.000000 0.000000 1
D_m11ab  1.000000e+00   0   0   1 0 23.014937 9.817500 23.179940 9.877499 23.164939 9.892500 0
   1  29   0 0
   2
   1  30   0 0
  -1  90   2 0
22.469232 9.953927
11.094586 13.344740
   0
D_m7b  1.000000e+00   0   0   1 0 20.464935 9.292500 20.629938 9.322501 20.614939 9.367501 0
   1  16   0 0
   2
   1  11   0 0
  -1  79   2 0
19.947921 9.070921
7.665585 12.017234
   0
D_D3  1.000000e+00   0   0   1 0 23.014937 8.542500 23.179940 8.572501 23.164939 8.617501 0
   1  23   0 0
   1
   1  28   0 0
   0
D_D2  1.000000e+00   0   0   1 0 20.464935 8.017500 20.644940 8.047499 20.614939 8.092500 0
   1  19   0 0
   1
   1  22   0 0
   0
D_m3b  1.000000e+00   0   0   1 0 20.464935 4.417499 20.614939 4.432497 20.614939 4.492499 0
   1  36   0 0
   2
   1  13   0 0
  -1  55   2 0
19.969670 4.150819
7.719586 4.448239
   0
D_D1  1.000000e+00   0   0   1 0 20.479938 3.217501 20.659937 3.262501 20.629938 3.292500 0
   1  35   0 0
   1
   1  37   0 0
   0
C_m11aa  1.000000e+00   0   0   1 0 15.295501 9.103798 15.444001 9.157798 15.430502 9.171299 0
   1 109   0 0
   2
  -1  85   2 0
14.804364 9.226581
9.535575 13.368171
   1 108   0 0
   0
C_m7a  1.000000e+00   0   0   1 0 13.000496 8.631298 13.148999 8.658298 13.135500 8.698800 0
   1 122   0 0
   2
  -1  74   2 0
12.535186 8.431876
6.106578 12.040672
   1 127   0 0
   0
C_C3  1.000000e+00   0   0   1 0 15.295501 7.956298 15.444001 7.983297 15.430502 8.023798 0
   1 115   0 0
   1
   1 110   0 0
   0
C_C2  1.000000e+00   0   0   1 0 13.000496 7.483801 13.162499 7.510797 13.135500 7.551298 0
   1 119   0 0
   1
   1 116   0 0
   0
C_m3a  1.000000e+00   0   0   1 0 13.000496 4.243797 13.135500 4.257296 13.135500 4.311296 0
   1 102   0 0
   2
  -1  56   2 0
12.554757 4.003785
5.553077 4.485170
   1 125   0 0
   0
C_C1  1.000000e+00   0   0   1 0 13.013999 3.163799 13.175999 3.204299 13.148999 3.231298 0
   1 103   0 0
   1
   1 101   0 0
   0
B_B5  1.000000e+00   0   0   1 0 11.501999 11.257048 11.623499 11.257047 11.637001 11.324546 0
   1  93   0 0
   1
   1  92   0 0
   0
B_B4  1.000000e+00   0   0   1 0 8.734501 11.095048 8.856000 11.095048 8.869499 11.162548 0
   1  96   0 0
   1
   1  97   0 0
   0
B_B3  1.000000e+00   0   0   1 0 5.906249 9.603298 6.027750 9.603297 6.041249 9.670799 0
   1  61   0 0
   1
   1  62   0 0
   0
B_B2  1.000000e+00   0   0   1 0 5.899501 6.235048 6.061499 6.262048 6.034500 6.302548 0
   1  42   0 0
   1
   1  43   0 0
   0
B_m4  1.000000e+00   0   0   1 0 5.899501 7.315051 6.047998 7.342048 6.034500 7.382548 0
   1  41   0 0
   2
  -1 163   2 0
5.526317 6.972963
2.286077 3.582622
   1  40   0 0
   0
B_m12a  1.000000e+00   0   0   1 0 8.734501 14.470052 8.896500 14.524050 8.869499 14.537548 0
   1  38   0 0
   2
  -1 148   2 0
8.290066 14.712472
1.408577 11.277623
   1  99   0 0
   0
B_B1  1.000000e+00   0   0   1 0 5.899501 2.387548 6.034500 2.428048 6.034500 2.455048 0
   1  46   0 0
   1
   1  45   0 0
   0
B_m2a  1.000000e+00   0   0   1 0 4.887002 4.007548 5.049000 4.088548 5.022000 4.075048 0
   1  58   0 0
   2
   1  59   0 0
   1  60   0 0
   0
B_m2b  1.000000e+00   0   0   1 0 6.844500 4.007548 7.006500 4.088548 6.979501 4.075048 0
   1  53   0 0
   2
   1  51   0 0
   1  52   0 0
   0
B_m8  1.000000e+00   0   0   1 0 8.770501 8.939553 8.932501 8.980050 8.905502 9.007049 0
   1  66   0 0
   2
  -1 166   2 0
8.279698 8.815450
2.286077 6.755122
   1  65   0 0
   0
B_m6a  1.000000e+00   0   0   1 0 5.305500 11.495553 5.481001 11.549550 5.440500 11.563048 0
   1  70   0 0
   2
   1  71   0 0
   1  73   0 0
   0
B_m6b  1.000000e+00   0   0   1 0 6.858000 11.509050 7.033500 11.563048 6.993000 11.576547 0
   1  75   0 0
   2
   1  76   0 0
   1  78   0 0
   0
B_m10aa  1.000000e+00   0   0   1 0 8.734501 12.823048 8.909999 12.877048 8.869500 12.890548 0
   1  81   0 0
   2
   1  82   0 0
   1  84   0 0
   0
B_m10ab  1.000000e+00   0   0   1 0 10.287001 12.836548 10.462500 12.890548 10.422001 12.904047 0
   1  86   0 0
   2
   1  87   0 0
   1  89   0 0
   0
B_m10b  1.000000e+00   0   0   1 0 11.501999 12.377548 11.650500 12.391048 11.637002 12.445048 0
   1  91   0 0
   2
  -1 139   2 0
11.084831 12.090743
3.177076 11.304618
   1  39   0 0
   0
A_A5  1.000000e+00   0   0   1 0 1.350000 13.445997 1.525501 13.500002 1.485001 13.513501 0
   1 137   0 0
   1
   1 136   0 0
   0
A_A4  1.000000e+00   0   0   1 0 2.308500 9.409500 2.484000 9.463501 2.443500 9.477000 0
   1 132   0 0
   1
   1 133   0 0
   0
A_m9b  1.000000e+00   0   0   1 0 2.308500 10.692000 2.484000 10.746000 2.443500 10.759499 0
   1 134   0 0
   2
   1 141   0 0
   1 140   0 0
   0
A_m9a  1.000000e+00   0   0   1 0 0.540000 10.665000 0.715500 10.718999 0.675000 10.732501 0
   1 145   0 0
   2
   1 147   0 0
   1 146   0 0
   0
A_A3  1.000000e+00   0   0   1 0 0.540000 9.382499 0.715500 9.436500 0.675000 9.450000 0
   1 143   0 0
   1
   1 144   0 0
   0
A_A2  1.000000e+00   0   0   1 0 1.147500 6.169500 1.282500 6.210000 1.282500 6.237000 0
   1 154   0 0
   1
   1 155   0 0
   0
A_A1  1.000000e+00   0   0   1 0 1.147500 2.970000 1.282500 3.010500 1.282500 3.037500 0
   1 153   0 0
   1
   1 152   0 0
   0
A_m5  1.000000e+00   0   0   1 0 1.147500 4.860000 1.309500 4.941000 1.282500 4.927500 0
   1 160   0 0
   2
   1 164   0 0
   1 161   0 0
   0
A_m1  1.000000e+00   0   0   1 0 1.147500 1.620000 1.309500 1.701000 1.282500 1.687500 0
   1 158   0 0
   2
   1 162   0 0
   1 159   0 0
   0
end  1.000000e+00   1   1   4 0 1.350000 14.715003 1.458000 14.715002 1.437750 14.762250 0
  -1 100   2 0
1.408577 14.382621
8.734501 15.975297
  -1 131   2 0
1.408577 14.382621
15.295501 11.162548
   1 135   0 0
  -1   8   2 0
1.415085 14.345695
23.014937 12.105000
   4
  -1  48   2 0
1.682378 14.773578
6.405743 0.495000
  -1 105   2 0
1.682378 14.773580
13.520235 0.791226
   1 157   2 0
0.324000 14.067000
0.405000 0.661500
  -1  33   2 0
1.719309 14.780089
21.042426 0.581309
   0
t5  1.000000e+00   1   1   1 0 20.464935 10.492501 20.659939 10.552498 20.614939 10.567500 0
   1  15   0 0
   1
   1  20   3 0
19.894938 9.652500
19.894938 5.842500
19.894938 5.212501
   0
R_D_m2b  1.000000e+00   1   1   2 0 20.479938 2.017500 20.659937 2.062500 20.629938 2.092501 0
   1  31   0 0
  -1  51   2 0
20.006777 1.713325
8.023809 4.342633
   1
   1  34   0 0
   0
S_D_D1  1.000000e+00   1   1   2 0 20.479938 2.617501 20.629938 2.662501 20.629938 2.692500 0
  -1   4   2 0
20.545028 2.248192
21.349390 15.132316
   1  34   0 0
   2
  -1   3   2 0
20.849247 2.682586
21.279110 15.172550
   1  35   0 0
   0
E_D_D1  1.000000e+00   1   1   2 0 20.464935 3.817500 20.614939 3.817499 20.614939 3.892499 0
  -1   3   2 0
20.530021 3.448192
20.483614 15.172550
   1  37   0 0
   2
  -1   4   2 0
20.834245 3.882586
20.413332 15.132316
   1  36   0 0
   0
R_D_m6b  1.000000e+00   1   1   2 0 20.464935 6.817499 20.614939 6.862500 20.614939 6.892500 0
   1  17   0 0
  -1  78   2 0
19.931301 6.639620
7.969808 11.776635
   1
   1  18   0 0
   0
S_D_D2  1.000000e+00   1   1   2 0 20.464935 7.417500 20.644940 7.462500 20.614939 7.492499 0
  -1   4   2 0
20.530021 7.048192
21.349390 15.132316
   1  18   0 0
   2
  -1   3   2 0
20.834245 7.482586
21.279110 15.172550
   1  19   0 0
   0
E_D_D2  1.000000e+00   1   1   2 0 20.464935 8.692500 20.614939 8.737500 20.614939 8.767500 0
  -1   3   2 0
20.530021 8.323191
20.483614 15.172550
   1  22   0 0
   2
  -1   4   2 0
20.834245 8.757586
20.413332 15.132316
   1  16   0 0
   0
R_D_m10ab  1.000000e+00   1   1   2 0 23.014937 7.342499 23.149939 7.342500 23.164939 7.417499 0
   1  25   0 0
  -1  89   2 0
22.481305 7.164621
11.398812 13.104134
   1
   1  24   0 0
   0
S_D_D3  1.000000e+00   1   1   2 0 23.014937 7.942500 23.209945 7.972498 23.164939 8.017499 0
  -1   4   2 0
23.080023 7.573191
21.349390 15.132316
   1  24   0 0
   2
  -1   3   2 0
23.384247 8.007586
21.279110 15.172550
   1  23   0 0
   0
E_D_D3  1.000000e+00   1   1   2 0 23.014937 9.217500 23.209945 9.277502 23.164939 9.292500 0
  -1   3   2 0
23.080023 8.848190
20.483614 15.172550
   1  28   0 0
   2
   1  29   0 0
  -1   4   2 0
23.383162 9.270919
20.412250 15.120649
   0
R_B_m5  1.000000e+00   1   1   2 0 5.899501 7.855048 6.074999 7.909048 6.034500 7.922549 0
  -1 164   2 0
5.432193 7.660337
2.559878 5.256077
   1  40   0 0
   1
   1  68   0 0
   0
R_B_m1  1.000000e+00   1   1   2 0 5.899501 1.307548 6.061499 1.388548 6.034500 1.375048 0
  -1 162   2 0
5.407972 1.186349
2.559878 2.016078
   1  49   0 0
   1
   1  50   0 0
   0
S_B_B1  1.000000e+00   1   1   2 0 5.899501 1.847548 6.061499 1.888048 6.034500 1.915048 0
  -1   2   2 0
5.964586 1.478239
19.819389 15.132316
   1  50   0 0
   2
  -1   1   2 0
6.268810 1.912633
19.749109 15.172550
   1  46   0 0
   0
E_B_B1  1.000000e+00   1   1   2 0 5.899501 2.927548 6.061499 2.968048 6.034500 2.995047 0
  -1   1   2 0
5.964586 2.558239
18.953613 15.172550
   1  45   0 0
   2
  -1   2   2 0
6.268810 2.992633
18.883333 15.132316
   1  44   0 0
   0
S_alt12  6.666670e-01   1   1   3 0 6.844500 3.467548 6.979501 3.481047 6.979501 3.535047 0
   1  44   0 0
  -1 106   2 0
6.903077 3.135170
13.511309 1.368524
  -1  32   2 0
6.909586 3.098239
20.479938 1.680000
   3
   1  53   0 0
  -1 124   2 0
7.176878 3.526125
14.429247 1.645172
  -1  31   2 0
7.213809 3.532633
20.479938 1.155001
   0
S_alt11  3.333340e-01   1   1   3 0 4.887002 3.467548 5.022000 3.481047 5.022000 3.535047 0
   1  44   0 0
  -1 106   2 0
4.945579 3.135170
13.013999 1.780048
  -1  32   2 0
4.952087 3.098239
21.032503 1.222751
   3
   1  58   0 0
  -1 107   2 0
5.219378 3.526125
13.013999 1.307549
  -1  14   2 0
5.256311 3.532633
22.052435 1.530139
   0
E_alt11  1.000000e+00   1   1   3 0 4.887002 5.087548 5.022000 5.128049 5.022000 5.155047 0
   1  57   0 0
  -1 125   2 0
4.945579 4.755170
13.000496 5.020048
  -1  14   2 0
4.952087 4.718239
22.039933 2.655000
   3
   1  47   0 0
  -1 118   2 0
5.219378 5.146124
13.000496 4.547547
  -1  20   2 0
5.256311 5.152633
20.983730 5.100102
   0
R_B_m3a  1.000000e+00   1   1   2 0 4.887002 4.547549 5.049000 4.588049 5.022000 4.615049 0
   1  56   0 0
   1  59   0 0
   1
   1  57   0 0
   0
R_B_m3b  1.000000e+00   1   1   2 0 6.844500 4.547549 7.006500 4.588049 6.979501 4.615049 0
   1  52   0 0
   1  55   0 0
   1
   1  54   0 0
   0
E_alt12  1.000000e+00   1   1   3 0 6.844500 5.087548 6.979501 5.128049 6.979501 5.155047 0
   1  54   0 0
  -1 124   2 0
6.903077 4.755170
14.418000 2.657548
  -1  13   2 0
6.909586 4.718239
20.464935 5.280000
   3
   1  47   0 0
  -1 118   2 0
7.176878 5.146124
13.467412 4.858139
  -1  20   2 0
7.213809 5.152633
20.464935 4.754999
   0
S_B_B2  1.000000e+00   1   1   2 0 5.899501 5.695048 6.061499 5.735549 6.034500 5.762547 0
  -1   2   2 0
5.964586 5.325740
19.819389 15.132316
   1  47   0 0
   2
  -1   1   2 0
6.268810 5.760133
19.749109 15.172550
   1  42   0 0
   0
S_B_B3  1.000000e+00   1   1   2 0 5.906249 8.995798 6.081749 9.049797 6.041249 9.063300 0
  -1   2   2 0
5.971334 8.626487
19.819389 15.132316
   1  67   0 0
   2
  -1   1   2 0
6.275558 9.060890
19.749109 15.172550
   1  61   0 0
   0
E_loop1  1.666660e-01   1   1   3 0 8.770501 8.399547 8.541000 8.156548 8.905502 8.467049 0
   1  68   0 0
  -1 118   2 0
8.829076 8.067170
13.504792 5.098293
  -1  20   2 0
8.835587 8.030240
21.025260 5.366938
   3
   1  66   0 0
  -1 111   2 0
9.102880 8.458126
15.295501 5.020048
  -1  27   2 0
9.139809 8.464635
23.014937 5.280000
   0
S_loop1  8.333340e-01   1   1   3 0 5.915249 8.397297 6.063749 8.451298 6.050248 8.464797 0
   1  68   0 0
  -1 118   2 0
5.973827 8.064922
13.000496 5.560047
  -1  20   2 0
5.980334 8.027989
20.464935 5.879999
   3
   1  67   0 0
  -1 117   2 0
6.247628 8.455876
13.000496 5.087548
  -1  21   2 0
6.284557 8.462383
20.464935 5.354999
   0
S_alt21  6.000000e-01   1   1   3 0 5.305500 10.955546 5.453999 10.982548 5.440500 11.023049 0
   1  80   0 0
  -1 117   2 0
5.364077 10.623171
13.000496 6.100048
  -1  21   2 0
5.370586 10.586241
21.012142 6.047786
   3
   1  70   0 0
  -1 121   2 0
5.637878 11.014126
13.000496 5.627548
  -1  12   2 0
5.674809 11.020633
22.039933 7.080000
   0
S_alt22  4.000000e-01   1   1   3 0 6.858000 10.955546 6.979500 10.969047 6.993000 11.023049 0
   1  80   0 0
  -1 117   2 0
6.916577 10.623171
13.492983 5.711056
  -1  21   2 0
6.923086 10.586241
20.464935 6.479999
   3
   1  75   0 0
  -1 126   2 0
7.190378 11.014126
14.418000 6.640048
  -1  17   2 0
7.227309 11.020633
20.464935 5.955000
   0
R_B_m7a  1.000000e+00   1   1   2 0 5.305500 12.103050 5.453999 12.157050 5.440500 12.170545 0
   1  71   0 0
   1  74   0 0
   1
   1  72   0 0
   0
R_B_m7b  1.000000e+00   1   1   2 0 6.858000 12.116555 7.006500 12.170550 6.993000 12.184046 0
   1  76   0 0
   1  79   0 0
   1
   1  77   0 0
   0
E_alt21  1.000000e+00   1   1   3 0 5.305500 12.643046 5.454000 12.670048 5.440500 12.710549 0
   1  72   0 0
  -1 127   2 0
5.364077 12.310670
13.000496 9.407548
  -1  12   2 0
5.370586 12.273740
22.039933 8.205000
   3
   1  69   0 0
  -1 123   2 0
5.637878 12.701625
13.000496 8.935048
  -1  15   2 0
5.674809 12.708132
20.984757 9.977578
   0
E_alt22  1.000000e+00   1   1   3 0 6.858000 12.643046 6.993000 12.670048 6.993000 12.710549 0
   1  77   0 0
  -1 126   2 0
6.916577 12.310670
14.418000 7.652551
  -1  11   2 0
6.923086 12.273740
20.464935 10.155000
   3
   1  69   0 0
  -1 123   2 0
7.190378 12.701625
13.468339 9.247866
  -1  15   2 0
7.227309 12.708132
20.464935 9.630000
   0
t36  1.000000e+00   1   1   1 0 5.913000 13.318046 6.048000 13.318046 6.048000 13.385548 0
   1  69   0 0
   1
   1  68   2 0
4.725000 12.913047
4.727251 8.113798
   0
S_alt31  6.000000e-01   1   1   3 0 8.734501 12.283049 8.883001 12.310048 8.869500 12.350547 0
   1  98   0 0
  -1 112   2 0
8.793083 11.950669
15.295501 6.572547
  -1  26   2 0
8.799587 11.913739
23.548576 6.620377
   3
   1  81   0 0
  -1 113   2 0
9.066877 12.341625
15.295501 6.100048
  -1   9   2 0
9.103813 12.348134
24.364937 7.004999
   0
S_alt32  4.000000e-01   1   1   3 0 10.287001 12.283049 10.408500 12.296547 10.422001 12.350547 0
   1  98   0 0
  -1 112   2 0
10.345578 11.950669
15.775777 6.226388
  -1  26   2 0
10.352086 11.913739
23.014937 7.004999
   3
   1  86   0 0
  -1 129   2 0
10.619378 12.341625
16.510502 6.572547
  -1  25   2 0
10.656310 12.348134
23.014937 6.479999
   0
E_alt31  1.000000e+00   1   1   3 0 8.734501 13.970550 8.883001 13.997549 8.869499 14.038047 0
   1  83   0 0
  -1 108   2 0
8.793083 13.638173
15.295501 9.880048
  -1   9   2 0
8.799587 13.601240
24.364937 8.130000
   3
   1  38   0 0
  -1 128   2 0
9.066877 14.029126
15.295501 9.407548
  -1  10   2 0
9.103813 14.035634
23.544934 10.529057
   0
E_alt32  1.000000e+00   1   1   3 0 10.287001 13.970550 10.422001 13.997549 10.422001 14.038047 0
   1  88   0 0
  -1 129   2 0
10.345578 13.638173
16.510502 7.585047
  -1  30   2 0
10.352086 13.601240
23.014937 10.680001
   3
   1  38   0 0
  -1 128   2 0
10.619378 14.029126
15.772500 9.744200
  -1  10   2 0
10.656310 14.035634
23.014937 10.155000
   0
R_B_m11aa  1.000000e+00   1   1   2 0 8.734501 13.430546 8.883001 13.484550 8.869500 13.498049 0
   1  82   0 0
   1  85   0 0
   1
   1  83   0 0
   0
R_B_m11ab  1.000000e+00   1   1   2 0 10.287001 13.444049 10.435500 13.498048 10.422001 13.511547 0
   1  87   0 0
   1  90   0 0
   1
   1  88   0 0
   0
S_B_B4  1.000000e+00   1   1   2 0 8.734501 10.555048 8.909998 10.609047 8.869499 10.622547 0
  -1   2   2 0
8.799587 10.185738
19.819389 15.132316
   1  95   0 0
   2
  -1   1   2 0
9.103813 10.620133
19.749109 15.172550
   1  96   0 0
   0
E_B_B4  1.000000e+00   1   1   2 0 8.734501 11.635048 8.909998 11.662048 8.869499 11.702549 0
  -1   1   2 0
8.799587 11.265739
18.953613 15.172550
   1  97   0 0
   2
  -1   2   2 0
9.103813 11.700133
18.883333 15.132316
   1  98   0 0
   0
R_B_m9b  1.000000e+00   1   1   2 0 11.501999 10.177048 11.663998 10.204049 11.637002 10.244548 0
  -1 141   2 0
11.002107 10.097065
3.450878 10.953077
   1  63   0 0
   1
   1  94   0 0
   0
R_B_m9a  1.000000e+00   1   1   2 0 8.734501 10.015048 8.896500 10.042048 8.869499 10.082548 0
  -1 146   2 0
8.272290 9.808529
1.682378 10.926077
   1  64   0 0
   1
   1  95   0 0
   0
S_B_B5  1.000000e+00   1   1   2 0 11.501999 10.717048 11.677498 10.771047 11.637001 10.784548 0
  -1   2   2 0
11.567086 10.347740
19.819389 15.132316
   1  94   0 0
   2
  -1   1   2 0
11.871308 10.782134
19.749109 15.172550
   1  93   0 0
   0
E_B_B5  1.000000e+00   1   1   2 0 11.501999 11.797048 11.677498 11.824047 11.637001 11.864548 0
  -1   1   2 0
11.567086 11.427738
18.953613 15.172550
   1  92   0 0
   2
  -1   2   2 0
11.871308 11.862134
18.883333 15.132316
   1  91   0 0
   0
E_B_B2  1.000000e+00   1   1   2 0 5.899501 6.775049 6.034500 6.815549 6.034500 6.842548 0
  -1   1   2 0
5.964586 6.405740
18.953613 15.172550
   1  43   0 0
   2
  -1   2   2 0
6.268810 6.840134
18.883333 15.132316
   1  41   0 0
   0
E_B_B3  1.000000e+00   1   1   2 0 5.906249 10.278298 6.081749 10.305297 6.041249 10.345798 0
   1  62   0 0
  -1   1   2 0
5.970251 9.900464
18.952531 15.164026
   2
   1  80   0 0
  -1   2   2 0
6.274476 10.334859
18.882251 15.123792
   0
R_C_m2a  1.000000e+00   1   1   2 0 13.013999 2.083798 13.175999 2.124298 13.148999 2.151299 0
  -1  60   2 0
12.588155 1.810039
5.894377 4.336124
   1 107   0 0
   1
   1 104   0 0
   0
S_C_C1  1.000000e+00   1   1   2 0 13.013999 2.623798 13.148999 2.664298 13.148999 2.691298 0
  -1   4   2 0
13.079085 2.254489
21.349390 15.132316
   1 104   0 0
   2
  -1   3   2 0
13.383309 2.688883
21.279110 15.172550
   1 103   0 0
   0
E_C_C1  1.000000e+00   1   1   2 0 13.000496 3.703798 13.135500 3.703797 13.135500 3.771297 0
  -1   3   2 0
13.065585 3.334489
20.483614 15.172550
   1 101   0 0
   2
  -1   4   2 0
13.369808 3.768883
20.413332 15.132316
   1 102   0 0
   0
E_C_C3  1.000000e+00   1   1   2 0 15.295501 8.563798 15.471000 8.617799 15.430502 8.631298 0
  -1   3   2 0
15.360588 8.194493
20.483614 15.172550
   1 110   0 0
   2
  -1   4   2 0
15.664812 8.628885
20.413332 15.132316
   1 109   0 0
   0
S_C_C3  1.000000e+00   1   1   2 0 15.295501 7.416297 15.471000 7.443297 15.430502 7.483798 0
  -1   4   2 0
15.360588 7.046989
21.349390 15.132316
   1 114   0 0
   2
  -1   3   2 0
15.664812 7.481383
21.279110 15.172550
   1 115   0 0
   0
R_C_m10aa  1.000000e+00   1   1   2 0 15.295501 6.876297 15.416999 6.876297 15.430500 6.943797 0
  -1  84   2 0
14.815228 6.716207
9.809377 13.084129
   1 113   0 0
   1
   1 114   0 0
   0
t52  1.000000e+00   1   1   1 0 13.000496 9.711298 13.175999 9.765297 13.135500 9.778797 0
   1 123   0 0
   1
   1 118   3 0
12.487500 8.955300
12.487500 5.526298
12.487500 4.959298
   0
E_C_C2  1.000000e+00   1   1   2 0 13.000496 8.091298 13.135500 8.131799 13.135500 8.158798 0
  -1   3   2 0
13.065585 7.721989
20.483614 15.172550
   1 116   0 0
   2
  -1   4   2 0
13.369808 8.156384
20.413332 15.132316
   1 122   0 0
   0
S_C_C2  1.000000e+00   1   1   2 0 13.000496 6.943798 13.162499 6.984298 13.135500 7.011298 0
  -1   4   2 0
13.065585 6.574489
21.349390 15.132316
   1 120   0 0
   2
  -1   3   2 0
13.369808 7.008883
21.279110 15.172550
   1 119   0 0
   0
R_C_m6a  1.000000e+00   1   1   2 0 13.000496 6.403798 13.135500 6.444298 13.135500 6.471297 0
  -1  73   2 0
12.520232 6.243707
6.380378 11.756625
   1 121   0 0
   1
   1 120   0 0
   0
E_A_A5  1.000000e+00   1   1   2 0 1.350000 14.120997 1.498500 14.175002 1.485001 14.188501 0
  -1   6   2 0
1.415085 13.751689
17.153609 15.127549
   1 136   0 0
   2
  -1   5   2 0
1.719309 14.186083
17.083329 15.087315
   1 135   0 0
   0
S_A_A5  1.000000e+00   1   1   2 0 1.350000 12.757499 1.498500 12.784500 1.485001 12.825000 0
  -1   5   2 0
1.415085 12.388192
18.019389 15.087315
   1 167   0 0
   2
  -1   6   2 0
1.719309 12.822587
17.949109 15.127549
   1 137   0 0
   0
S_A_A4  1.000000e+00   1   1   2 0 2.308500 8.802000 2.457000 8.829002 2.443500 8.869500 0
  -1   5   2 0
2.373585 8.432689
18.019389 15.087315
   1 142   0 0
   2
  -1   6   2 0
2.677809 8.867088
17.949109 15.127549
   1 132   0 0
   0
E_A_A4  1.000000e+00   1   1   2 0 2.308500 10.084500 2.457000 10.138501 2.443500 10.152000 0
  -1   6   2 0
2.373585 9.715190
17.153609 15.127549
   1 133   0 0
   2
  -1   5   2 0
2.677809 10.149586
17.083329 15.087315
   1 134   0 0
   0
E_par1  1.000000e+00   1   1   8 0 1.350000 12.150000 1.525500 12.177000 1.485000 12.217500 0
  -1   7   2 0
1.415085 11.780693
26.760427 7.756897
  -1  39   2 0
1.626370 11.956291
11.496834 13.221275
  -1  99   2 0
1.408577 11.817622
8.734501 15.300298
  -1 128   2 0
1.626370 11.956291
15.295501 10.420048
  -1 130   2 0
1.408577 11.817622
18.199939 6.707543
   1 149   0 0
   1 138   0 0
  -1  10   2 0
1.657077 11.934762
23.014937 11.280000
   4
  -1 100   2 0
1.682378 12.208578
8.734501 14.962797
  -1 131   2 0
1.682378 12.208578
15.295501 10.150048
   1 167   0 0
  -1   8   2 0
1.719309 12.215087
23.014937 10.980000
   0
R_A_m10b  1.000000e+00   1   1   2 0 2.308500 11.366996 2.430000 11.366998 2.443500 11.434500 0
   1 140   0 0
   1 139   0 0
   1
   1 138   0 0
   0
R_A_m12a  1.000000e+00   1   1   2 0 0.540000 11.340000 0.661500 11.340001 0.675000 11.407501 0
   1 148   0 0
   1 147   0 0
   1
   1 149   0 0
   0
E_S_A3  1.000000e+00   1   1   2 0 0.540000 10.057500 0.688500 10.111499 0.675000 10.125000 0
  -1   6   2 0
0.605085 9.688194
17.153609 15.127549
   1 144   0 0
   2
  -1   5   2 0
0.909309 10.122587
17.083329 15.087315
   1 145   0 0
   0
S_A_A3  1.000000e+00   1   1   2 0 0.540000 8.775000 0.688500 8.802000 0.675000 8.842500 0
  -1   5   2 0
0.605085 8.405691
18.019389 15.087315
   1 150   0 0
   2
  -1   6   2 0
0.909309 8.840087
17.949109 15.127549
   1 143   0 0
   0
S_par1  1.000000e+00   1   1   4 0 1.147500 8.032500 1.282500 8.073000 1.282500 8.100002 0
  -1  65   2 0
1.206077 7.700122
8.770501 9.715799
  -1 111   2 0
1.206077 7.700122
15.295501 6.032548
   1 165   0 0
  -1  27   2 0
1.212585 7.663191
23.014937 6.405000
   8
  -1   7   2 0
1.516809 8.097589
26.201166 7.116667
  -1  63   2 0
1.479878 8.091077
11.001107 9.806605
  -1  64   2 0
1.341217 8.308869
8.802529 9.243386
  -1 112   2 0
1.341217 8.308869
15.295501 5.560047
  -1 130   2 0
1.479878 8.091077
17.696606 6.131336
   1 150   0 0
   1 142   0 0
  -1  26   2 0
1.362740 8.339577
23.014937 5.879999
   0
R_A_m8  1.000000e+00   1   1   2 0 1.147500 7.425000 1.309500 7.452000 1.282500 7.492500 0
   1 166   0 0
   1 156   0 0
   1
   1 165   0 0
   0
E_A_A2  1.000000e+00   1   1   2 0 1.147500 6.777000 1.309500 6.817500 1.282500 6.844500 0
  -1   6   2 0
1.212585 6.407691
17.153609 15.127549
   1 155   0 0
   2
  -1   5   2 0
1.516809 6.842085
17.083329 15.087315
   1 156   0 0
   0
A_S_A2  1.000000e+00   1   1   2 0 1.147500 5.494500 1.309500 5.535000 1.282500 5.562000 0
   1 161   0 0
  -1   5   2 0
1.211503 5.116667
18.018306 15.078788
   2
  -1   6   2 0
1.516809 5.559586
17.949109 15.127549
   1 154   0 0
   0
E_A_A1  1.000000e+00   1   1   2 0 1.147500 3.577501 1.309500 3.618001 1.282500 3.645000 0
   1 152   0 0
  -1   6   2 0
1.211503 3.196525
17.152527 15.115882
   2
  -1   5   2 0
1.516809 3.642586
17.083329 15.087315
   1 151   0 0
   0
S_A_A1  1.000000e+00   1   1   2 0 1.147500 2.295000 1.309500 2.335500 1.282500 2.362500 0
  -1   5   2 0
1.212585 1.925691
18.019389 15.087315
   1 159   0 0
   2
   1 153   0 0
  -1   6   2 0
1.515727 2.348418
17.948027 15.115882
   0
R_A_m4  1.000000e+00   1   1   2 0 1.147500 4.185001 1.282500 4.198500 1.282500 4.252500 0
   1 163   0 0
   1 151   0 0
   1
   1 160   0 0
   0
start  1.000000e+00   1   1   4 0 1.147500 0.945000 1.309500 0.958500 1.282500 1.012500 0
  -1  48   2 0
1.206077 0.612623
5.899501 1.003798
  -1 105   2 0
1.206077 0.612623
13.013999 1.294048
   1 157   0 0
  -1  33   2 0
1.212585 0.575691
20.479938 1.140000
   4
  -1  49   2 0
1.479878 1.003577
5.899501 0.531298
  -1 106   2 0
1.479878 1.003577
13.013999 0.767548
   1 158   0 0
  -1  32   2 0
1.516809 1.010085
20.479938 0.555000
   0
