|0|










|
f   0  22   0  13   0   0   0
p33    0 5.200000 5.416667 5.066667 5.716667 0
p31    0 3.016667 5.433333 2.866667 5.750000 0
p30    1 4.366667 4.666667 4.233333 4.483333 0
p40    1 4.350000 6.500000 4.216667 6.316667 0
p41    0 3.000000 7.266667 2.883333 7.583333 0
p43    0 5.183333 7.250000 5.050000 7.566667 0
p22    0 5.183333 3.483333 5.033333 3.750000 0
p23    0 3.583333 3.500000 3.450000 3.783333 0
p20    1 4.350000 2.733333 4.216667 2.550000 0
p13    0 5.166667 1.750000 5.016667 1.600000 0
p12    0 3.833333 1.750000 3.700000 1.566667 0
p11    0 2.583333 1.750000 2.433333 1.566667 0
p10    1 4.333333 1.000000 4.200000 0.816667 0
m11    1 2.833333 4.083333 3.033333 4.050000 0
m13    0 4.083333 4.083333 4.283333 4.150000 0
m14    0 4.916667 6.000000 5.083333 6.166667 0
m21    1 5.500000 1.250000 5.700000 1.216667 0
m22    0 5.083333 3.000000 5.283333 2.966667 0
m31    1 6.916667 4.166667 6.416667 4.266667 0
m32    0 5.333333 2.416667 5.533333 2.383333 0
m33    0 5.416667 4.083333 5.583333 4.150000 0
m34    0 6.416667 6.000000 6.000000 6.050000 0
T40  1.000000e+00   0   0   1 1 2.016667 7.250000 1.866667 7.583333 2.183333 7.333333 0
   1   4   2 0
1.500000 7.250000
1.500000 6.500000
   1
   1   5   0 0
   0
T30  1.000000e+00   0   0   1 1 2.033333 5.416667 1.883333 5.716667 2.200000 5.500000 0
   1   3   2 0
1.516667 5.416667
1.516667 4.666667
   1
   1   2   0 0
   0
T20  1.000000e+00   0   0   1 1 2.016667 3.483333 1.850000 3.750000 2.183333 3.566667 0
   1   9   2 0
1.500000 3.483333
1.500000 2.733333
   1
   1   8   0 0
   0
T10  1.000000e+00   0   0   1 1 2.000000 1.750000 1.716667 1.450000 2.166667 1.833333 0
   1  13   2 0
1.483333 1.750000
1.483333 1.000000
   1
   1  12   0 0
   0
t43  1.000000e+00   0   0   2 1 5.850000 7.250000 5.700000 7.550000 6.016667 7.333333 0
   1  22   1 0
6.416667 6.700000
   1   6   0 0
   2
   1  19   1 0
6.916667 6.833333
   1   4   2 0
6.333333 7.250000
6.333333 6.500000
   0
t41  5.000000e-01   0   0   2 1 4.500000 7.266667 4.350000 7.600000 4.666667 7.350000 0
   1  16   1 0
4.916667 7.016667
   1   5   0 0
   2
   1  14   2 0
3.966667 7.083333
3.966667 4.233333
   1   6   0 0
   0
t31  5.000000e-01   0   0   2 1 4.516667 5.433333 4.366667 5.250000 4.683333 5.516667 0
   1  15   1 0
4.083333 5.266667
   1   2   0 0
   2
   1  16   0 0
   1   1   0 0
   0
t33  1.000000e+00   0   0   2 1 5.866667 5.416667 5.700000 5.750000 6.033333 5.500000 0
   1   1   0 0
   1  21   0 0
   2
   1  22   1 0
6.416667 5.600000
   1   3   2 0
6.350000 5.416667
6.350000 4.666667
   0
t23  1.000000e+00   0   0   2 1 4.500000 3.500000 4.316667 3.800000 4.666667 3.583333 0
   1  20   2 0
4.800000 3.333333
4.800000 2.416667
   1   8   0 0
   2
   1   7   0 0
   1  21   0 0
   0
t22  5.000000e-01   0   0   2 1 5.850000 3.483333 5.783333 3.783333 6.016667 3.566667 0
   1  18   1 0
5.583333 3.000000
   1   7   0 0
   2
   1  17   2 0
6.150000 3.300000
6.150000 1.250000
   1   9   2 0
6.333333 3.483333
6.333333 2.733333
   0
t11  1.000000e+00   0   0   2 1 3.333333 1.750000 3.183333 1.566667 3.500000 1.833333 0
   1  14   1 0
2.833333 1.950000
   1  12   0 0
   2
   1  15   1 0
4.083333 2.116667
   1  11   0 0
   0
t12  3.333340e-01   0   0   2 1 4.583333 1.750000 4.416667 1.550000 4.750000 1.833333 0
   1  17   2 0
4.166667 1.583333
4.166667 1.250000
   1  11   0 0
   2
   1  18   1 0
5.083333 1.983333
   1  10   0 0
   0
t13  3.333340e-01   0   0   2 1 5.833333 1.750000 5.683333 1.566667 6.000000 1.833333 0
   1  19   1 0
6.916667 2.000000
   1  10   0 0
   2
   1  20   1 0
5.333333 1.950000
   1  13   2 0
6.316667 1.750000
6.316667 1.000000
   0
