|0|








|
f   0  36   0  26   1   0   0
busy_CPU2    0 7.849500 7.900000 8.082832 7.950000 0
idle_CPU2    1 7.849500 6.900000 8.016166 6.950000 0
idle_CPU1    1 4.732832 7.400000 4.899499 7.450000 0
busy_CPU1    0 4.732832 8.399998 4.966165 8.450000 0
C8    0 9.166667 10.366667 9.366667 10.333333 0
A7    0 2.666667 8.500000 2.866667 8.466667 0
A6    0 2.666667 7.166667 2.866666 7.133335 0
A8    0 2.666667 9.750000 2.866667 9.716667 0
A3    0 2.666667 3.750000 2.866667 3.716667 0
A4    0 2.666667 4.833333 2.866666 4.800000 0
A2    0 2.666667 2.750000 2.866666 2.716666 0
C5    0 9.166667 6.583333 9.366667 6.550001 0
C3    0 9.166667 4.166667 9.366667 4.133334 0
C2    0 9.166667 2.916667 9.366666 2.883335 0
C4    0 9.166667 5.333333 9.366666 5.300001 0
B5    0 6.083333 6.333333 6.283333 6.300001 0
B3    0 6.083333 3.833333 6.283333 3.799999 0
B2    0 6.083333 2.666667 6.283334 2.633334 0
B4    0 6.083333 4.916667 6.283334 4.883333 0
B7    0 6.083333 8.916667 6.283334 8.883334 0
B6    0 6.083333 7.583333 6.283334 7.550002 0
A0    1 2.666667 0.583333 2.550000 0.366667 0
C0    1 9.166667 0.583333 9.366666 0.549999 0
B0    1 6.083333 0.583333 6.033333 0.350000 0
A5    0 2.666667 6.000000 2.866666 5.966666 0
mbx_m1    0 4.916667 0.583333 5.116666 0.550000 0
mbx_sm2    0 7.866667 3.683333 8.066668 3.650001 0
mbx_sm3    0 8.283333 6.333333 7.899999 6.116667 0
mbx_m4    0 4.083333 4.916667 4.283334 4.883334 0
B1    0 6.083333 1.666667 6.283333 1.633333 0
C1    0 9.166667 1.833333 9.366667 1.800000 0
A1    0 2.666667 1.583333 2.866667 1.550000 0
C6    0 9.166667 7.833333 9.366667 7.800000 0
C7    0 9.166667 9.000000 9.366667 8.966667 0
mbx_rm2    0 7.883333 1.716667 8.083333 1.683333 0
mbx_rm3    0 6.616667 6.333333 6.816667 6.300000 0
G1  0.000000 0.000000 1
C_C2  1.250000e-01   0   0   1 0 9.166667 8.416667 9.383333 8.500000 9.333333 8.500000 0
   1  33   0 0
   1
   1  34   0 0
   0
m3  5.000000e+00   0   0   1 1 7.600000 6.333333 7.433333 6.216667 7.766667 6.416667 0
   1  28   0 0
   1
   1  36   0 0
   0
C_C1  1.666667e-01   0   0   1 0 9.166667 3.416667 9.433333 3.450000 9.333333 3.500000 0
   1  14   0 0
   1
   1  13   0 0
   0
m2  5.000000e+00   0   0   1 0 7.866667 2.533333 7.700000 2.416667 8.033333 2.616667 0
   1  27   0 0
   1
   1  35   0 0
   0
B_B1  1.666666e-01   0   0   1 0 6.083333 3.250000 6.383335 3.283333 6.250001 3.333333 0
   1  18   0 0
   1
   1  17   0 0
   0
A_A2  5.000000e-01   0   0   1 0 2.666667 7.833333 2.900000 7.866666 2.833333 7.916667 0
   1   7   0 0
   1
   1   6   0 0
   0
A_A1  1.000000e-01   0   0   1 0 2.666667 3.250000 2.866667 3.333334 2.833333 3.333334 0
   1  11   0 0
   1
   1   9   0 0
   0
respS  1.000000e+00   1   1   3 0 6.083332 11.616667 6.316667 11.650000 6.249999 11.700000 0
   1   5   0 0
   1   8   0 0
   1  20   0 0
   3
   1  23   3 0
6.666667 11.983329
10.333333 11.983329
10.333333 0.566667
   1  22   3 0
5.333332 11.916667
1.666667 11.916667
1.666667 0.566667
   1  24   4 0
6.066667 12.716671
11.200000 12.716671
11.200000 0.366667
6.933333 0.366667
   0
C_m3  1.000000e+00   1   1   1 0 9.166667 6.000000 9.400000 6.050001 9.333333 6.083333 0
   1  15   0 0
   2
   1  12   0 0
   1  28   0 0
   0
C_R_m2  1.000000e+00   1   1   2 0 9.166667 1.166667 9.366667 1.250000 9.333333 1.250000 0
   1  35   0 0
   1  23   0 0
   1
   1  31   0 0
   0
B_R_m3  1.000000e+00   1   1   2 0 6.083333 6.916667 6.266667 6.949999 6.250001 7.000000 0
   1  16   0 0
   1  36   0 0
   1
   1  21   0 0
   0
B_m2  1.000000e+00   1   1   1 0 6.083333 5.750000 6.283333 5.850000 6.250001 5.833334 0
   1  19   0 0
   2
   1  16   0 0
   1  27   0 0
   0
C_E_C2  1.000000e+00   1   1   2 0 9.166667 9.666667 9.316667 9.466667 9.333333 9.750000 0
  -1   1   2 0
9.238984 9.256323
7.849500 8.524998
   1  34   0 0
   2
  -1   2   2 0
9.577010 9.738984
7.416667 7.350867
   1   5   0 0
   0
C_S_C2  1.000000e+00   1   1   2 0 9.166667 7.166667 9.300000 7.050000 9.333333 7.250000 0
  -1   2   2 0
9.238984 6.756324
7.849500 7.525000
   1  12   0 0
   2
  -1   1   2 0
9.577010 7.238984
7.849500 7.275000
   1  33   0 0
   0
C_E_C1  1.000000e+00   1   1   2 0 9.166667 4.833333 9.333333 4.733333 9.333335 4.916666 0
  -1   1   2 0
9.238984 4.422990
7.849500 8.524998
   1  13   0 0
   2
  -1   2   2 0
9.577010 4.905650
7.416667 7.350867
   1  15   0 0
   0
C_S_C1  1.000000e+00   1   1   2 0 9.166667 2.333333 9.333333 2.216667 9.333335 2.416667 0
  -1   2   2 0
9.238984 1.922990
7.849500 7.525000
   1  31   0 0
   2
  -1   1   2 0
9.577010 2.405650
7.849500 7.275000
   1  14   0 0
   0
B_m4  1.000000e+00   1   1   1 0 6.083333 8.166667 6.300001 8.166666 6.250001 8.250000 0
   1  21   0 0
   2
   1  20   0 0
   1  29   0 0
   0
B_S_B1  1.000000e+00   1   1   2 0 6.083333 2.166667 6.200000 2.066667 6.250001 2.250000 0
  -1   3   2 0
6.155650 1.756324
4.732832 8.024998
   1  30   0 0
   2
  -1   4   2 0
6.493676 2.238984
4.732832 7.775000
   1  18   0 0
   0
B_E_B1  1.000000e+00   1   1   2 0 6.083333 4.416667 6.183333 4.333333 6.250001 4.500000 0
  -1   4   2 0
6.155650 4.006324
4.732832 9.025000
   1  17   0 0
   2
  -1   3   2 0
6.493676 4.488984
4.300000 7.850867
   1  19   0 0
   0
A_E_A2  1.000000e+00   1   1   2 0 2.666667 9.166667 2.850000 9.066667 2.833332 9.250000 0
  -1   4   2 0
2.738984 8.756323
4.732832 9.025000
   1   6   0 0
   2
  -1   3   2 0
3.077010 9.238984
4.300000 7.850867
   1   8   0 0
   0
A_S_A2  1.000000e+00   1   1   2 0 2.666667 6.583333 2.833333 6.500000 2.833332 6.666668 0
  -1   3   2 0
2.738984 6.172990
4.732832 8.024998
   1  25   0 0
   2
  -1   4   2 0
3.077010 6.655650
4.732832 7.775000
   1   7   0 0
   0
A_R_m4  1.000000e+00   1   1   2 0 2.666667 5.500000 2.850000 5.550000 2.833334 5.583332 0
   1  29   0 0
   1  10   0 0
   1
   1  25   0 0
   0
A_S_A1  1.000000e+00   1   1   2 0 2.666667 2.166667 2.783333 2.366667 2.833334 2.250000 0
  -1   3   2 0
2.738984 1.756324
4.732832 8.024998
   1  32   0 0
   2
  -1   4   2 0
3.077010 2.238984
4.732832 7.775000
   1  11   0 0
   0
A_E_A1  1.000000e+00   1   1   2 0 2.666667 4.250000 2.816667 4.466667 2.833334 4.333333 0
  -1   4   2 0
2.738984 3.839657
4.732832 9.025000
   1   9   0 0
   2
  -1   3   2 0
3.077010 4.322317
4.300000 7.850867
   1  10   0 0
   0
B_R_m1  1.000000e+00   1   1   2 0 6.083333 1.166667 6.266667 1.183333 6.250001 1.250000 0
   1  24   0 0
   1  26   0 0
   1
   1  30   0 0
   0
A_m1  1.000000e+00   1   1   1 0 2.666667 1.000000 2.816667 1.166667 2.833332 1.083333 0
   1  22   0 0
   2
   1  26   0 0
   1  32   0 0
   0
