|0|


|
f   0  72   0  65   2   0   0
P42c    0 1.346667 7.453334 1.506667 7.426667 0
p51    0 4.413333 2.520000 4.541334 2.498669 0
p37    0 6.680002 5.253334 6.808000 5.232002 0
p42    0 4.413333 4.453334 4.573333 4.506667 0
p57    0 2.813334 1.853334 2.941334 1.832003 0
p251    0 4.413333 8.520000 4.485333 8.693334 0
P69    0 6.280000 7.853334 6.466666 7.813334 0
p33    0 4.413333 5.786667 4.525334 5.920000 0
p64    0 8.946663 5.320000 9.160000 5.560000 0
P54    0 9.746665 7.320000 9.280000 7.493334 0
p13    0 2.013334 7.453334 2.253334 7.477333 0
p161    0 1.346667 8.520000 0.728001 8.722668 0
p19    0 1.533334 9.400000 1.706666 9.653333 0
p24    0 2.880000 8.520000 2.992000 8.680000 0
P73    0 5.879999 9.319999 5.320000 9.586666 0
p47    0 8.280000 8.520000 8.106666 8.386667 0
p45    0 6.946666 9.053337 7.093333 9.133334 0
p34    0 6.813334 8.520000 6.093333 8.373334 0
P51    0 8.280000 7.320000 8.426667 7.440000 0
p7    0 1.333334 4.429335 1.520000 4.440001 0
p62    2 1.333334 3.682667 1.453334 3.586667 0
P37    0 2.013334 5.226667 2.173334 5.200001 0
waitforpump    0 1.346667 5.360001 0.116667 5.283333 0
P41    0 2.080000 6.493333 2.240000 6.466667 0
p66    0 2.533334 0.733334 2.661333 0.712002 0
p71    0 10.733329 16.933334 10.693333 17.226667 0
p61    0 6.800000 16.933334 6.959999 16.906670 0
p58    0 9.066667 16.933334 8.306667 17.146667 0
p41    0 6.813334 15.640000 6.957777 15.851111 0
p29    0 3.320001 16.960000 3.253334 17.164444 0
p15    0 2.040000 16.040000 2.208890 16.062223 0
p25    0 2.053334 16.960000 0.195556 17.004444 0
p16    0 2.040000 15.106667 2.146667 15.279999 0
p6    4 2.057778 12.453332 1.573334 12.293332 0
p50    0 5.813333 12.453334 5.866666 12.680001 0
P26    0 2.066666 13.333334 2.226666 13.306667 0
P28    0 2.066666 14.066665 2.226666 14.040001 0
P44    0 21.761499 15.366667 21.961498 15.333333 0
s35    0 21.761499 16.283333 21.961498 16.250000 0
s37    0 21.761499 17.116667 22.011497 17.166668 0
s38    0 21.761499 17.950000 21.961498 17.916670 0
P35    0 18.544832 4.233333 18.744831 4.200000 0
P34    0 18.544832 3.316667 18.744831 3.283333 0
s4    0 18.544832 5.900000 18.794832 5.950000 0
s2    0 18.544832 5.066667 18.744831 5.033334 0
s5    0 18.544832 6.733333 18.744831 6.699999 0
P40    0 16.578165 8.333333 16.828165 8.383334 0
P43    0 23.661499 12.833333 23.911499 12.883333 0
P42    0 19.078166 12.916667 19.261497 12.899999 0
P41    0 20.911499 8.416667 21.161499 8.466666 0
s7    0 18.544832 7.650000 18.761497 7.583333 0
s41    0 25.578166 16.250000 25.778162 16.216661 0
s23    0 19.078166 13.916667 19.278166 13.883333 0
s25    0 19.094832 14.800000 19.344831 14.850000 0
s26    0 19.094832 15.550000 19.294832 15.516667 0
s28    0 19.078166 16.416668 19.328165 16.466663 0
s29    0 19.078166 17.166671 19.278166 17.133333 0
s34    0 23.661499 14.500000 23.911499 14.550000 0
s32    0 23.661499 13.666667 23.861500 13.633333 0
s10    0 16.578165 10.000000 16.828165 10.050000 0
s8    0 16.578165 9.166667 16.778166 9.133334 0
s17    0 16.578165 12.583333 16.778166 12.550000 0
s16    0 16.578165 11.666667 16.828165 11.716667 0
s14    0 16.578165 10.833333 16.778166 10.800001 0
s20    0 20.911499 11.333333 21.111498 11.300001 0
s22    0 20.911499 12.250000 21.161499 12.300000 0
s11    0 20.911499 9.416667 21.111498 9.383334 0
s13    0 20.911499 10.416667 21.161499 10.466667 0
P45    0 25.578166 15.333333 25.778170 15.300000 0
s1   40 18.578166 0.583333 18.778166 0.550000 0
P32    0 18.578166 1.583333 18.778166 1.550000 0
P33    0 18.578166 2.333333 18.778166 2.300000 0
G1  0.000000 0.000000 1
G2  0.000000 0.000000 2
t71  1.000000e+02   0   0   1 0 1.333334 4.109335 1.493334 4.120001 1.440000 4.173334 0
   1  21   0 0
   1
   1  20   0 0
   0
pickup  2.000000e-01   0   0   1 0 4.413333 3.386666 4.520000 3.466666 4.519998 3.450666 0
   1   4   0 0
   1
   1   2   0 0
   0
t44  1.000000e-02   0   0   1 1 9.866667 16.933334 9.466666 17.146667 9.999999 17.013334 0
   1  28   0 0
   1
   1  26   0 0
   0
think  2.000000e-01   0   0   1 0 8.280000 7.853334 8.453333 7.893334 8.413334 7.920000 0
   1  16   0 0
   1
   1  19   0 0
   0
t191  2.000000e-01   0   0   1 1 3.813333 8.520000 3.413334 8.800000 3.920000 8.584000 0
   1  14   0 0
   1
   1   6   0 0
   0
t12  3.340000e-01   0   0   1 0 2.040000 15.573334 2.200000 15.640001 2.173334 15.653334 0
   1  33   0 0
   1
   1  31   0 0
   0
t43  1.000000e+00   1   1   2 0 8.946663 6.586666 9.000000 6.453333 9.053333 6.650666 0
  -1  48   2 0
9.018983 6.176323
23.661499 13.458333
   1  19   0 0
   3
  -1  59   2 0
9.357009 6.658983
23.661499 13.041667
   1  10   0 0
   1   9   0 0
   0
t451  1.000000e+00   1   1   2 0 7.480000 6.653334 7.586666 6.589334 7.586666 6.717333 0
  -1  47   2 0
7.552317 6.242991
16.578165 8.958333
   1  19   0 0
   3
  -1  61   2 0
7.890343 6.725651
16.578165 8.541667
   1   8   0 0
   1   7   0 0
   0
t452  1.000000e+00   1   1   2 0 7.980000 7.070001 8.086666 7.006001 8.086666 7.134000 0
  -1  49   2 0
8.052317 6.659658
19.078166 13.541667
   1  19   0 0
   3
  -1  53   2 0
8.390343 7.142318
19.078166 13.291667
   1   8   0 0
   1   7   0 0
   0
t63  1.000000e+00   1   1   2 1 5.479999 8.520000 4.906667 8.266667 5.586667 8.584000 0
  -1  50   2 0
5.552316 8.109657
20.911499 9.041667
   1   6   0 0
   3
  -1  67   2 0
5.890342 8.592318
20.911499 8.791667
   1  18   0 0
   1  15   0 0
   0
t61  1.000000e+00   1   1   2 0 4.913333 7.870001 5.052000 7.923333 5.020000 7.934000 0
  -1  49   2 0
4.985650 7.459658
19.078166 13.541667
   1   6   0 0
   3
  -1  53   2 0
5.323676 7.942318
19.078166 13.291667
   1   8   0 0
   1   7   0 0
   0
t611  1.000000e+00   1   1   2 0 4.413333 7.453334 4.552000 7.506666 4.520000 7.517333 0
  -1  47   2 0
4.485650 7.042991
16.578165 8.958333
   1   6   0 0
   3
  -1  61   2 0
4.823676 7.525651
16.578165 8.541667
   1   8   0 0
   1   7   0 0
   0
t193  1.000000e+00   1   1   2 1 8.666667 12.400000 8.093333 12.226666 8.800000 12.480000 0
  -1  38   2 0
8.738984 11.989663
21.761499 15.991667
   1  26   0 0
   3
  -1  39   2 0
9.077010 12.472318
21.761499 15.658333
   1  35   0 0
  -1   3   2 0
8.262299 12.694086
6.952960 5.062009
   0
t194  1.000000e+00   1   1   2 1 9.166667 12.816667 8.593333 12.643333 9.300000 12.896666 0
  -1  60   2 0
9.238984 12.406323
16.578165 10.625000
   1  26   0 0
   3
  -1  64   2 0
9.577010 12.888984
16.578165 10.208333
   1  35   0 0
  -1   3   2 0
8.262299 12.694086
6.952960 5.062009
   0
t195  1.000000e+00   1   1   2 1 9.666667 13.233329 9.093333 13.060000 9.800000 13.313333 0
  -1  54   2 0
9.738984 12.822990
19.094832 15.425000
   1  26   0 0
   3
  -1  55   2 0
10.077010 13.305651
19.094832 14.925000
   1  35   0 0
  -1   3   2 0
8.262299 12.694086
6.952960 5.062009
   0
t53  1.000000e+00   1   1   2 0 10.693333 15.693333 10.746666 15.866665 10.826667 15.773333 0
  -1  69   2 0
10.765647 15.282998
25.578166 15.958333
   1  26   0 0
   3
  -1  52   2 0
11.103676 15.765647
25.578166 15.625000
  -1  25   2 0
11.161498 15.517769
2.591187 0.405059
   1  34   3 0
10.693333 14.013333
10.333333 11.840000
2.066666 11.880000
   0
t251  1.000000e+00   1   1   1 3 2.133334 0.400000 0.880000 0.386666 2.266666 0.466666 0
   1  25   0 0
   0
   0
t241  1.000000e+00   1   1   1 3 7.133333 5.866666 6.800000 6.093333 7.266666 5.933333 0
   1   3   0 0
   0
   0
t231  1.000000e+00   1   1   1 3 7.466667 9.533333 7.653333 9.586666 7.600000 9.600000 0
   1  17   0 0
   0
   0
t221  1.000000e+00   1   1   1 2 1.066666 9.866667 1.226666 10.040000 1.200000 9.933334 0
   1  13   0 0
   0
   0
t211  1.000000e+00   1   1   1 2 2.800000 6.000000 2.853334 5.973334 2.933334 6.066666 0
   1  24   1 0
2.560000 6.466666
   0
   0
t9  1.000000e+00   1   1   2 0 1.346667 7.986663 1.533334 7.984000 1.453334 8.050667 0
  -1  42   2 0
1.418984 7.576320
18.544832 4.858333
   1   1   0 0
   3
  -1  45   2 0
1.757010 8.058980
18.544832 4.441667
   1  12   0 0
   1  11   0 0
   0
t222  1.000000e+00   1   1   2 0 1.346667 4.826667 1.493334 4.866667 1.480000 4.893334 0
  -1  70   2 0
1.418984 4.416324
18.578166 1.208333
   1  20   0 0
   3
  -1  71   2 0
1.757010 4.898984
18.578166 0.958333
   1  23   0 0
   1  22   0 0
   0
t301  1.000000e+00   1   1   2 0 6.800000 14.800000 6.680000 14.666666 6.933333 14.880000 0
  -1  38   2 0
6.872317 14.389657
21.761499 15.991667
   1  29   0 0
   3
  -1  39   2 0
7.210343 14.872323
21.761499 15.658333
  -1   3   2 0
6.943674 14.321088
6.737856 4.925059
   1  35   0 0
   0
t302  1.000000e+00   1   1   2 0 7.300000 15.216667 7.180000 15.083333 7.433333 15.296667 0
  -1  60   2 0
7.372317 14.806323
16.578165 10.625000
   1  29   0 0
   3
  -1  64   2 0
7.710343 15.288984
16.578165 10.208333
  -1   3   2 0
6.943674 14.321088
6.737856 4.925059
   1  35   0 0
   0
t30  1.000000e+00   1   1   2 0 7.800000 15.633333 7.680000 15.499999 7.933333 15.713333 0
  -1  54   2 0
7.872317 15.222990
19.094832 15.425000
   1  29   0 0
   3
  -1  55   2 0
8.210343 15.705651
19.094832 14.925000
  -1   3   2 0
6.943674 14.321088
6.737856 4.925059
   1  35   0 0
   0
t21  1.000000e+00   1   1   1 0 7.213335 18.440000 7.386666 18.466665 7.346667 18.506666 0
  -1  10   2 0
7.223135 17.940096
10.074941 7.377854
   0
   0
t23  1.000000e+00   1   1   1 2 4.600000 16.600000 4.773334 16.706667 4.733334 16.666666 0
  -1   7   2 0
5.064238 16.414305
6.608274 7.911187
   0
   0
t26  1.000000e+00   1   1   2 0 2.066666 13.733329 2.333334 13.773334 2.200000 13.800002 0
  -1  72   2 0
2.138983 13.322991
18.578166 2.958333
   1  36   0 0
   3
  -1  43   2 0
2.477009 13.805652
18.587834 2.693148
  -1  24   2 0
1.592325 13.891447
2.137853 6.165059
   1  37   0 0
   0
t201  1.000000e+00   1   1   2 1 3.986667 16.960000 3.791112 17.164444 4.120000 17.039999 0
  -1  68   2 0
4.058984 16.549656
20.911499 11.041667
   1  30   0 0
   3
  -1  65   2 0
4.397010 17.032316
20.911499 10.708333
  -1  17   2 0
4.312062 17.339628
7.004522 8.725059
   1  27   0 0
   0
t141  1.000000e+00   1   1   2 0 2.040000 16.440000 2.102222 16.400000 2.173334 16.520000 0
  -1  44   2 0
2.112317 16.029657
18.544832 6.525000
   1  31   0 0
   3
  -1  46   2 0
2.450343 16.512318
18.544832 6.108333
   1  32   0 0
  -1  13   2 0
1.565658 16.598114
1.591187 9.071724
   0
t192  1.000000e+00   1   1   1 2 0.640000 15.640000 0.546666 15.933333 0.773334 15.706667 0
  -1  11   2 0
1.061830 15.371563
2.341608 7.511187
   0
   0
t20  1.000000e+00   1   1   1 0 2.106666 17.906667 2.266666 17.933332 2.240000 17.973333 0
  -1  15   2 0
2.117534 17.406783
6.208273 9.377854
   0
   0
t252  1.000000e+00   1   1   2 0 1.133334 11.866667 0.906666 11.626666 1.266666 11.933333 0
  -1  71   2 0
1.205651 11.456321
17.953166 1.583333
  -1  22   4 0
1.133334 12.366667
2.341608 5.284520
2.888889 4.888889
2.644445 4.977778
   1
  -1  70   2 0
1.543677 11.938984
18.007033 0.837170
   0
t22  1.000000e+00   1   1   1 1 6.666666 11.600000 6.440000 11.360000 6.800000 11.666666 0
  -1   5   2 0
6.166666 11.600000
3.141608 1.911187
   0
   0
t48  9.000000e-01   1   1   1 0 23.661499 12.500000 23.861498 12.550000 23.828165 12.583333 0
   1  66   0 0
   1
   1  48   0 0
   0
t47  1.000000e-01   1   1   1 0 19.078166 12.500000 18.594831 12.516667 19.244829 12.583332 0
   1  66   0 0
   1
   1  49   0 0
   0
t45  9.000000e-01   1   1   1 0 20.911499 8.000000 21.111498 8.050000 21.078165 8.083333 0
   1  51   0 0
   1
   1  50   0 0
   0
t461  1.000000e-01   1   1   1 0 16.578165 7.916667 16.061499 7.983333 16.744831 8.000000 0
   1  51   0 0
   1
   1  47   0 0
   0
t49  5.000000e-01   1   1   1 0 21.761499 14.950000 21.611500 14.800000 21.928165 15.033333 0
   1  58   0 0
   1
   1  38   0 0
   0
t501  5.000000e-01   1   1   1 0 25.578166 14.916667 25.778166 14.966667 25.744831 15.000000 0
   1  58   0 0
   1
   1  69   0 0
   0
t32  1.000000e+00   1   2   3 1 7.746666 8.520000 7.653333 8.773334 7.853334 8.584001 0
  -1  65   2 0
7.818983 8.109657
20.911499 11.958333
   1  18   0 0
   1  17   0 0
   2
  -1  66   2 0
8.157009 8.592318
20.911499 11.625000
   1  16   0 0
   0
t27  1.000000e+00   1   2   3 0 5.413333 5.886667 5.413333 5.793333 5.520000 5.950666 0
  -1  64   2 0
5.485650 5.476324
16.578165 11.458333
   1   8   0 0
   1   3   0 0
   2
  -1  63   2 0
5.823676 5.958984
16.578165 11.041667
   1   4   0 0
   0
t272  1.000000e+00   1   2   3 0 4.913333 5.470001 4.913333 5.376667 5.020000 5.534000 0
  -1  55   2 0
4.985650 5.059658
19.094832 16.174999
   1   8   0 0
   1   3   0 0
   2
  -1  56   2 0
5.323676 5.542318
19.101298 15.792096
   1   4   0 0
   0
t271  1.000000e+00   1   2   3 0 4.413333 5.053334 4.413333 4.960000 4.520000 5.117333 0
  -1  39   2 0
4.485650 4.642991
21.761499 16.908333
   1   8   0 0
   1   3   0 0
   2
  -1  40   2 0
4.823676 5.125651
21.761499 16.491667
   1   4   0 0
   0
t14  1.000000e+00   1   2   3 1 2.213334 8.520000 2.213334 8.360000 2.320000 8.584000 0
  -1  46   2 0
2.285651 8.109657
18.544832 7.358333
   1  13   0 0
   1  12   0 0
   2
  -1  51   2 0
2.623677 8.592318
18.544832 7.025000
   1  14   0 0
   0
t502  1.000000e+00   1   2   3 0 8.946663 3.720000 8.933333 3.653334 9.053332 3.784000 0
  -1  39   2 0
9.018983 3.309657
21.761499 16.908333
   1   9   0 0
   1   3   0 0
   2
  -1  40   2 0
9.357009 3.792317
21.761499 16.491667
   1   4   0 0
   0
t393  1.000000e+00   1   2   2 1 3.413334 3.326667 3.586667 3.273334 3.520000 3.390666 0
  -1  63   2 0
3.485651 2.916324
16.578165 12.291667
   1   2   0 0
   3
  -1  62   2 0
3.823677 3.398984
16.578165 11.958333
   1  21   0 0
   1   5   0 0
   0
t392  1.000000e+00   1   2   2 1 2.913334 2.910000 3.086667 2.856668 3.020000 2.974000 0
  -1  56   2 0
2.985651 2.499657
19.078166 17.041668
   1   2   0 0
   3
  -1  57   2 0
3.323677 2.982317
19.078166 16.541672
   1  21   0 0
   1   5   0 0
   0
t391  1.000000e+00   1   2   2 1 2.444445 2.522222 2.617778 2.468890 2.551111 2.586222 0
   1   2   0 0
  -1  40   2 0
2.485651 2.082990
21.761499 17.741667
   3
   1   5   0 0
   1  21   1 0
2.166667 2.822222
  -1  41   2 0
2.823677 2.565650
21.761499 17.325000
   0
e_OK  1.000000e+00   1   2   3 0 1.346667 6.893333 0.986666 6.786666 1.480000 6.960000 0
  -1  43   2 0
1.418984 6.482990
18.544832 3.941667
   1  24   0 0
   1  23   2 0
0.840000 6.506667
0.840000 5.626667
   2
  -1  42   2 0
1.757010 6.965650
18.544832 3.608333
   1   1   0 0
   0
t46  1.000000e+00   1   2   3 1 1.866666 1.200000 1.866666 1.093334 1.973334 1.264000 0
  -1  52   2 0
1.938983 0.789657
25.578166 16.875000
   1   9   2 0
9.493333 1.200000
9.506667 4.653334
   1  25   0 0
   2
  -1  70   2 0
2.277009 1.272317
19.201263 0.632061
   1  21   2 0
1.013334 1.226666
1.040000 3.053334
   0
t503  1.000000e+00   1   2   3 0 9.446663 4.136667 9.433333 4.070001 9.553332 4.200667 0
  -1  55   2 0
9.518983 3.726324
19.094832 16.174999
   1   9   0 0
   1   3   0 0
   2
  -1  56   2 0
9.857009 4.208984
19.101298 15.792096
   1   4   0 0
   0
t50  1.000000e+00   1   2   3 0 9.946663 4.553334 9.933333 4.486667 10.053332 4.617334 0
  -1  64   2 0
10.018983 4.142991
16.578165 11.458333
   1   9   0 0
   1   3   0 0
   2
  -1  63   2 0
10.357009 4.625651
16.578165 11.041667
   1   4   0 0
   0
t35  1.000000e+00   1   2   3 1 8.000000 16.933334 7.999999 16.773335 8.133333 17.013334 0
  -1  59   2 0
8.072317 16.522991
23.661499 14.291667
   1  27   0 0
  -1  10   2 0
7.658422 17.298472
9.937991 7.592958
   2
  -1  58   2 0
8.410343 17.005652
23.661499 13.875000
   1  28   0 0
   0
t394  1.000000e+00   1   2   3 0 6.800000 16.266665 7.048888 16.293331 6.933333 16.346666 0
  -1  53   2 0
6.872317 15.856321
19.078166 14.541667
  -1   7   2 0
6.300770 16.238930
6.471325 8.126290
   1  27   0 0
   2
  -1  54   2 0
7.210343 16.338981
19.072526 14.175398
   1  29   0 0
   0
t39  1.000000e+00   1   2   3 0 7.300000 16.683330 7.548888 16.709997 7.433333 16.763332 0
  -1  61   2 0
7.372317 16.272988
16.578165 9.791667
  -1   7   2 0
6.300770 16.238930
6.471325 8.126290
   1  27   0 0
   2
  -1  60   2 0
7.710343 16.755650
16.578165 9.375000
   1  29   0 0
   0
t242  1.000000e+00   1   2   3 1 5.066666 15.000000 4.246666 14.851111 5.200000 15.079999 0
  -1  53   2 0
5.138983 14.589657
19.078166 14.541667
   1  32   0 0
  -1   7   2 0
5.269736 15.456906
6.582133 7.994139
   2
  -1  54   2 0
5.477009 15.072319
19.072526 14.175398
   1  29   0 0
   0
t243  1.000000e+00   1   2   3 1 5.566666 15.416667 4.746666 15.267778 5.700000 15.496666 0
  -1  61   2 0
5.638983 15.006323
16.578165 9.791667
   1  32   0 0
  -1   7   2 0
5.269736 15.456906
6.582133 7.994139
   2
  -1  60   2 0
5.977009 15.488984
16.578165 9.375000
   1  29   0 0
   0
t7  1.000000e+00   1   2   3 0 2.066666 14.533333 2.240000 14.586667 2.200000 14.613335 0
  -1  45   2 0
2.138983 14.122991
18.544832 5.691667
   1  37   0 0
  -1  11   2 0
1.699265 14.872474
2.204659 7.726290
   2
  -1  44   2 0
2.477009 14.605652
18.544832 5.275000
   1  33   0 0
   0
t19  1.000000e+00   1   2   3 1 2.653334 16.960000 2.680000 16.786667 2.786667 17.039999 0
  -1  67   2 0
2.725651 16.549656
20.911499 10.041667
   1  32   0 0
  -1  15   2 0
2.229335 17.225000
6.071324 9.592965
   2
  -1  68   2 0
3.063677 17.032316
20.911499 9.791667
   1  30   0 0
   0
t24  1.000000e+00   1   2   3 0 2.066666 12.933334 2.240000 12.880001 2.200000 13.000002 0
  -1  71   2 0
2.138983 12.522991
18.578166 2.208333
   1  34   0 0
  -1  22   4 0
1.607094 12.736374
2.177778 5.488889
2.204659 5.499625
2.622222 5.688889
   2
  -1  72   2 0
2.477009 13.005654
18.578166 1.708333
   1  36   0 0
   0
t581  1.000000e+00   1   2   3 1 5.013333 12.453334 4.866666 12.333334 5.146665 12.533334 0
  -1  41   2 0
5.085650 12.042990
21.761499 18.575000
   1  35   0 0
  -1   5   2 0
5.366887 12.099780
3.004659 2.126291
   2
  -1  70   2 0
5.423676 12.525651
19.202962 0.599257
   1  34   0 0
   0
t582  1.000000e+00   1   2   3 1 5.513333 12.870000 5.366666 12.750001 5.646665 12.950000 0
  -1  57   2 0
5.585650 12.459657
19.078166 17.791671
   1  35   0 0
  -1   5   2 0
5.366887 12.099780
3.004659 2.126291
   2
  -1  70   2 0
5.923676 12.942318
17.953542 0.605038
   1  34   0 0
   0
t58  1.000000e+00   1   2   3 1 6.013333 13.286667 5.866666 13.166667 6.146665 13.366667 0
  -1  62   2 0
6.085650 12.876320
16.578165 13.208333
   1  35   0 0
  -1   5   2 0
5.366887 12.099780
3.004659 2.126291
   2
  -1  70   2 0
6.423676 13.358984
17.961912 0.687531
   1  34   0 0
   0
