|0|


|
f   0  13   0  10   1   0   0
P1    4 1.000000 2.333333 1.200000 2.300000 0
P2    0 1.666667 1.000000 1.866667 0.966667 0
P3    0 1.666667 3.666667 1.600000 4.016667 0
P4    0 2.333333 2.333333 2.533333 2.300000 0
P5    0 3.000000 3.666667 2.950000 4.016667 0
P6    3 3.000000 1.000000 2.950000 0.800000 0
P7    1 3.666667 2.333333 3.866667 2.300000 0
P8    0 4.333333 1.000000 4.533333 0.966667 0
P9    0 4.333333 3.666667 4.250000 4.016667 0
P10    0 5.000000 2.333333 5.200000 2.300000 0
P11    0 5.666667 1.000000 5.866667 0.966667 0
P12    0 6.333333 2.333333 6.533333 2.300000 0
P13    5 5.666667 3.666667 5.583333 4.066667 0
G1  2.333333 1.666667 1
T1  1.000000e+00   0   0   1 0 1.000000 1.666667 1.233333 1.700000 1.166667 1.750000 0
   1   1   0 0
   1
   1   2   0 0
   0
T2  1.000000e+00   0   0   1 0 1.000000 3.000000 1.200000 3.016667 1.166667 3.083333 0
   1   3   0 0
   1
   1   1   0 0
   0
T4  1.000000e+00   0   0   1 0 2.333333 3.000000 2.516667 3.016667 2.500000 3.083333 0
   1   4   0 0
   2
   1   3   0 0
   1   5   0 0
   0
T5  1.000000e+00   0   0   1 1 3.666667 3.666667 3.566667 4.033333 3.833333 3.750000 0
   1   5   0 0
   2
   1   9   0 0
   1   7   1 0
4.000000 3.000000
   0
T6  1.000000e+00   0   0   1 1 3.666667 1.000000 3.500000 0.883333 3.833333 1.083333 0
   1   8   0 0
   2
   1   6   0 0
   1   7   1 0
3.333333 1.666667
   0
T7  1.000000e+00   0   0   1 0 5.000000 1.666667 5.250000 1.750000 5.166667 1.750000 0
   1  10   0 0
   2
   1   8   0 0
   1  11   0 0
   0
T9  1.000000e+00   0   0   1 0 6.333333 1.666667 6.533333 1.716667 6.500000 1.750000 0
   1  11   0 0
   1
   1  12   0 0
   0
T10  1.000000e+00   0   0   1 0 6.333333 3.000000 6.566667 3.033333 6.500000 3.083333 0
   1  12   0 0
   1
   1  13   0 0
   0
t8  1.000000e+00   1   1   3 0 5.000000 3.000000 5.183333 2.900000 5.166667 3.083333 0
   1   9   0 0
   1  13   0 0
   1   7   1 0
4.533333 3.266667
   1
   1  10   0 0
   0
t3  1.000000e+00   1   1   3 0 2.333333 1.666667 1.950000 1.783333 2.500000 1.750000 0
   1   2   0 0
   1   6   0 0
   1   7   1 0
2.800000 1.400000
   1
   1   4   0 0
   0
