|0|


|
f   0   9   0   7   0   0   0
P1    1 2.000000 1.000000 2.200000 0.966667 0
P2    0 2.000000 2.333333 2.200000 2.300000 0
P3    1 2.000000 3.000000 2.200000 2.966667 0
P4    0 2.000000 4.333333 2.200000 4.300000 0
P5    0 1.333333 2.666667 1.533333 2.633333 0
P6    0 3.333333 2.333333 3.233333 2.000000 0
P7    0 3.333333 4.333333 3.266667 4.016667 0
P8    1 4.000000 2.333333 4.200000 2.300000 0
P9    0 5.333333 2.333333 5.533333 2.300000 0
T1  1.000000e+00   0   0   1 0 1.333333 1.666667 1.166667 1.550000 1.500000 1.750000 0
   1   2   0 0
   2
   1   1   0 0
   1   5   0 0
   0
T2  1.000000e+00   0   0   1 0 2.666667 1.666667 2.500000 1.550000 2.833333 1.750000 0
   1   1   0 0
   2
   1   2   0 0
   1   6   0 0
   0
T3  1.000000e+00   0   0   2 0 1.333333 3.666667 1.000000 3.550000 1.500000 3.750000 0
   1   3   0 0
   1   5   0 0
   1
   1   4   0 0
   0
T4  1.000000e+00   0   0   2 0 2.666667 3.666667 2.766667 3.483333 2.833333 3.750000 0
   1   4   0 0
   1   7   0 0
   1
   1   3   0 0
   0
T5  1.000000e+00   0   0   2 1 4.666667 1.666667 4.500000 1.550000 4.833333 1.750000 0
   1   8   0 0
   1   6   0 0
   1
   1   9   0 0
   0
T6  1.000000e+00   0   0   2 1 4.666667 3.000000 4.500000 2.883333 4.833333 3.083333 0
   1   8   0 0
   1   6   0 0
   1
   1   9   0 0
   0
T7  1.000000e+00   0   0   1 1 4.666667 3.666667 4.816667 3.916667 4.833333 3.750000 0
   1   9   0 0
   2
   1   8   0 0
   1   7   0 0
   0
