|0|

|
f   0  10   0  10   0   0   0
c2    0 2.750002 2.733334 2.350003 2.783333 0
c1    1 2.750002 1.400000 2.950002 1.366667 0
c3    0 3.700001 4.049999 3.350001 4.099999 0
c4    0 1.900000 4.049999 1.549999 4.099999 0
b2    0 5.083333 5.833333 4.950001 6.133333 0
b1    1 6.533333 1.450000 6.733333 1.416666 0
a2    0 8.933333 3.349999 9.133333 3.316666 0
a3    0 8.933333 4.683332 9.133333 4.649998 0
a4    1 8.933333 6.016666 9.133333 5.983333 0
a5    0 8.033333 3.366667 8.233333 3.333333 0
I6  1.000000e+00   0   0   2 0 2.750002 2.066667 2.283336 2.183333 2.916669 2.150000 0
   1   6   0 0
   1   2   0 0
   1
   1   1   0 0
   0
Tc2  1.000000e+00   0   0   1 0 1.900000 3.383333 1.416666 3.433333 2.066667 3.466667 0
   1   1   0 0
   1
   1   4   0 0
   0
Tc1  1.000000e+00   0   0   1 0 3.700001 3.383333 3.216668 3.433333 3.866669 3.466667 0
   1   1   0 0
   1
   1   3   0 0
   0
I4  1.000000e+00   0   0   1 0 3.700001 4.716667 3.266669 4.783333 3.866669 4.799999 0
   1   3   0 0
   2
   1   5   1 0
3.700001 5.516666
   1   2   2 0
4.316666 5.199999
4.300000 1.400000
   0
I5  1.000000e+00   0   0   1 0 1.900000 4.716667 1.466666 4.783333 2.066667 4.799999 0
   1   4   0 0
   2
   1   5   1 0
2.233333 5.833333
   1   2   2 0
1.316667 5.216666
1.316667 1.400000
   0
Ta1  1.000000e+00   0   0   1 0 8.933333 4.016666 9.133333 4.066666 9.100000 4.100000 0
   1   8   0 0
   1
   1   7   0 0
   0
I2  1.000000e+00   0   0   2 0 8.933333 5.349999 9.166667 5.316667 9.100000 5.433332 0
   1   9   0 0
   1   5   0 0
   1
   1   8   0 0
   0
I1  1.000000e+00   0   0   1 0 8.933333 2.683332 9.116667 2.766666 9.100000 2.766665 0
   1   7   0 0
   2
   1   9   2 0
9.966667 2.300000
9.966667 6.000000
   1   6   1 0
8.100002 1.450000
   0
I3  1.000000e+00   0   0   1 0 8.000001 2.666667 8.150000 2.666667 8.166668 2.750000 0
   1  10   0 0
   2
   1   9   2 0
7.350001 2.366667
7.350001 6.000000
   1   6   1 0
7.633333 1.750000
   0
Ta2  1.000000e+00   0   0   1 0 8.033333 4.066667 7.533333 4.150000 8.199999 4.150000 0
   1   8   0 0
   1
   1  10   0 0
   0
