|0|

|
f   0  14   0  14   1   0   0
P1    1 2.666667 0.666667 2.866667 0.633333 0
P2    1 5.333333 0.666667 5.533333 0.633333 0
P3    1 8.000000 0.666667 8.200000 0.633333 0
P4    0 2.000000 2.000000 2.200000 1.966667 0
P5    0 3.333333 2.000000 3.533333 1.966667 0
P6    0 4.666667 2.000000 4.866667 1.966667 0
P7    0 6.000000 2.000000 6.200000 1.966667 0
P8    0 7.333333 2.000000 7.533333 1.966667 0
P9    0 8.666667 2.000000 8.866667 1.966667 0
P10    0 2.000000 3.333333 2.200000 3.300000 0
P11    0 8.666667 3.333333 8.866667 3.300000 0
P12    0 2.000000 4.666667 2.200000 4.633333 0
P13    0 8.666667 4.666667 8.533333 5.033333 0
P14    1 5.333333 3.333333 5.200000 3.100000 0
G1  2.000000 1.333333 1
T7  1.000000e+00   0   0   2 0 2.000000 2.666667 2.216667 2.766667 2.166667 2.750000 0
   1  14   2 0
2.666667 2.333333
3.666667 3.333333
   1   4   0 0
   1
   1  10   0 0
   0
T8  1.000000e+00   0   0   2 0 4.000000 2.666667 4.233333 2.716667 4.166667 2.750000 0
   1   6   0 0
   1   5   0 0
   2
   1   2   2 0
4.400000 3.066667
4.933333 3.000000
   1  12   0 0
   0
T9  1.000000e+00   0   0   2 0 6.666667 2.666667 6.916667 2.683333 6.833333 2.750000 0
   1   8   0 0
   1   7   0 0
   2
   1   2   2 0
6.333333 3.000000
5.933333 3.000000
   1  13   0 0
   0
T10  1.000000e+00   0   0   2 0 8.666667 2.666667 8.850000 2.750000 8.833333 2.750000 0
   1  14   2 0
8.000000 2.333333
7.000000 3.333333
   1   9   0 0
   1
   1  11   0 0
   0
T11  1.000000e+00   0   0   1 0 2.000000 4.000000 2.200000 4.016667 2.166667 4.083333 0
   1  10   0 0
   2
   1  14   1 0
3.000000 4.333333
   1  12   0 0
   0
T12  1.000000e+00   0   0   1 0 8.666667 4.000000 8.250000 3.883333 8.833333 4.083333 0
   1  11   0 0
   2
   1  14   1 0
7.666667 4.333333
   1  13   0 0
   0
T13  1.000000e+00   0   0   1 0 1.333333 4.000000 0.866667 3.966667 1.500000 4.083333 0
   1  12   0 0
   1
   1   1   1 0
1.333333 0.666667
   0
T14  1.000000e+00   0   0   1 0 9.333333 4.000000 9.466667 3.883333 9.500000 4.083333 0
   1  13   0 0
   1
   1   3   1 0
9.333333 0.666667
   0
t6  1.000000e+00   1   1   1 0 8.666667 1.333333 8.816667 1.250000 8.833333 1.416667 0
   1   3   0 0
   1
   1   9   0 0
   0
t5  1.000000e+00   1   1   1 0 7.333333 1.333333 6.983333 1.233333 7.500000 1.416667 0
   1   3   0 0
   1
   1   8   0 0
   0
t4  1.000000e+00   1   1   1 0 6.000000 1.333333 6.166667 1.283333 6.166667 1.416667 0
   1   2   0 0
   1
   1   7   0 0
   0
t3  1.000000e+00   1   1   1 0 4.666667 1.333333 4.316667 1.250000 4.833333 1.416667 0
   1   2   0 0
   1
   1   6   0 0
   0
t2  1.000000e+00   1   1   1 0 3.333333 1.333333 3.516667 1.283333 3.500000 1.416667 0
   1   1   0 0
   1
   1   5   0 0
   0
t1  1.000000e+00   1   1   1 0 2.000000 1.333333 1.700000 1.216667 2.166667 1.416667 0
   1   1   0 0
   1
   1   4   0 0
   0
