|0|



|
f   0  86   0  74   1   0   0
P1    0 1.916667 0.666667 1.800000 1.000000 0
P2    0 3.083333 0.666667 2.966667 0.983333 0
P3    0 4.083333 0.666667 4.000000 1.000000 0
B3C    1 4.250000 0.250000 4.450000 0.216667 0
P5    0 5.833333 0.666667 5.750000 0.983333 0
P6    0 1.916667 1.500000 1.833333 1.850000 0
P7    0 3.083333 1.500000 2.983333 1.850000 0
P8    0 4.083333 1.500000 3.983333 1.833333 0
P9    0 5.833333 1.500000 5.733333 1.833333 0
P10    0 1.000000 2.750000 0.866667 3.083333 0
P11    0 1.833333 2.750000 1.716667 3.100000 0
P12    0 3.000000 2.750000 2.833333 3.066667 0
P13    0 4.083333 2.750000 3.933333 3.100000 0
P14    0 5.750000 2.750000 5.633333 2.566667 0
AsC    1 4.166667 4.000000 4.033333 4.333333 0
P16    0 4.916667 0.666667 4.750000 0.983333 0
P17    0 4.916667 1.500000 4.783333 1.833333 0
P18    0 4.916667 2.750000 4.766667 3.083333 0
P19    0 7.666667 0.666667 7.483333 0.933333 0
P20    0 7.083333 1.500000 6.950000 1.833333 0
P21    0 6.583333 2.750000 6.783333 2.716667 0
P22    0 7.416667 2.666667 7.616667 2.633333 0
BCC    4 9.333333 0.666667 9.533333 0.633333 0
BC    0 9.333333 1.833333 9.533333 1.800000 0
P25    0 5.750000 3.916667 5.950000 3.883333 0
P26    0 6.583333 3.916667 6.783333 3.883333 0
P27    0 7.416667 3.916667 7.616667 3.883333 0
P28    0 5.750000 5.000000 5.950000 4.966667 0
P29    0 6.583333 5.000000 6.783333 4.966667 0
P30    0 7.416667 5.000000 7.616667 4.966667 0
B4C    1 8.750000 4.500000 8.950000 4.466667 0
P32    0 5.750000 6.250000 5.950000 6.216667 0
P33    0 6.583333 6.250000 6.783333 6.216667 0
P34    0 7.416667 6.250000 7.616667 6.216667 0
LC    0 5.000000 7.000000 5.200000 6.966667 0
P36    0 8.750000 6.250000 8.616667 6.600000 0
P37    0 8.750000 7.000000 8.616667 7.366667 0
OBC    1 10.833333 5.583333 11.033333 5.550000 0
P39    0 10.000000 6.250000 9.850000 6.616667 0
P40    0 9.916667 7.000000 9.816667 7.333333 0
RC    1 9.083333 7.833333 9.283333 7.800000 0
Pwip    0 11.250000 7.750000 11.450000 7.716667 0
P43    0 11.000000 6.250000 10.850000 6.600000 0
P44    0 11.000000 7.000000 10.883333 7.350000 0
P45    0 12.250000 6.250000 12.100000 6.566667 0
P46    0 12.250000 7.000000 12.150000 7.350000 0
P47    0 7.583333 8.500000 7.433333 8.833333 0
P48    0 7.583333 9.333333 7.450000 9.700000 0
P49    0 8.916667 8.500000 8.800000 8.833333 0
P50    0 8.833333 9.333333 8.716667 9.716667 0
Pallets    8 8.666667 10.000000 8.866667 9.966667 0
P52    0 10.166667 8.500000 10.033333 8.866667 0
P53    0 10.166667 9.333333 10.016667 9.666667 0
P54    0 11.666667 8.500000 11.550000 8.833333 0
P55    0 11.666667 9.333333 11.533333 9.683333 0
IBC    1 10.833333 10.166667 11.033333 10.133333 0
P57    0 6.416667 7.750000 6.283333 8.083333 0
P58    0 6.416667 8.500000 6.283333 8.833333 0
P59    0 6.416667 9.333333 6.283333 9.666667 0
P60    0 6.416667 10.000000 6.283333 10.333333 0
AGVC    2 5.916667 10.916667 6.116667 10.883333 0
P62    0 5.333333 7.750000 5.183333 8.083333 0
P63    0 5.333333 8.500000 5.216667 8.833333 0
P64    0 5.333333 9.333333 5.183333 9.683333 0
P65    0 5.333333 10.000000 5.183333 10.350000 0
P66    0 4.000000 7.750000 3.833333 8.100000 0
P67    0 4.000000 8.500000 3.850000 8.833333 0
P68    0 4.000000 9.333333 3.883333 9.683333 0
P69    0 4.000000 10.000000 3.850000 10.350000 0
M1C    1 3.416667 7.000000 3.616667 6.966667 0
M2C    1 3.416667 10.750000 3.333333 11.100000 0
P72    0 2.750000 7.750000 2.633333 8.066667 0
P73    0 2.750000 8.500000 2.633333 8.816667 0
P74    0 2.750000 9.333333 2.633333 9.650000 0
P75    0 2.750000 10.000000 2.600000 10.333333 0
P76    0 1.666667 7.750000 1.550000 8.116667 0
P77    0 1.666667 8.500000 1.533333 8.816667 0
B1C    2 2.916667 6.250000 3.116667 6.216667 0
P79    0 1.666667 9.333333 1.566667 9.650000 0
P80    0 1.666667 10.000000 1.566667 10.350000 0
B2C    2 1.166667 10.750000 1.366667 10.716667 0
P82    0 1.333333 6.416667 1.466667 6.600000 0
P83    0 0.916667 6.416667 0.900000 6.666667 0
P84    0 0.583333 6.416667 0.216667 6.650000 0
P85    0 0.750000 10.000000 0.566667 10.366667 0
ManC    1 2.916667 4.833333 3.116667 4.800000 0
G2  0.000000 0.000000 1
B1B  1.000000e+00   0   0   1 0 0.583333 7.166667 0.150000 7.250000 0.750000 7.250000 0
   1  76   1 0
0.583333 7.733333
   1
   1  84   0 0
   0
B1B1  1.000000e+00   0   0   1 0 1.333333 7.166667 1.516667 7.216667 1.500000 7.250000 0
   1  77   1 0
1.333333 8.466667
   1
   1  82   0 0
   0
B2A  1.000000e+00   0   0   1 1 1.166667 10.000000 1.000000 9.883333 1.333333 10.083333 0
   1  80   0 0
   1
   1  85   0 0
   0
B1A  1.000000e+00   0   0   1 1 1.166667 9.333333 1.000000 9.216667 1.333333 9.416667 0
   1  79   0 0
   1
   1  83   1 0
0.933333 9.316667
   0
M2A  1.000000e+00   0   0   1 1 3.416667 10.000000 3.250000 9.883333 3.583333 10.083333 0
   1  69   0 0
   1
   1  75   0 0
   0
M1A  1.000000e+00   0   0   1 1 3.416667 9.333333 3.250000 9.216667 3.583333 9.416667 0
   1  68   0 0
   1
   1  74   0 0
   0
M1B1  1.000000e+00   0   0   1 1 3.416667 8.500000 3.250000 8.383333 3.583333 8.583333 0
   1  67   0 0
   1
   1  73   0 0
   0
M1B  1.000000e+00   0   0   1 1 3.416667 7.750000 3.250000 7.633333 3.583333 7.833333 0
   1  66   0 0
   1
   1  72   0 0
   0
AA2  1.000000e+00   0   0   1 1 5.916667 10.000000 5.750000 9.883333 6.083333 10.083333 0
   1  60   0 0
   1
   1  65   0 0
   0
AA1  1.000000e+00   0   0   1 1 5.916667 9.333333 5.750000 9.216667 6.083333 9.416667 0
   1  59   0 0
   1
   1  64   0 0
   0
AB1  1.000000e+00   0   0   1 1 5.916667 8.500000 5.750000 8.383333 6.083333 8.583333 0
   1  58   0 0
   1
   1  63   0 0
   0
AB  1.000000e+00   0   0   1 1 5.916667 7.750000 5.750000 7.633333 6.083333 7.833333 0
   1  57   0 0
   1
   1  62   0 0
   0
InA  1.000000e+00   0   0   1 1 10.916667 9.333333 10.750000 9.216667 11.083333 9.416667 0
   1  55   0 0
   2
   1  42   0 0
   1  53   0 0
   0
InB  1.000000e+00   0   0   1 1 10.916667 8.500000 10.750000 8.383333 11.083333 8.583333 0
   1  54   0 0
   2
   1  42   0 0
   1  52   0 0
   0
RAi  1.000000e+00   0   0   1 1 8.166667 9.333333 8.000000 9.216667 8.333333 9.416667 0
   1  50   0 0
   2
   1  41   0 0
   1  48   0 0
   0
RBi  1.000000e+00   0   0   1 1 8.166667 8.500000 8.000000 8.383333 8.333333 8.583333 0
   1  49   0 0
   2
   1  41   0 0
   1  47   0 0
   0
OutA  1.000000e+00   0   0   1 1 13.000000 7.000000 12.833333 6.883333 13.166667 7.083333 0
   1  46   0 0
   1
   1  38   0 0
   0
OutB  1.000000e+00   0   0   1 1 13.000000 6.250000 12.833333 6.133333 13.166667 6.333333 0
   1  45   0 0
   1
   1  38   0 0
   0
RBo  1.000000e+00   0   0   1 1 10.500000 6.250000 10.333333 6.133333 10.666667 6.333333 0
   1  39   0 0
   2
   1  41   0 0
   1  43   0 0
   0
RAo  1.000000e+00   0   0   1 1 10.500000 7.000000 10.333333 6.883333 10.666667 7.083333 0
   1  40   0 0
   2
   1  41   0 0
   1  44   0 0
   0
B4Bok  1.000000e+00   0   0   1 0 7.416667 5.666667 7.566667 5.716667 7.583333 5.750000 0
   1  30   0 0
   2
   1  34   0 0
   1  31   0 0
   0
B4A  1.000000e+00   0   0   1 0 6.583333 5.666667 6.750000 5.750000 6.750000 5.750000 0
   1  29   0 0
   2
   1  33   0 0
   1  31   0 0
   0
B4B  1.000000e+00   0   0   1 0 5.750000 5.666667 5.883333 5.716667 5.916667 5.750000 0
   1  28   0 0
   2
   1  32   0 0
   1  31   0 0
   0
InC  1.000000e+00   0   0   1 0 9.333333 1.250000 9.533333 1.283333 9.500000 1.333333 0
   1  23   0 0
   1
   1  24   0 0
   0
AsBok  1.000000e+00   0   0   1 1 8.500000 0.666667 8.333333 0.550000 8.666667 0.750000 0
   1  19   0 0
   2
   1  22   0 0
   1  23   0 0
   0
AsA  1.000000e+00   0   0   1 1 7.666667 1.500000 7.500000 1.383333 7.833333 1.583333 0
   1  20   0 0
   2
   1  21   0 0
   1  23   0 0
   0
B3B  1.000000e+00   0   0   1 1 5.333333 2.750000 5.166667 2.633333 5.500000 2.833333 0
   1  18   0 0
   2
   1   4   0 0
   1  14   0 0
   0
ManB  1.000000e+00   0   0   1 1 2.500000 2.750000 2.333333 2.633333 2.666667 2.833333 0
   1  11   0 0
   1
   1  12   0 0
   0
B3A  1.000000e+00   0   0   1 1 5.416667 1.500000 5.250000 1.383333 5.583333 1.583333 0
   1  17   0 0
   2
   1   4   0 0
   1   9   0 0
   0
ManA  1.000000e+00   0   0   1 1 2.583333 1.500000 2.416667 1.383333 2.750000 1.583333 0
   1   6   0 0
   1
   1   7   0 0
   0
B3Bok  1.000000e+00   0   0   1 1 5.416667 0.666667 5.250000 0.550000 5.583333 0.750000 0
   1  16   0 0
   2
   1   4   0 0
   1   5   0 0
   0
ManBok  1.000000e+00   0   0   1 1 2.583333 0.666667 2.416667 0.550000 2.750000 0.750000 0
   1   1   0 0
   1
   1   2   0 0
   0
t74  1.000000e+00   1   1   2 0 0.583333 5.916667 0.200000 6.000000 0.750000 6.000000 0
   1  84   0 0
   1  86   0 0
   2
   1  78   0 0
   1   2   2 0
0.616667 0.266667
2.883333 0.266667
   0
t73  1.000000e+00   1   1   2 0 0.916667 5.916667 0.900000 6.033333 1.083333 6.000000 0
   1  83   0 0
   1  86   0 0
   2
   1  78   0 0
   1   6   1 0
0.900000 1.666667
   0
t72  1.000000e+00   1   1   2 0 1.333333 5.916667 1.566667 5.966667 1.500000 6.000000 0
   1  82   0 0
   1  86   0 0
   2
   1  78   0 0
   1  10   1 0
1.333333 3.216667
   0
t71  1.000000e+00   1   1   2 1 0.333333 10.000000 0.216667 9.766667 0.500000 10.083333 0
   1  86   0 0
   1  85   0 0
   2
   1   6   2 0
0.166667 9.250000
0.233333 1.483333
   1  81   0 0
   0
t66  1.000000e+00   1   1   2 1 2.250000 10.000000 2.116667 9.850000 2.416667 10.083333 0
   1  81   0 0
   1  75   0 0
   2
   1  80   0 0
   1  71   0 0
   0
t65  1.000000e+00   1   1   2 1 2.250000 9.333333 2.116667 9.183333 2.416667 9.416667 0
   1  78   0 0
   1  74   0 0
   2
   1  70   0 0
   1  79   0 0
   0
t64  1.000000e+00   1   1   2 1 2.250000 8.500000 2.116667 8.366667 2.416667 8.583333 0
   1  78   0 0
   1  73   0 0
   2
   1  70   0 0
   1  77   0 0
   0
t63  1.000000e+00   1   1   2 1 2.250000 7.750000 2.083333 7.583333 2.416667 7.833333 0
   1  78   0 0
   1  72   0 0
   2
   1  70   0 0
   1  76   0 0
   0
t58  1.000000e+00   1   1   2 1 4.666667 10.000000 4.566667 9.833333 4.833333 10.083333 0
   1  65   0 0
   1  71   0 0
   2
   1  61   0 0
   1  69   0 0
   0
t57  1.000000e+00   1   1   2 1 4.666667 9.333333 4.483333 9.183333 4.833333 9.416667 0
   1  64   0 0
   1  70   0 0
   2
   1  61   0 0
   1  68   0 0
   0
t56  1.000000e+00   1   1   2 1 4.666667 8.500000 4.500000 8.350000 4.833333 8.583333 0
   1  63   0 0
   1  70   0 0
   2
   1  61   0 0
   1  67   0 0
   0
t55  1.000000e+00   1   1   2 1 4.666667 7.750000 4.533333 7.600000 4.833333 7.833333 0
   1  62   0 0
   1  70   0 0
   2
   1  61   0 0
   1  66   0 0
   0
t50  1.000000e+00   1   1   2 1 7.000000 7.750000 6.983333 7.583333 7.166667 7.833333 0
   1  61   0 0
   1  32   0 0
   2
   1  57   0 0
   1  35   0 0
   0
t49  1.000000e+00   1   1   2 1 7.000000 10.000000 6.850000 9.800000 7.166667 10.083333 0
   1  61   0 0
   1  48   0 0
   2
   1  35   0 0
   1  60   0 0
   0
t48  1.000000e+00   1   1   2 1 7.000000 9.333333 7.000000 9.233333 7.166667 9.416667 0
   1  61   0 0
   1  48   0 0
   2
   1  35   0 0
   1  59   0 0
   0
t47  1.000000e+00   1   1   2 1 7.000000 8.500000 6.983333 8.366667 7.166667 8.583333 0
   1  61   0 0
   1  47   0 0
   2
   1  35   0 0
   1  58   0 0
   0
pA  1.000000e+00   1   1   1 1 12.333333 9.333333 12.233333 9.116667 12.500000 9.416667 0
   1  56   0 0
   1
   1  55   0 0
   0
pB  1.000000e+00   1   1   1 1 12.333333 8.500000 12.233333 8.316667 12.500000 8.583333 0
   1  56   0 0
   1
   1  54   0 0
   0
t42  1.000000e+00   1   1   3 1 9.583333 9.333333 9.466667 9.166667 9.750000 9.416667 0
   1  41   0 0
   1  51   0 0
   1  53   0 0
   2
   1  50   0 0
   1  56   0 0
   0
t41  1.000000e+00   1   1   3 1 9.583333 8.500000 9.466667 8.400000 9.750000 8.583333 0
   1  41   0 0
   1  51   0 0
   1  52   0 0
   2
   1  49   0 0
   1  56   0 0
   0
t36  1.000000e+00   1   1   2 1 11.666667 7.000000 11.483333 6.850000 11.833333 7.083333 0
   1  42   0 0
   1  44   0 0
   1
   1  46   0 0
   0
t35  1.000000e+00   1   1   2 1 11.666667 6.250000 11.516667 6.100000 11.833333 6.333333 0
   1  42   0 0
   1  43   0 0
   1
   1  45   0 0
   0
t32  1.000000e+00   1   1   2 1 9.416667 7.000000 9.133333 6.700000 9.583333 7.083333 0
   1  37   0 0
   1  38   0 0
   1
   1  40   0 0
   0
t31  1.000000e+00   1   1   2 1 9.416667 6.250000 9.133333 5.950000 9.583333 6.333333 0
   1  36   0 0
   1  38   0 0
   1
   1  39   0 0
   0
t30  1.000000e+00   1   1   2 1 8.166667 7.000000 7.883333 6.700000 8.333333 7.083333 0
   1  41   0 0
   1  33   0 0
   2
   1  51   0 0
   1  37   0 0
   0
t29  1.000000e+00   1   1   2 1 8.166667 6.250000 7.883333 5.950000 8.333333 6.333333 0
   1  41   0 0
   1  34   0 0
   2
   1  51   0 0
   1  36   0 0
   0
t25  1.000000e+00   1   1   2 0 7.416667 4.500000 7.650000 4.550000 7.583333 4.583333 0
   1  35   0 0
   1  27   0 0
   1
   1  30   0 0
   0
t24  1.000000e+00   1   1   2 0 6.583333 4.500000 6.766667 4.550000 6.750000 4.583333 0
   1  35   0 0
   1  26   0 0
   1
   1  29   0 0
   0
t23  1.000000e+00   1   1   2 0 5.750000 4.500000 5.900000 4.533333 5.916667 4.583333 0
   1  35   0 0
   1  25   0 0
   1
   1  28   0 0
   0
t22  1.000000e+00   1   1   2 0 7.416667 3.333333 7.633333 3.366667 7.583333 3.416667 0
   1  22   0 0
   1  31   0 0
   2
   1  15   0 0
   1  27   0 0
   0
t21  1.000000e+00   1   1   2 0 6.583333 3.333333 6.766667 3.400000 6.750000 3.416667 0
   1  21   0 0
   1  31   0 0
   2
   1  15   0 0
   1  26   0 0
   0
t19  1.000000e+00   1   1   2 1 6.666667 1.500000 6.383333 1.200000 6.833333 1.583333 0
   1  24   0 0
   1   9   0 0
   1
   1  20   0 0
   0
t18  1.000000e+00   1   1   2 1 6.916667 0.666667 6.633333 0.366667 7.083333 0.750000 0
   1  24   0 0
   1   5   0 0
   1
   1  19   0 0
   0
t15  1.000000e+00   1   1   2 1 4.583333 2.750000 4.450000 2.550000 4.750000 2.833333 0
   1  15   0 0
   1  13   0 0
   1
   1  18   0 0
   0
t14  1.000000e+00   1   1   2 1 4.583333 1.500000 4.400000 1.316667 4.750000 1.583333 0
   1  15   0 0
   1   8   0 0
   1
   1  17   0 0
   0
t13  1.000000e+00   1   1   2 1 4.583333 0.666667 4.433333 0.550000 4.750000 0.750000 0
   1  15   0 0
   1   3   0 0
   1
   1  16   0 0
   0
t12  1.000000e+00   1   1   2 0 5.750000 3.333333 5.900000 3.366667 5.916667 3.416667 0
   1  14   0 0
   1  31   0 0
   2
   1  15   0 0
   1  25   0 0
   0
fail  1.000000e+00   1   1   1 1 1.500000 2.750000 1.350000 2.533333 1.666667 2.833333 0
   1  10   0 0
   1
   1  11   0 0
   0
t10  1.000000e+00   1   1   2 1 3.583333 2.750000 3.466667 2.583333 3.750000 2.833333 0
   1   4   0 0
   1  12   0 0
   2
   1  13   0 0
   1  86   0 0
   0
t6  1.000000e+00   1   1   2 1 3.666667 1.500000 3.583333 1.316667 3.833333 1.583333 0
   1   4   0 0
   1   7   0 0
   2
   1   8   0 0
   1  86   0 0
   0
t3  1.000000e+00   1   1   2 1 3.666667 0.666667 3.550000 0.483333 3.833333 0.750000 0
   1   4   0 0
   1   2   0 0
   2
   1   3   0 0
   1  86   0 0
   0
ok  1.000000e+00   1   1   1 1 1.444444 0.666667 1.366667 0.458333 1.669444 0.775000 0
   1  10   1 0
1.000000 0.650000
   1
   1   1   0 0
   0
