|0|





|
f   0  31   0  20   1   0   0
inA    2 1.500000 1.833333 1.700000 1.800000 0
inB    2 1.500000 3.333333 1.700000 3.300000 0
inC    2 1.500000 4.916667 1.700000 4.883333 0
m1A    0 3.000000 1.833333 2.916667 2.116667 0
m2B    0 3.000000 3.333333 2.900000 3.133333 0
m3C    0 3.000000 4.916667 2.850000 5.250000 0
B1A    0 4.416667 1.833333 4.616667 1.800000 0
B3B    0 4.416667 3.333333 4.616667 3.300000 0
B5C    0 4.416667 4.916667 4.266667 5.250000 0
m3A    0 5.750000 1.833333 5.950000 1.800000 0
m1B    0 5.750000 3.333333 5.950000 3.300000 0
m1C    0 5.750000 4.916667 5.633333 5.266667 0
B2A    0 7.333333 1.833333 7.533333 1.800000 0
B4B    0 7.333333 3.333333 7.083333 3.683333 0
B6C    0 7.333333 4.916667 7.533333 4.883333 0
M3    1 5.833333 2.583333 6.033333 2.550000 0
M1    1 5.750000 4.083333 6.016667 4.216667 0
B2Abis    0 8.750000 2.583333 8.666667 2.333333 0
m4C    0 9.583333 4.916667 9.416667 5.216667 0
M4    1 9.916667 4.000000 10.116667 3.966667 0
B7AB    0 10.666667 2.833333 10.866667 2.800000 0
B8C    0 10.666667 4.916667 10.866666 4.883333 0
m5ABC    0 11.500000 3.583333 11.350000 3.383333 0
M5    1 11.583333 4.416667 11.783333 4.383333 0
wait    0 12.250000 2.750000 12.450000 2.716667 0
cust    5 12.250000 1.583333 12.033333 1.400000 0
M2    1 3.000000 4.000000 3.216667 4.133333 0
B6Cbis    0 8.500000 4.916667 8.183333 5.283333 0
B4Bbis    0 8.750000 3.333333 8.900000 3.566667 0
m4AB    0 9.750000 2.833333 9.566667 2.700000 0
Kanban2    1 9.833333 6.250000 10.033333 6.216667 0
G1  2.333333 1.833333 1
M1C  1.000000e+00   0   0   1 1 6.583333 4.916667 6.416667 4.800000 6.750000 5.000000 0
   1  12   0 0
   2
   1  17   0 0
   1  15   0 0
   0
M1B  1.000000e+00   0   0   1 1 6.583333 3.333333 6.416667 3.216667 6.750000 3.416667 0
   1  11   0 0
   2
   1  17   0 0
   1  14   0 0
   0
ok  1.000000e+00   0   0   2 1 12.250000 3.583333 12.200000 3.300000 12.416667 3.666667 0
   1  23   0 0
   1  25   0 0
   3
   1  31   2 0
12.650000 3.850000
12.633333 6.266667
   1  26   2 0
12.700000 3.583333
12.700000 1.533333
   1  24   0 0
   0
Dem  1.000000e+00   0   0   1 0 12.250000 2.250000 11.766667 2.283333 12.416667 2.333333 0
   1  26   0 0
   1
   1  25   0 0
   0
M4C  1.000000e+00   0   0   1 1 10.250000 4.916667 10.066667 5.283333 10.416667 4.999999 0
   1  19   0 0
   2
   1  22   0 0
   1  20   0 0
   0
M4AB  1.000000e+00   0   0   1 1 10.250000 2.833333 10.083334 2.716666 10.416667 2.916666 0
   1  30   0 0
   2
   1  21   0 0
   1  20   0 0
   0
M3A  1.000000e+00   0   0   1 1 6.666667 1.833333 6.500000 1.716667 6.833333 1.916667 0
   1  10   0 0
   2
   1  16   0 0
   1  13   0 0
   0
M3C  1.000000e+00   0   0   1 1 3.750000 4.916667 3.583333 4.800000 3.916667 5.000000 0
   1   6   0 0
   2
   1  16   1 0
5.300000 4.033333
   1   9   0 0
   0
M2B  1.000000e+00   0   0   1 1 3.750000 3.333333 3.583333 3.216667 3.916667 3.416667 0
   1   5   0 0
   2
   1  27   0 0
   1   8   0 0
   0
M1A  1.000000e+00   0   0   1 1 3.833333 1.833333 3.666667 1.716667 4.000000 1.916667 0
   1   4   0 0
   2
   1  17   1 0
4.150000 3.666667
   1   7   0 0
   0
getM4C  1.000000e+00   1   1   2 1 9.000000 4.916667 8.716666 4.616666 9.166666 4.999999 0
   1  20   0 0
   1  28   0 0
   1
   1  19   0 0
   0
join3  1.000000e+00   1   1   3 1 10.916667 3.583333 10.733333 3.350000 11.083333 3.666667 0
   1  24   0 0
   1  21   0 0
   1  22   0 0
   1
   1  23   0 0
   0
join2  1.000000e+00   1   1   3 1 9.416667 2.833333 9.133333 2.533333 9.583333 2.916667 0
   1  20   0 0
   1  29   0 0
   1  18   0 0
   1
   1  30   0 0
   0
join1  1.000000e+00   1   1   4 1 8.083333 3.333333 7.799999 3.033333 8.249999 3.416666 0
   1  31   1 0
8.266667 6.266667
   1  14   0 0
   1  13   0 0
   1  15   0 0
   6
   1   3   4 0
8.516667 2.600000
8.766670 1.016667
0.866667 1.016667
0.866667 4.866667
   1   2   4 0
8.366667 2.616667
8.533333 1.116667
1.183333 1.116667
1.166667 3.083333
   1   1   2 0
8.333333 1.233333
1.483333 1.233333
   1  29   0 0
   1  18   0 0
   1  28   0 0
   0
endB5C  1.000000e+00   1   1   2 1 5.083333 4.916667 4.800000 4.616667 5.250000 5.000000 0
   1  17   0 0
   1   9   0 0
   1
   1  12   0 0
   0
endB3B  1.000000e+00   1   1   2 1 5.166667 3.333333 4.883333 3.033333 5.333333 3.416667 0
   1  17   0 0
   1   8   0 0
   1
   1  11   0 0
   0
endB1A  1.000000e+00   1   1   2 1 5.166667 1.833333 4.883333 1.533333 5.333333 1.916667 0
   1  16   0 0
   1   7   0 0
   1
   1  10   0 0
   0
startC  1.000000e+00   1   1   2 1 2.333333 4.916667 2.050000 4.616667 2.500000 5.000000 0
   1  16   1 0
5.083333 3.966667
   1   3   0 0
   1
   1   6   0 0
   0
startB  1.000000e+00   1   1   2 1 2.333333 3.333333 2.050000 3.033333 2.500000 3.416667 0
   1  27   0 0
   1   2   0 0
   1
   1   5   0 0
   0
startA  1.000000e+00   1   1   2 1 2.333333 1.833333 2.050000 1.533333 2.500000 1.916667 0
   1  17   1 0
2.700000 3.716667
   1   1   0 0
   1
   1   4   0 0
   0
